<svg xmlns="http://www.w3.org/2000/svg" viewBox="-6295.133 2510.056 39.193 55.459">
  <defs>
    <style>
      .cls-1 {
        fill: #fff;
      }
    </style>
  </defs>
  <path id="gas" class="cls-1" d="M801.076,202.2c.8.747,1.621,1.507,2.419,2.279a124.543,124.543,0,0,1,12.1,12.953,41.652,41.652,0,0,1,7.331,13.08,28.393,28.393,0,0,1,1.266,13.13,16.825,16.825,0,0,1-12.485,13.8c-.317.076-.646.127-1.089.215.152-.165.215-.253.3-.329a18.432,18.432,0,0,0,6.445-10.535c1.418-6.052.114-11.649-3.052-16.878a35.131,35.131,0,0,0-7.242-8.369,30.441,30.441,0,0,1-4.343,19.524,13.206,13.206,0,0,0-4.356-8.661,2.41,2.41,0,0,0-.152.342,35.726,35.726,0,0,1-2.709,6.926,24.492,24.492,0,0,0-2.152,5.938,10.65,10.65,0,0,0,2.6,9.281c.684.823,1.469,1.583,2.178,2.456-1.165-.532-2.343-1.026-3.482-1.621A17.941,17.941,0,0,1,788.047,250a16.3,16.3,0,0,1-2.748-9.5,23.516,23.516,0,0,1,2.064-9.205,94.057,94.057,0,0,1,5.875-10.75,68.36,68.36,0,0,0,5.824-11.877c.747-2.115,1.33-4.28,2.013-6.47" transform="translate(-7080.432 2307.856)"/>
</svg>
