<svg xmlns="http://www.w3.org/2000/svg" viewBox="18276.5 3154.75 207.518 195.615">
  <defs>
    <style>
      .cls-1 {
        fill: #c6c6c6;
        stroke: #1d1d1b;
        stroke-width: 0.5px;
      }

      .cls-1, .cls-2, .cls-3, .cls-4 {
        stroke-linecap: round;
        stroke-linejoin: round;
      }

      .cls-2 {
        fill: #fff;
      }

      .cls-2, .cls-3, .cls-4 {
        stroke: #000;
      }

      .cls-3, .cls-4, .cls-5 {
        fill: none;
      }

      .cls-3 {
        stroke-width: 0.75px;
      }

      .cls-6 {
        fill: #1d1d1b;
      }

      .cls-7 {
        font-size: 13px;
        font-family: Quicksand-Regular, Quicksand;
      }
    </style>
  </defs>
  <g id="_30_Cm_No" data-name="30 Cm No" transform="translate(18276.5 3154.7)">
    <rect id="Rectangle_957" data-name="Rectangle 957" class="cls-1" width="140.389" height="195" transform="translate(0.5 0.3)"/>
    <rect id="Rectangle_958" data-name="Rectangle 958" class="cls-2" width="56.508" height="125.483" transform="translate(11.612 61.28)"/>
    <rect id="Rectangle_959" data-name="Rectangle 959" class="cls-3" width="42.55" height="52.172" transform="translate(18.387 68.326)"/>
    <rect id="Rectangle_960" data-name="Rectangle 960" class="cls-3" width="42.55" height="52.172" transform="translate(18.387 127.274)"/>
    <rect id="Rectangle_961" data-name="Rectangle 961" class="cls-2" width="60.844" height="3.523" transform="translate(9.986 186.898)"/>
    <line id="Line_135" data-name="Line 135" class="cls-4" x2="206.518" transform="translate(0.5 195.165)"/>
    <g id="Group_1060" data-name="Group 1060" transform="translate(68.255 57.621)">
      <g id="Group_1058" data-name="Group 1058" transform="translate(0 19.514)">
        <g id="Group_1057" data-name="Group 1057">
          <g id="Group_1056" data-name="Group 1056">
            <g id="Group_1040" data-name="Group 1040">
              <g id="Group_1039" data-name="Group 1039">
                <g id="Group_1038" data-name="Group 1038">
                  <rect id="Rectangle_962" data-name="Rectangle 962" class="cls-5" width="8.537" height="10.163"/>
                </g>
                <rect id="Rectangle_963" data-name="Rectangle 963" class="cls-6" width="1.626" height="1.084" transform="translate(6.369 4.743)"/>
                <rect id="Rectangle_964" data-name="Rectangle 964" class="cls-6" width="1.626" height="1.084" transform="translate(3.523 4.743)"/>
                <rect id="Rectangle_965" data-name="Rectangle 965" class="cls-6" width="1.626" height="1.084" transform="translate(0.678 4.743)"/>
              </g>
            </g>
            <g id="Group_1043" data-name="Group 1043" transform="translate(8.537)">
              <g id="Group_1042" data-name="Group 1042">
                <g id="Group_1041" data-name="Group 1041">
                  <rect id="Rectangle_966" data-name="Rectangle 966" class="cls-5" width="8.537" height="10.163"/>
                </g>
                <rect id="Rectangle_967" data-name="Rectangle 967" class="cls-6" width="1.626" height="1.084" transform="translate(6.369 4.743)"/>
                <rect id="Rectangle_968" data-name="Rectangle 968" class="cls-6" width="1.626" height="1.084" transform="translate(3.523 4.743)"/>
                <rect id="Rectangle_969" data-name="Rectangle 969" class="cls-6" width="1.626" height="1.084" transform="translate(0.678 4.743)"/>
              </g>
            </g>
            <g id="Group_1046" data-name="Group 1046" transform="translate(17.074)">
              <g id="Group_1045" data-name="Group 1045">
                <g id="Group_1044" data-name="Group 1044">
                  <rect id="Rectangle_970" data-name="Rectangle 970" class="cls-5" width="8.537" height="10.163"/>
                </g>
                <rect id="Rectangle_971" data-name="Rectangle 971" class="cls-6" width="1.626" height="1.084" transform="translate(6.369 4.743)"/>
                <rect id="Rectangle_972" data-name="Rectangle 972" class="cls-6" width="1.626" height="1.084" transform="translate(3.523 4.743)"/>
                <rect id="Rectangle_973" data-name="Rectangle 973" class="cls-6" width="1.626" height="1.084" transform="translate(0.678 4.743)"/>
              </g>
            </g>
            <g id="Group_1049" data-name="Group 1049" transform="translate(25.612)">
              <g id="Group_1048" data-name="Group 1048">
                <g id="Group_1047" data-name="Group 1047">
                  <rect id="Rectangle_974" data-name="Rectangle 974" class="cls-5" width="8.537" height="10.163"/>
                </g>
                <rect id="Rectangle_975" data-name="Rectangle 975" class="cls-6" width="1.626" height="1.084" transform="translate(6.369 4.743)"/>
                <rect id="Rectangle_976" data-name="Rectangle 976" class="cls-6" width="1.626" height="1.084" transform="translate(3.523 4.743)"/>
                <rect id="Rectangle_977" data-name="Rectangle 977" class="cls-6" width="1.626" height="1.084" transform="translate(0.678 4.743)"/>
              </g>
            </g>
            <g id="Group_1052" data-name="Group 1052" transform="translate(34.149)">
              <g id="Group_1051" data-name="Group 1051">
                <g id="Group_1050" data-name="Group 1050">
                  <rect id="Rectangle_978" data-name="Rectangle 978" class="cls-5" width="8.537" height="10.163"/>
                </g>
                <rect id="Rectangle_979" data-name="Rectangle 979" class="cls-6" width="1.626" height="1.084" transform="translate(6.234 4.743)"/>
                <rect id="Rectangle_980" data-name="Rectangle 980" class="cls-6" width="1.626" height="1.084" transform="translate(3.523 4.743)"/>
                <rect id="Rectangle_981" data-name="Rectangle 981" class="cls-6" width="1.626" height="1.084" transform="translate(0.678 4.743)"/>
              </g>
            </g>
            <g id="Group_1055" data-name="Group 1055" transform="translate(42.686)">
              <g id="Group_1054" data-name="Group 1054">
                <g id="Group_1053" data-name="Group 1053">
                  <rect id="Rectangle_982" data-name="Rectangle 982" class="cls-5" width="8.537" height="10.163"/>
                </g>
                <rect id="Rectangle_983" data-name="Rectangle 983" class="cls-6" width="1.626" height="1.084" transform="translate(6.233 4.743)"/>
                <rect id="Rectangle_984" data-name="Rectangle 984" class="cls-6" width="1.626" height="1.084" transform="translate(3.388 4.743)"/>
                <rect id="Rectangle_985" data-name="Rectangle 985" class="cls-6" width="1.626" height="1.084" transform="translate(0.678 4.743)"/>
              </g>
            </g>
          </g>
        </g>
      </g>
      <g id="Group_1059" data-name="Group 1059" transform="translate(17.074)">
        <path id="Path_344" data-name="Path 344" class="cls-2" d="M72.179,60.758c6.5,0,9.079-2.71,9.079-9.079S78.548,42.6,72.179,42.6c-6.5,0-9.079,2.71-9.079,9.079S65.675,60.758,72.179,60.758Z" transform="translate(-63.1 -42.6)"/>
        <path id="Path_345" data-name="Path 345" class="cls-4" d="M71.54,57.58c4.607,0,6.64-1.9,6.64-6.64s-1.9-6.64-6.64-6.64c-4.607,0-6.64,1.9-6.64,6.64S66.933,57.58,71.54,57.58Z" transform="translate(-62.461 -41.996)"/>
      </g>
      <rect id="Rectangle_986" data-name="Rectangle 986" class="cls-5" width="58.676" height="26.56" transform="translate(2.71 27.509)"/>
      <text id="less_than_30cm" data-name="less than
30cm" class="cls-7" transform="translate(2.662 37.014)"><tspan x="0" y="0">less than</tspan><tspan x="0" y="16">30cm</tspan></text>
    </g>
  </g>
</svg>
