<svg xmlns="http://www.w3.org/2000/svg" viewBox="19740.5 3154.5 300.75 196">
  <defs>
    <style>
      .cls-1, .cls-4 {
        fill: none;
      }

      .cls-1, .cls-3, .cls-4 {
        stroke: #000;
      }

      .cls-1, .cls-2, .cls-3, .cls-4 {
        stroke-linecap: round;
        stroke-linejoin: round;
      }

      .cls-1 {
        stroke-width: 0.75px;
      }

      .cls-2 {
        fill: #c6c6c6;
        stroke: #1d1d1b;
      }

      .cls-3 {
        fill: #fff;
      }
    </style>
  </defs>
  <g id="Covered_Flue_No" data-name="Covered Flue No" transform="translate(19740.5 3154.5)">
    <rect id="Rectangle_921" data-name="Rectangle 921" class="cls-1" width="2.981" height="16.803" transform="translate(140.754 67.578)"/>
    <path id="Path_318" data-name="Path 318" class="cls-1" d="M109.181,62.512,106.2,64.274V51.4l2.981,1.762Z" transform="translate(37.535 18.075)"/>
    <path id="Path_319" data-name="Path 319" class="cls-1" d="M108.4,52.8h22.495l-5.014,9.079H108.4" transform="translate(38.316 18.572)"/>
    <rect id="Rectangle_922" data-name="Rectangle 922" class="cls-2" width="140.389" height="195" transform="translate(0.5 0.5)"/>
    <rect id="Rectangle_923" data-name="Rectangle 923" class="cls-3" width="56.508" height="125.483" transform="translate(11.612 61.615)"/>
    <rect id="Rectangle_924" data-name="Rectangle 924" class="cls-1" width="42.55" height="52.172" transform="translate(18.387 68.662)"/>
    <rect id="Rectangle_925" data-name="Rectangle 925" class="cls-1" width="42.55" height="52.172" transform="translate(18.387 127.474)"/>
    <rect id="Rectangle_926" data-name="Rectangle 926" class="cls-3" width="60.844" height="3.523" transform="translate(9.986 187.098)"/>
    <line id="Line_133" data-name="Line 133" class="cls-4" x2="299.75" transform="translate(0.5 195.5)"/>
  </g>
</svg>
