<svg xmlns="http://www.w3.org/2000/svg" viewBox="22784.5 3123.75 250.682 208.106">
  <defs>
    <style>
      .cls-1 {
        fill: #c6c6c6;
        stroke: #1d1d1b;
        stroke-width: 0.5px;
      }

      .cls-1, .cls-2, .cls-3, .cls-4 {
        stroke-linecap: round;
        stroke-linejoin: round;
      }

      .cls-2 {
        fill: #fff;
      }

      .cls-2, .cls-3, .cls-4 {
        stroke: #000;
      }

      .cls-3, .cls-4, .cls-5 {
        fill: none;
      }

      .cls-3 {
        stroke-width: 0.75px;
      }

      .cls-6, .cls-7 {
        fill: #1d1d1b;
      }

      .cls-7 {
        fill-rule: evenodd;
      }

      .cls-8 {
        font-size: 14px;
        font-family: Quicksand-Regular, Quicksand;
      }
    </style>
  </defs>
  <g id="Less_than_2_meters" data-name="Less than 2 meters" transform="translate(21877 2149)">
    <g id="Group_933" data-name="Group 933" transform="translate(907.5 974.7)">
      <rect id="Rectangle_711" data-name="Rectangle 711" class="cls-1" width="149.389" height="207.5" transform="translate(0.5 0.3)"/>
      <rect id="Rectangle_712" data-name="Rectangle 712" class="cls-2" width="60.13" height="133.527" transform="translate(12.324 65.189)"/>
      <rect id="Rectangle_713" data-name="Rectangle 713" class="cls-3" width="45.278" height="55.516" transform="translate(19.534 72.687)"/>
      <rect id="Rectangle_714" data-name="Rectangle 714" class="cls-3" width="45.278" height="55.516" transform="translate(19.534 135.413)"/>
      <rect id="Rectangle_715" data-name="Rectangle 715" class="cls-2" width="64.745" height="3.749" transform="translate(10.594 198.86)"/>
      <line id="Line_131" data-name="Line 131" class="cls-4" x2="219.757" transform="translate(0.5 207.656)"/>
      <g id="Group_874" data-name="Group 874" transform="translate(120.761 93.596)">
        <g id="Group_873" data-name="Group 873">
          <g id="Group_872" data-name="Group 872">
            <g id="Group_856" data-name="Group 856">
              <g id="Group_855" data-name="Group 855">
                <g id="Group_854" data-name="Group 854">
                  <rect id="Rectangle_716" data-name="Rectangle 716" class="cls-5" width="9.084" height="10.815"/>
                </g>
                <rect id="Rectangle_717" data-name="Rectangle 717" class="cls-6" width="1.73" height="1.154" transform="translate(6.777 5.047)"/>
                <rect id="Rectangle_718" data-name="Rectangle 718" class="cls-6" width="1.73" height="1.154" transform="translate(3.749 5.047)"/>
                <rect id="Rectangle_719" data-name="Rectangle 719" class="cls-6" width="1.73" height="1.154" transform="translate(0.721 5.047)"/>
              </g>
            </g>
            <g id="Group_859" data-name="Group 859" transform="translate(9.084)">
              <g id="Group_858" data-name="Group 858">
                <g id="Group_857" data-name="Group 857">
                  <rect id="Rectangle_720" data-name="Rectangle 720" class="cls-5" width="9.084" height="10.815"/>
                </g>
                <rect id="Rectangle_721" data-name="Rectangle 721" class="cls-6" width="1.73" height="1.154" transform="translate(6.777 5.047)"/>
                <rect id="Rectangle_722" data-name="Rectangle 722" class="cls-6" width="1.73" height="1.154" transform="translate(3.749 5.047)"/>
                <rect id="Rectangle_723" data-name="Rectangle 723" class="cls-6" width="1.73" height="1.154" transform="translate(0.721 5.047)"/>
              </g>
            </g>
            <g id="Group_862" data-name="Group 862" transform="translate(18.169)">
              <g id="Group_861" data-name="Group 861">
                <g id="Group_860" data-name="Group 860">
                  <rect id="Rectangle_724" data-name="Rectangle 724" class="cls-5" width="9.084" height="10.815"/>
                </g>
                <rect id="Rectangle_725" data-name="Rectangle 725" class="cls-6" width="1.73" height="1.154" transform="translate(6.777 5.047)"/>
                <rect id="Rectangle_726" data-name="Rectangle 726" class="cls-6" width="1.73" height="1.154" transform="translate(3.749 5.047)"/>
                <rect id="Rectangle_727" data-name="Rectangle 727" class="cls-6" width="1.73" height="1.154" transform="translate(0.721 5.047)"/>
              </g>
            </g>
            <g id="Group_865" data-name="Group 865" transform="translate(27.253)">
              <g id="Group_864" data-name="Group 864">
                <g id="Group_863" data-name="Group 863">
                  <rect id="Rectangle_728" data-name="Rectangle 728" class="cls-5" width="9.084" height="10.815"/>
                </g>
                <rect id="Rectangle_729" data-name="Rectangle 729" class="cls-6" width="1.73" height="1.154" transform="translate(6.633 5.047)"/>
                <rect id="Rectangle_730" data-name="Rectangle 730" class="cls-6" width="1.73" height="1.154" transform="translate(3.749 5.047)"/>
                <rect id="Rectangle_731" data-name="Rectangle 731" class="cls-6" width="1.73" height="1.154" transform="translate(0.721 5.047)"/>
              </g>
            </g>
            <g id="Group_868" data-name="Group 868" transform="translate(36.338)">
              <g id="Group_867" data-name="Group 867">
                <g id="Group_866" data-name="Group 866">
                  <rect id="Rectangle_732" data-name="Rectangle 732" class="cls-5" width="9.084" height="10.815"/>
                </g>
                <rect id="Rectangle_733" data-name="Rectangle 733" class="cls-6" width="1.73" height="1.154" transform="translate(6.633 5.047)"/>
                <rect id="Rectangle_734" data-name="Rectangle 734" class="cls-6" width="1.73" height="1.154" transform="translate(3.605 5.047)"/>
                <rect id="Rectangle_735" data-name="Rectangle 735" class="cls-6" width="1.73" height="1.154" transform="translate(0.721 5.047)"/>
              </g>
            </g>
            <g id="Group_871" data-name="Group 871" transform="translate(45.422)">
              <g id="Group_870" data-name="Group 870">
                <g id="Group_869" data-name="Group 869">
                  <rect id="Rectangle_736" data-name="Rectangle 736" class="cls-5" width="9.084" height="10.815"/>
                </g>
                <rect id="Rectangle_737" data-name="Rectangle 737" class="cls-6" width="1.73" height="1.154" transform="translate(6.633 5.047)"/>
                <rect id="Rectangle_738" data-name="Rectangle 738" class="cls-6" width="1.73" height="1.154" transform="translate(3.605 5.047)"/>
                <rect id="Rectangle_739" data-name="Rectangle 739" class="cls-6" width="1.73" height="1.154" transform="translate(0.577 5.047)"/>
              </g>
            </g>
          </g>
        </g>
      </g>
      <g id="Group_932" data-name="Group 932" transform="translate(127.826 59.709)">
        <g id="Group_931" data-name="Group 931">
          <g id="Group_930" data-name="Group 930">
            <g id="Group_877" data-name="Group 877">
              <g id="Group_876" data-name="Group 876">
                <g id="Group_875" data-name="Group 875">
                  <rect id="Rectangle_740" data-name="Rectangle 740" class="cls-5" width="10.526" height="10.815"/>
                </g>
                <rect id="Rectangle_741" data-name="Rectangle 741" class="cls-6" width="2.019" height="1.154" transform="translate(7.787 5.047)"/>
                <rect id="Rectangle_742" data-name="Rectangle 742" class="cls-6" width="2.019" height="1.154" transform="translate(4.182 5.047)"/>
                <rect id="Rectangle_743" data-name="Rectangle 743" class="cls-6" width="2.019" height="1.154" transform="translate(0.721 5.047)"/>
              </g>
            </g>
            <g id="Group_880" data-name="Group 880" transform="translate(10.526)">
              <g id="Group_879" data-name="Group 879">
                <g id="Group_878" data-name="Group 878">
                  <rect id="Rectangle_744" data-name="Rectangle 744" class="cls-5" width="10.526" height="10.815"/>
                </g>
                <rect id="Rectangle_745" data-name="Rectangle 745" class="cls-6" width="2.019" height="1.154" transform="translate(7.787 5.047)"/>
                <rect id="Rectangle_746" data-name="Rectangle 746" class="cls-6" width="2.019" height="1.154" transform="translate(4.182 5.047)"/>
                <rect id="Rectangle_747" data-name="Rectangle 747" class="cls-6" width="2.019" height="1.154" transform="translate(0.721 5.047)"/>
              </g>
            </g>
            <g id="Group_883" data-name="Group 883" transform="translate(20.909)">
              <g id="Group_882" data-name="Group 882">
                <g id="Group_881" data-name="Group 881">
                  <rect id="Rectangle_748" data-name="Rectangle 748" class="cls-5" width="10.526" height="10.815"/>
                </g>
                <rect id="Rectangle_749" data-name="Rectangle 749" class="cls-6" width="2.019" height="1.154" transform="translate(7.787 5.047)"/>
                <rect id="Rectangle_750" data-name="Rectangle 750" class="cls-6" width="2.019" height="1.154" transform="translate(4.326 5.047)"/>
                <rect id="Rectangle_751" data-name="Rectangle 751" class="cls-6" width="2.019" height="1.154" transform="translate(0.865 5.047)"/>
              </g>
            </g>
            <g id="Group_886" data-name="Group 886" transform="translate(31.435)">
              <g id="Group_885" data-name="Group 885">
                <g id="Group_884" data-name="Group 884">
                  <rect id="Rectangle_752" data-name="Rectangle 752" class="cls-5" width="10.526" height="10.815"/>
                </g>
                <rect id="Rectangle_753" data-name="Rectangle 753" class="cls-6" width="2.019" height="1.154" transform="translate(7.787 5.047)"/>
                <rect id="Rectangle_754" data-name="Rectangle 754" class="cls-6" width="2.019" height="1.154" transform="translate(4.326 5.047)"/>
                <rect id="Rectangle_755" data-name="Rectangle 755" class="cls-6" width="2.019" height="1.154" transform="translate(0.865 5.047)"/>
              </g>
            </g>
            <g id="Group_889" data-name="Group 889" transform="translate(41.961 10.815)">
              <g id="Group_888" data-name="Group 888">
                <g id="Group_887" data-name="Group 887">
                  <rect id="Rectangle_756" data-name="Rectangle 756" class="cls-5" width="10.815" height="9.805"/>
                </g>
                <rect id="Rectangle_757" data-name="Rectangle 757" class="cls-6" width="1.154" height="1.875" transform="translate(4.759 7.21)"/>
                <rect id="Rectangle_758" data-name="Rectangle 758" class="cls-6" width="1.154" height="1.875" transform="translate(4.759 4.038)"/>
                <rect id="Rectangle_759" data-name="Rectangle 759" class="cls-6" width="1.154" height="1.875" transform="translate(4.759 0.721)"/>
              </g>
            </g>
            <g id="Group_892" data-name="Group 892" transform="translate(41.961 20.62)">
              <g id="Group_891" data-name="Group 891">
                <g id="Group_890" data-name="Group 890">
                  <rect id="Rectangle_760" data-name="Rectangle 760" class="cls-5" width="10.815" height="9.805"/>
                </g>
                <rect id="Rectangle_761" data-name="Rectangle 761" class="cls-6" width="1.154" height="1.875" transform="translate(4.759 7.21)"/>
                <rect id="Rectangle_762" data-name="Rectangle 762" class="cls-6" width="1.154" height="1.875" transform="translate(4.759 4.038)"/>
                <rect id="Rectangle_763" data-name="Rectangle 763" class="cls-6" width="1.154" height="1.875" transform="translate(4.759 0.721)"/>
              </g>
            </g>
            <g id="Group_895" data-name="Group 895" transform="translate(41.961 30.426)">
              <g id="Group_894" data-name="Group 894">
                <g id="Group_893" data-name="Group 893">
                  <rect id="Rectangle_764" data-name="Rectangle 764" class="cls-5" width="10.815" height="9.805"/>
                </g>
                <rect id="Rectangle_765" data-name="Rectangle 765" class="cls-6" width="1.154" height="1.875" transform="translate(4.759 7.21)"/>
                <rect id="Rectangle_766" data-name="Rectangle 766" class="cls-6" width="1.154" height="1.875" transform="translate(4.759 4.038)"/>
                <rect id="Rectangle_767" data-name="Rectangle 767" class="cls-6" width="1.154" height="1.875" transform="translate(4.759 0.721)"/>
              </g>
            </g>
            <g id="Group_898" data-name="Group 898" transform="translate(41.961 40.231)">
              <g id="Group_897" data-name="Group 897">
                <g id="Group_896" data-name="Group 896">
                  <rect id="Rectangle_768" data-name="Rectangle 768" class="cls-5" width="10.815" height="9.805"/>
                </g>
                <rect id="Rectangle_769" data-name="Rectangle 769" class="cls-6" width="1.154" height="1.875" transform="translate(4.759 7.21)"/>
                <rect id="Rectangle_770" data-name="Rectangle 770" class="cls-6" width="1.154" height="1.875" transform="translate(4.759 4.038)"/>
                <rect id="Rectangle_771" data-name="Rectangle 771" class="cls-6" width="1.154" height="1.875" transform="translate(4.759 0.721)"/>
              </g>
            </g>
            <g id="Group_901" data-name="Group 901" transform="translate(41.961 50.036)">
              <g id="Group_900" data-name="Group 900">
                <g id="Group_899" data-name="Group 899">
                  <rect id="Rectangle_772" data-name="Rectangle 772" class="cls-5" width="10.815" height="9.805"/>
                </g>
                <rect id="Rectangle_773" data-name="Rectangle 773" class="cls-6" width="1.154" height="1.875" transform="translate(4.759 7.21)"/>
                <rect id="Rectangle_774" data-name="Rectangle 774" class="cls-6" width="1.154" height="1.875" transform="translate(4.759 4.038)"/>
                <rect id="Rectangle_775" data-name="Rectangle 775" class="cls-6" width="1.154" height="1.875" transform="translate(4.759 0.721)"/>
              </g>
            </g>
            <g id="Group_904" data-name="Group 904" transform="translate(41.961 59.842)">
              <g id="Group_903" data-name="Group 903">
                <g id="Group_902" data-name="Group 902">
                  <rect id="Rectangle_776" data-name="Rectangle 776" class="cls-5" width="10.815" height="9.805"/>
                </g>
                <rect id="Rectangle_777" data-name="Rectangle 777" class="cls-6" width="1.154" height="1.875" transform="translate(4.759 7.21)"/>
                <rect id="Rectangle_778" data-name="Rectangle 778" class="cls-6" width="1.154" height="1.875" transform="translate(4.759 4.038)"/>
                <rect id="Rectangle_779" data-name="Rectangle 779" class="cls-6" width="1.154" height="1.875" transform="translate(4.759 0.721)"/>
              </g>
            </g>
            <g id="Group_907" data-name="Group 907" transform="translate(41.961 69.647)">
              <g id="Group_906" data-name="Group 906">
                <g id="Group_905" data-name="Group 905">
                  <rect id="Rectangle_780" data-name="Rectangle 780" class="cls-5" width="10.815" height="9.805"/>
                </g>
                <rect id="Rectangle_781" data-name="Rectangle 781" class="cls-6" width="1.154" height="1.875" transform="translate(4.759 7.21)"/>
                <rect id="Rectangle_782" data-name="Rectangle 782" class="cls-6" width="1.154" height="1.875" transform="translate(4.759 3.893)"/>
                <rect id="Rectangle_783" data-name="Rectangle 783" class="cls-6" width="1.154" height="1.875" transform="translate(4.759 0.721)"/>
              </g>
            </g>
            <g id="Group_910" data-name="Group 910" transform="translate(41.961 79.453)">
              <g id="Group_909" data-name="Group 909">
                <g id="Group_908" data-name="Group 908">
                  <rect id="Rectangle_784" data-name="Rectangle 784" class="cls-5" width="10.815" height="9.805"/>
                </g>
                <rect id="Rectangle_785" data-name="Rectangle 785" class="cls-6" width="1.154" height="1.875" transform="translate(4.759 7.21)"/>
                <rect id="Rectangle_786" data-name="Rectangle 786" class="cls-6" width="1.154" height="1.875" transform="translate(4.759 3.893)"/>
                <rect id="Rectangle_787" data-name="Rectangle 787" class="cls-6" width="1.154" height="1.875" transform="translate(4.759 0.721)"/>
              </g>
            </g>
            <g id="Group_913" data-name="Group 913" transform="translate(41.961 89.258)">
              <g id="Group_912" data-name="Group 912">
                <g id="Group_911" data-name="Group 911">
                  <rect id="Rectangle_788" data-name="Rectangle 788" class="cls-5" width="10.815" height="9.805"/>
                </g>
                <rect id="Rectangle_789" data-name="Rectangle 789" class="cls-6" width="1.154" height="1.875" transform="translate(4.759 7.21)"/>
                <rect id="Rectangle_790" data-name="Rectangle 790" class="cls-6" width="1.154" height="1.875" transform="translate(4.759 3.893)"/>
                <rect id="Rectangle_791" data-name="Rectangle 791" class="cls-6" width="1.154" height="1.875" transform="translate(4.759 0.721)"/>
              </g>
            </g>
            <g id="Group_916" data-name="Group 916" transform="translate(41.961 99.064)">
              <g id="Group_915" data-name="Group 915">
                <g id="Group_914" data-name="Group 914">
                  <rect id="Rectangle_792" data-name="Rectangle 792" class="cls-5" width="10.815" height="9.805"/>
                </g>
                <rect id="Rectangle_793" data-name="Rectangle 793" class="cls-6" width="1.154" height="1.875" transform="translate(4.759 7.21)"/>
                <rect id="Rectangle_794" data-name="Rectangle 794" class="cls-6" width="1.154" height="1.875" transform="translate(4.759 3.893)"/>
                <rect id="Rectangle_795" data-name="Rectangle 795" class="cls-6" width="1.154" height="1.875" transform="translate(4.759 0.721)"/>
              </g>
            </g>
            <g id="Group_919" data-name="Group 919" transform="translate(41.961 108.869)">
              <g id="Group_918" data-name="Group 918">
                <g id="Group_917" data-name="Group 917">
                  <rect id="Rectangle_796" data-name="Rectangle 796" class="cls-5" width="10.815" height="9.805"/>
                </g>
                <rect id="Rectangle_797" data-name="Rectangle 797" class="cls-6" width="1.154" height="1.875" transform="translate(4.759 7.21)"/>
                <rect id="Rectangle_798" data-name="Rectangle 798" class="cls-6" width="1.154" height="1.875" transform="translate(4.759 3.893)"/>
                <rect id="Rectangle_799" data-name="Rectangle 799" class="cls-6" width="1.154" height="1.875" transform="translate(4.759 0.721)"/>
              </g>
            </g>
            <g id="Group_922" data-name="Group 922" transform="translate(41.961 118.53)">
              <g id="Group_921" data-name="Group 921">
                <g id="Group_920" data-name="Group 920">
                  <rect id="Rectangle_800" data-name="Rectangle 800" class="cls-5" width="10.815" height="9.805"/>
                </g>
                <rect id="Rectangle_801" data-name="Rectangle 801" class="cls-6" width="1.154" height="1.875" transform="translate(4.759 7.354)"/>
                <rect id="Rectangle_802" data-name="Rectangle 802" class="cls-6" width="1.154" height="1.875" transform="translate(4.759 4.038)"/>
                <rect id="Rectangle_803" data-name="Rectangle 803" class="cls-6" width="1.154" height="1.875" transform="translate(4.759 0.865)"/>
              </g>
            </g>
            <g id="Group_925" data-name="Group 925" transform="translate(41.961 128.336)">
              <g id="Group_924" data-name="Group 924">
                <g id="Group_923" data-name="Group 923">
                  <rect id="Rectangle_804" data-name="Rectangle 804" class="cls-5" width="10.815" height="9.805"/>
                </g>
                <rect id="Rectangle_805" data-name="Rectangle 805" class="cls-6" width="1.154" height="1.875" transform="translate(4.759 7.354)"/>
                <rect id="Rectangle_806" data-name="Rectangle 806" class="cls-6" width="1.154" height="1.875" transform="translate(4.759 4.038)"/>
                <rect id="Rectangle_807" data-name="Rectangle 807" class="cls-6" width="1.154" height="1.875" transform="translate(4.759 0.865)"/>
              </g>
            </g>
            <g id="Group_928" data-name="Group 928" transform="translate(41.961 138.141)">
              <g id="Group_927" data-name="Group 927">
                <g id="Group_926" data-name="Group 926">
                  <rect id="Rectangle_808" data-name="Rectangle 808" class="cls-5" width="10.815" height="9.805"/>
                </g>
                <rect id="Rectangle_809" data-name="Rectangle 809" class="cls-6" width="1.154" height="1.875" transform="translate(4.759 7.354)"/>
                <rect id="Rectangle_810" data-name="Rectangle 810" class="cls-6" width="1.154" height="1.875" transform="translate(4.759 4.038)"/>
                <rect id="Rectangle_811" data-name="Rectangle 811" class="cls-6" width="1.154" height="1.875" transform="translate(4.759 0.721)"/>
              </g>
            </g>
            <g id="Group_929" data-name="Group 929" transform="translate(42.682 5.047)">
              <rect id="Rectangle_812" data-name="Rectangle 812" class="cls-6" width="1.875" height="1.154"/>
              <path id="Path_308" data-name="Path 308" class="cls-7" d="M122.43,45H120.7v1.009h.721v.721h1.009Z" transform="translate(-117.383 -45)"/>
              <rect id="Rectangle_813" data-name="Rectangle 813" class="cls-6" width="1.154" height="1.875" transform="translate(4.038 3.172)"/>
            </g>
          </g>
        </g>
      </g>
      <path id="Path_309" data-name="Path 309" class="cls-2" d="M86.861,81.422c6.921,0,9.661-2.884,9.661-9.661S93.639,62.1,86.861,62.1c-6.921,0-9.661,2.884-9.661,9.661S80.084,81.422,86.861,81.422Z" transform="translate(33.899 27.314)"/>
      <path id="Path_310" data-name="Path 310" class="cls-4" d="M86.066,77.931c4.9,0,7.066-2.019,7.066-7.066S91.113,63.8,86.066,63.8c-4.9,0-7.066,2.019-7.066,7.066S81.163,77.931,86.066,77.931Z" transform="translate(34.695 28.065)"/>
      <rect id="Rectangle_814" data-name="Rectangle 814" class="cls-5" width="68.061" height="28.118" transform="translate(182.621 92.01)"/>
      <text id="below_2m" data-name="below 
2m" class="cls-8" transform="translate(182.664 102.256)"><tspan x="0" y="0">below </tspan><tspan x="0" y="17">2m</tspan></text>
    </g>
  </g>
</svg>
