<svg xmlns="http://www.w3.org/2000/svg" viewBox="21419.625 547.5 99.875 227.021">
  <defs>
    <style>
      .cls-1, .cls-3, .cls-4 {
        fill: none;
        stroke: #000;
      }

      .cls-1, .cls-2, .cls-3, .cls-4 {
        stroke-linecap: round;
        stroke-linejoin: round;
      }

      .cls-1, .cls-2 {
        stroke-width: 0.5px;
      }

      .cls-2 {
        fill: #e2e2e2;
        stroke: #c6c6c6;
      }

      .cls-3 {
        stroke-width: 0.75px;
      }
    </style>
  </defs>
  <g id="Radiator_Valves_No" data-name="Radiator Valves No" transform="translate(21419.699 547.5)">
    <rect id="Rectangle_623" data-name="Rectangle 623" class="cls-1" width="61.331" height="29.576" transform="translate(18.979 148.067)"/>
    <path id="Path_261" data-name="Path 261" class="cls-2" d="M37.494,8.4H34.381c-3.425,0-4.981,1.557-4.981,4.981V91.523c0,3.425,1.557,4.981,4.981,4.981h3.113" transform="translate(61.495 16.695)"/>
    <path id="Path_262" data-name="Path 262" class="cls-2" d="M.4,96.5H3.513c3.425,0,4.981-1.557,4.981-4.981V13.381C8.494,9.957,6.938,8.4,3.513,8.4H.4" transform="translate(0.211 16.695)"/>
    <path id="Path_263" data-name="Path 263" class="cls-2" d="M5.7,91.523c0,3.425,1.557,4.981,4.981,4.981h6.226c3.425,0,4.981-1.557,4.981-4.981V13.381c0-3.425-1.557-4.981-4.981-4.981H10.681C7.257,8.4,5.7,9.957,5.7,13.381,5.7,39.532,5.7,65.372,5.7,91.523Z" transform="translate(11.411 16.695)"/>
    <path id="Path_264" data-name="Path 264" class="cls-2" d="M13.6,91.523c0,3.425,1.557,4.981,4.981,4.981h6.226c3.425,0,4.981-1.557,4.981-4.981V13.381c0-3.425-1.557-4.981-4.981-4.981H18.581c-3.425,0-4.981,1.557-4.981,4.981Z" transform="translate(28.106 16.695)"/>
    <path id="Path_265" data-name="Path 265" class="cls-2" d="M21.5,91.523c0,3.425,1.557,4.981,4.981,4.981h6.226c3.425,0,4.981-1.557,4.981-4.981V13.381c0-3.425-1.557-4.981-4.981-4.981H26.481c-3.425,0-4.981,1.557-4.981,4.981Z" transform="translate(44.801 16.695)"/>
    <path id="Path_266" data-name="Path 266" class="cls-1" d="M98.778,36.7v5.292H.4V36.7" transform="translate(0.211 76.499)"/>
    <path id="Path_267" data-name="Path 267" class="cls-1" d="M.4,25.095C.4,7.66,7.56.5,24.995.5H74.184C91.618.5,98.778,7.66,98.778,25.095" transform="translate(0.211 0)"/>
    <line id="Line_78" data-name="Line 78" class="cls-1" y2="88.104" transform="translate(97.744 25.095)"/>
    <line id="Line_79" data-name="Line 79" class="cls-1" y1="88.104" transform="translate(1.857 25.095)"/>
    <path id="Path_268" data-name="Path 268" class="cls-3" d="M12.753,67.764H86.537c8.717,0,12.142-3.736,12.142-12.142V38.5H.3V55.623C.611,64.029,4.036,67.764,12.753,67.764Z" transform="translate(0 80.303)"/>
    <g id="Group_787" data-name="Group 787" transform="translate(0.923 0.5)">
      <path id="Path_269" data-name="Path 269" class="cls-4" d="M68.368,226.521V177.332H80.51V147.756h6.226c8.717,0,12.142-3.736,12.142-12.142V113.2H97.633v-88.1h1.245C98.878,7.66,91.718.5,74.284.5H25.095C7.66.5.5,7.66.5,25.095H1.745v88.1H.5v22.415c0,8.717,3.736,12.142,12.142,12.142h6.226v29.576H31.01v49.189" transform="translate(-0.5 -0.5)"/>
    </g>
  </g>
</svg>
