<svg xmlns="http://www.w3.org/2000/svg" viewBox="22280.75 544.667 283.828 206.777">
  <defs>
    <style>
      .cls-1 {
        fill: #c6c6c6;
        stroke: #1d1d1b;
        stroke-width: 0.5px;
      }

      .cls-1, .cls-2, .cls-3 {
        stroke-linecap: round;
        stroke-linejoin: round;
      }

      .cls-2 {
        fill: #fff;
      }

      .cls-2, .cls-3 {
        stroke: #000;
      }

      .cls-3 {
        fill: none;
      }
    </style>
  </defs>
  <g id="Roof" transform="translate(22280.699 544.667)">
    <path id="Path_270" data-name="Path 270" class="cls-1" d="M.3,201.369H283.628V15.8H186Z" transform="translate(0 5.158)"/>
    <path id="Path_271" data-name="Path 271" class="cls-2" d="M115.3,43.2" transform="translate(37.541 14.102)"/>
    <path id="Path_272" data-name="Path 272" class="cls-3" d="M73.8,0" transform="translate(23.994)"/>
    <path id="Path_273" data-name="Path 273" class="cls-2" d="M94.255,91.5H85.5v20.427h57.3V91.5h-8.755" transform="translate(27.813 29.87)"/>
    <path id="Path_274" data-name="Path 274" class="cls-2" d="M99.877,80.1,95.5,87.13h30.773L121.9,80.1Z" transform="translate(31.077 26.148)"/>
    <path id="Path_275" data-name="Path 275" class="cls-2" d="M120.654,93.19V40H98.9V93.19" transform="translate(32.187 13.058)"/>
    <path id="Path_276" data-name="Path 276" class="cls-2" d="M99.877,27.2,95.5,44.178h30.773L121.9,27.2Z" transform="translate(31.077 8.879)"/>
    <path id="Path_277" data-name="Path 277" class="cls-2" d="M131.893,104.235c0,3.581-7.03,4.112-9.152,4.51a58.62,58.62,0,0,1-10.744.8,73.218,73.218,0,0,1-10.744-.8c-2.122-.4-9.152-.929-9.152-4.51V89.114c0-2.653,1.061-3.714,3.714-3.714h32.5c2.653,0,3.714,1.061,3.714,3.714v15.121Z" transform="translate(29.967 27.878)"/>
  </g>
</svg>
