<svg xmlns="http://www.w3.org/2000/svg" viewBox="10471 557.75 110.55 131.75">
  <defs>
    <style>
      .cls-1, .cls-2 {
        fill: #62c6f2;
      }

      .cls-2 {
        stroke: #62c6f2;
        stroke-miterlimit: 10;
        stroke-width: 0.5px;
      }

      .cls-3 {
        fill: #fff;
      }
    </style>
  </defs>
  <g id="Standard" transform="translate(10471 557.7)">
    <rect id="Rectangle_614" data-name="Rectangle 614" class="cls-1" width="3.551" height="18.464" transform="translate(18.583 97.83)"/>
    <rect id="Rectangle_615" data-name="Rectangle 615" class="cls-1" width="3.551" height="18.464" transform="translate(27.933 97.83)"/>
    <path id="Path_243" data-name="Path 243" class="cls-2" d="M45.666.3H20.1V18.764h3.551V3.851H45.666Z" transform="translate(3.691 0)"/>
    <path id="Path_244" data-name="Path 244" class="cls-1" d="M50.422,19.985a8.412,8.412,0,0,0-8.4-8.285H8.4A8.335,8.335,0,0,0,0,19.985V87.57H50.422ZM0,98.341H12.665l3.551,3.551H34.325l3.551-3.551H50.541v-7.22H0Z" transform="translate(0 2.093)"/>
    <circle id="Ellipse_76" data-name="Ellipse 76" class="cls-3" cx="2.367" cy="2.367" r="2.367" transform="translate(22.725 78.064)"/>
    <g id="Group_765" data-name="Group 765" transform="translate(67.94 60.783)">
      <path id="Path_245" data-name="Path 245" class="cls-1" d="M62.134,117.683H64.5v4.734h4.734v-4.734H88.174v4.734h4.734v-4.734h2.367a4.748,4.748,0,0,0,4.734-4.734V56.134A4.748,4.748,0,0,0,95.276,51.4H62.134A4.748,4.748,0,0,0,57.4,56.134v56.814A4.748,4.748,0,0,0,62.134,117.683Zm.118-60.956H95.394v49.712H62.253Zm4.261,54.21a1.539,1.539,0,1,1-1.539-1.539A1.567,1.567,0,0,1,66.514,110.936Zm5.918,0a1.539,1.539,0,1,1-1.539-1.539A1.567,1.567,0,0,1,72.432,110.936Zm20.122.473a1.894,1.894,0,1,1-1.894-1.894A1.87,1.87,0,0,1,92.553,111.409Z" transform="translate(-57.4 -51.4)"/>
      <path id="Path_246" data-name="Path 246" class="cls-1" d="M75.214,85l.473.473A18.376,18.376,0,0,1,78.173,88.2a10.161,10.161,0,0,1,1.539,2.722,6.9,6.9,0,0,1,.237,2.722,3.556,3.556,0,0,1-2.6,2.841h-.237l.118-.118a4.038,4.038,0,0,0,1.3-2.131,4.879,4.879,0,0,0-.592-3.432A11.051,11.051,0,0,0,76.4,89.024a6.18,6.18,0,0,1-.947,4.024,2.65,2.65,0,0,0-.947-1.775v.118a7.24,7.24,0,0,1-.592,1.42A4.946,4.946,0,0,0,73.439,94a2.3,2.3,0,0,0,.592,1.894l.473.473-.71-.355a2.566,2.566,0,0,1-1.3-1.184,3.99,3.99,0,0,1-.592-2.012,3.473,3.473,0,0,1,.473-1.894c.355-.829.829-1.539,1.184-2.249a9.6,9.6,0,0,0,1.184-2.486A4.947,4.947,0,0,0,75.214,85" transform="translate(-54.738 -45.23)"/>
    </g>
  </g>
</svg>
