<svg xmlns="http://www.w3.org/2000/svg" xmlns:xlink="http://www.w3.org/1999/xlink" viewBox="-9235.706 -3080.937 34.658 27.194">
  <defs>
    <style>
      .cls-1 {
        fill: #ea495c;
      }

      .cls-2 {
        clip-path: url(#clip-path);
      }
    </style>
    <clipPath id="clip-path">
      <rect id="Rectangle_9" data-name="Rectangle 9" class="cls-1" width="34.659" height="27.194"/>
    </clipPath>
  </defs>
  <g id="Group_1639" data-name="Group 1639" transform="translate(-9235.706 -3080.937)">
    <g id="Group_16" data-name="Group 16" class="cls-2">
      <path id="Path_13" data-name="Path 13" class="cls-1" d="M74.364,722.494a2.577,2.577,0,0,0,3.732,0l12.93-12.93a2.765,2.765,0,0,0,.8-1.333,12.39,12.39,0,0,0,3.6.533c2.8,0,3.6-1.2,4-2,.267-.667.533-2.266-1.466-4.132h0a14.844,14.844,0,0,0-4.932-3.066c-.4-.133-.667-.267-1.066-.4h0a3.051,3.051,0,0,0-2.933-2.933L81.3,696.1a3.722,3.722,0,0,0-2.666,1.066L65.7,710.1a2.577,2.577,0,0,0,0,3.732Zm10-21.728a2.259,2.259,0,0,1,3.066,0,2.5,2.5,0,0,1,.667,1.866,15.226,15.226,0,0,0,2.933,1.6,9.205,9.205,0,0,1,1.066.4v-3.066a.131.131,0,0,1,.133.133,10.568,10.568,0,0,1,4.132,2.666h0c.933.933,1.066,1.6.933,1.733-.267.533-2.8,1.066-6.8-.533a13.228,13.228,0,0,1-3.066-1.733.131.131,0,0,1-.133.133,2.259,2.259,0,0,1-3.066,0,2.293,2.293,0,0,1,.133-3.2Zm0,0" transform="translate(-65.033 -696.1)"/>
    </g>
  </g>
</svg>
