<svg xmlns="http://www.w3.org/2000/svg" viewBox="-9230.377 -3379.554 25.194 25.194">
  <defs>
    <style>
      .cls-1 {
        fill: #ea495c;
      }
    </style>
  </defs>
  <path id="Path_441" data-name="Path 441" class="cls-1" d="M90.495,450.1H70.9a2.734,2.734,0,0,0-2.8,2.8v19.6a2.734,2.734,0,0,0,2.8,2.8h19.6a2.733,2.733,0,0,0,2.8-2.8V452.9A2.816,2.816,0,0,0,90.495,450.1Zm-14,19.6H73.7v-9.731h2.8Zm5.6,0H79.3v-14h2.8Zm5.6,0H84.9v-5.6h2.8Z" transform="translate(-9298.477 -3829.654)"/>
</svg>
