<svg xmlns="http://www.w3.org/2000/svg" xmlns:xlink="http://www.w3.org/1999/xlink" viewBox="0 0 1919 629.21">
  <defs>
    <style>
      .cls-1 {
        fill: url(#linear-gradient);
      }
    </style>
    <linearGradient id="linear-gradient" x1="0.546" y1="1.107" x2="0.711" y2="-0.045" gradientUnits="objectBoundingBox">
      <stop offset="0" stop-color="#ff5858"/>
      <stop offset="1" stop-color="#ee4392"/>
    </linearGradient>
  </defs>
  <path id="Union_34" data-name="Union 34" class="cls-1" d="M822.719,637.422c-46.2-.912-91.052-2.342-133.325-4.248-44.633-2.012-88.043-4.631-129.023-7.785-42.93-3.3-84.694-7.306-124.13-11.9-41.068-4.784-80.986-10.365-118.644-16.591-39.035-6.454-76.908-13.809-112.567-21.861C168.2,566.72,132.573,557.4,99.134,547.33c-17.1-5.149-34.009-10.608-50.261-16.227C32.4,525.406,16.122,519.383.5,513.2V9.5h1919V513.2c-15.625,6.186-31.9,12.209-48.378,17.9-16.254,5.618-33.17,11.077-50.278,16.226-33.449,10.069-69.1,19.391-105.952,27.708-35.676,8.051-73.575,15.405-112.646,21.861-37.685,6.225-77.633,11.808-118.736,16.591-39.461,4.593-81.255,8.6-124.221,11.9-41,3.153-84.441,5.772-129.1,7.785-42.294,1.906-87.169,3.336-133.381,4.248-43.285.855-89.4,1.288-137.055,1.288S865.99,638.277,822.719,637.422Z" transform="translate(-0.5 -9.5)"/>
</svg>
