<svg xmlns="http://www.w3.org/2000/svg" viewBox="-8133.36 -2968.063 134.856 101.244">
  <defs>
    <style>
      .cls-1 {
        fill: #ea495c;
      }
    </style>
  </defs>
  <g id="Group_1741" data-name="Group 1741" transform="translate(-9327 -4417)">
    <path id="Path_436" data-name="Path 436" class="cls-1" d="M113.3,841.266V807.29h22.651v33.976h28.314v-45.3h16.988L124.627,745,68,795.965H84.988v45.3Z" transform="translate(1125.639 703.938)"/>
    <path id="Path_437" data-name="Path 437" class="cls-1" d="M23.319,33.035V21.375h0V33.035h9.716V17.489h5.83L19.432,0,0,17.489H5.83V33.035Z" transform="translate(1328.495 1511.317) rotate(90)"/>
  </g>
</svg>
