<?xml version="1.0" encoding="utf-8"?>
<!-- Generator: Adobe Illustrator 22.1.0, SVG Export Plug-In . SVG Version: 6.00 Build 0)  -->
<svg version="1.1" id="Layer_1" xmlns="http://www.w3.org/2000/svg" xmlns:xlink="http://www.w3.org/1999/xlink" x="0px" y="0px"
	 viewBox="0 0 30 30" style="enable-background:new 0 0 30 30;" xml:space="preserve">
<style type="text/css">
	.st0{fill:#FFFFFF;}
</style>
<g>
	<g>
		<path class="st0" d="M25,3H5C2.3,3,0,5.3,0,8v14c0,2.8,2.3,5,5,5h20c2.8,0,5-2.3,5-5V8C30,5.3,27.8,3,25,3z M28,22
			c0,1.7-1.3,3-3,3H5c-1.7,0-3-1.3-3-3V8c0-1.7,1.3-3,3-3h20c1.7,0,3,1.3,3,3V22z"/>
	</g>
	<g>
		<polygon class="st0" points="22.6,10.3 22.6,10.3 20.9,12.8 22.6,12.8 		"/>
	</g>
	<g>
		<path class="st0" d="M5,16h20V8H5V16z M20.2,12.8L22.7,9h0.5v3.8H24v0.7h-0.7v1.4h-0.7v-1.4h-2.4V12.8z M18.2,12.6
			c-0.1-0.2-0.2-0.3-0.4-0.4c-0.2-0.1-0.3-0.1-0.5-0.1h-0.6l0.1-0.6h0.1c0.4,0,0.7-0.1,0.9-0.3c0.2-0.2,0.3-0.4,0.3-0.7
			c0-0.3-0.1-0.5-0.2-0.7c-0.2-0.2-0.4-0.2-0.7-0.2c-0.3,0-0.5,0.1-0.7,0.3c-0.2,0.2-0.3,0.5-0.3,0.8l-0.7-0.1
			c0.1-0.3,0.2-0.6,0.3-0.8c0.2-0.2,0.4-0.4,0.6-0.5C16.7,9.1,16.9,9,17.2,9c0.3,0,0.6,0.1,0.8,0.2c0.2,0.1,0.4,0.3,0.6,0.5
			c0.1,0.2,0.2,0.5,0.2,0.8c0,0.3-0.1,0.5-0.2,0.7c-0.1,0.2-0.3,0.4-0.6,0.5v0c0.2,0.1,0.4,0.1,0.5,0.3c0.2,0.1,0.3,0.3,0.4,0.5
			c0.1,0.2,0.1,0.4,0.1,0.7c0,0.4-0.1,0.7-0.2,0.9c-0.2,0.3-0.4,0.5-0.6,0.6c-0.3,0.2-0.6,0.2-0.9,0.2c-0.3,0-0.6-0.1-0.8-0.2
			c-0.3-0.1-0.5-0.3-0.6-0.6c-0.2-0.2-0.3-0.5-0.3-0.9l0.7-0.1c0.1,0.4,0.2,0.7,0.4,0.9s0.4,0.3,0.7,0.3c0.2,0,0.4-0.1,0.6-0.2
			c0.2-0.1,0.3-0.2,0.4-0.4c0.1-0.2,0.1-0.4,0.1-0.6C18.3,13,18.3,12.8,18.2,12.6z M13.2,10.1c-0.1-0.2-0.2-0.3-0.4-0.4
			c-0.2-0.1-0.3-0.1-0.5-0.1c-0.3,0-0.6,0.1-0.8,0.3s-0.3,0.5-0.3,0.9l-0.7-0.1c0-0.3,0.1-0.6,0.3-0.9c0.2-0.3,0.4-0.4,0.6-0.6
			C11.6,9.1,11.9,9,12.3,9c0.3,0,0.6,0.1,0.9,0.2c0.3,0.1,0.5,0.3,0.6,0.6c0.1,0.2,0.2,0.5,0.2,0.8c0,0.4-0.1,0.7-0.3,1.1
			c-0.2,0.4-0.6,0.7-1,1.2l-0.5,0.5c-0.2,0.2-0.4,0.3-0.5,0.5c-0.1,0.1-0.2,0.3-0.3,0.4H14v0.7h-3.6c0-0.3,0.1-0.7,0.3-1
			c0.2-0.3,0.5-0.7,1-1.1l0.4-0.4c0.4-0.4,0.7-0.7,0.9-1c0.2-0.3,0.3-0.6,0.3-0.8C13.3,10.4,13.2,10.2,13.2,10.1z M6,10.5
			c0.4-0.2,0.7-0.4,1-0.7C7.3,9.5,7.5,9.3,7.6,9H8v5.9H7.3v-4.6c-0.2,0.2-0.4,0.3-0.6,0.5C6.5,11,6.3,11.1,6,11.2V10.5z"/>
	</g>
</g>
</svg>
