<svg id="Group_2264" data-name="Group 2264" xmlns="http://www.w3.org/2000/svg" viewBox="-11821 -3728 69 68">
  <defs>
    <style>
      .cls-1, .cls-2 {
        fill: none;
      }

      .cls-2 {
        stroke: #ea495c;
        stroke-linecap: round;
        stroke-linejoin: round;
        stroke-miterlimit: 10;
        stroke-width: 2px;
      }
    </style>
  </defs>
  <g id="Group_2106" data-name="Group 2106" transform="translate(-11806 -3713.442)">
    <g id="Group_2106-2" data-name="Group 2106" transform="translate(0 0)">
      <rect id="Rectangle_1293" data-name="Rectangle 1293" class="cls-1" width="38.518" height="38.518" transform="translate(0 0)"/>
    </g>
    <g id="Payments" transform="translate(4.815 4.815)">
      <path id="Path_628" data-name="Path 628" class="cls-2" d="M7.264,3H3.506A2.5,2.5,0,0,0,1,5.506H1A2.5,2.5,0,0,0,3.506,8.011" transform="translate(-1 -0.494)"/>
      <path id="Path_629" data-name="Path 629" class="cls-2" d="M6,8.517V1H23.539V8.517" transform="translate(0.264 -1)"/>
      <path id="Path_630" data-name="Path 630" class="cls-2" d="M28.561,7.506H3.506A2.5,2.5,0,0,1,1,5V23.791A3.758,3.758,0,0,0,4.758,27.55h23.8Z" transform="translate(-1 0.011)"/>
      <circle id="Ellipse_142" data-name="Ellipse 142" class="cls-2" cx="2.506" cy="2.506" r="2.506" transform="translate(17.539 15.033)"/>
    </g>
  </g>
  <rect id="Rectangle_1375" data-name="Rectangle 1375" class="cls-1" width="69" height="68" transform="translate(-11821 -3728)"/>
</svg>
