<svg xmlns="http://www.w3.org/2000/svg" xmlns:xlink="http://www.w3.org/1999/xlink" viewBox="0 0 154.105 154.105">
  <defs>
    <style>
      .cls-1 {
        fill: #e6e9ee;
      }

      .cls-2 {
        fill: #f194a3;
      }

      .cls-3 {
        fill: #b75d6c;
      }

      .cls-4 {
        fill: #d3697b;
      }

      .cls-5 {
        fill: #fff;
      }

      .cls-6 {
        fill: #acb3ba;
      }

      .cls-7 {
        fill: #54c0eb;
      }

      .cls-8 {
        filter: url(#Path_2403);
      }
    </style>
    <filter id="Path_2403" x="0" y="0" width="154.105" height="154.105" filterUnits="userSpaceOnUse">
      <feOffset dy="3" input="SourceAlpha"/>
      <feGaussianBlur stdDeviation="5" result="blur"/>
      <feFlood flood-opacity="0.161"/>
      <feComposite operator="in" in2="blur"/>
      <feComposite in="SourceGraphic"/>
    </filter>
  </defs>
  <g id="Group_3998" data-name="Group 3998" transform="translate(-893 -1719)">
    <g id="Group_3882" data-name="Group 3882" transform="translate(968 1760.934)">
      <rect id="Rectangle_2413" data-name="Rectangle 2413" class="cls-1" width="5.36" height="2.809" transform="translate(0 0)"/>
    </g>
    <g id="Group_3883" data-name="Group 3883" transform="translate(968 1760.934)">
      <rect id="Rectangle_2413-2" data-name="Rectangle 2413" class="cls-1" width="5.36" height="2.809" transform="translate(0 0)"/>
    </g>
    <g id="Group_3884" data-name="Group 3884" transform="translate(968 1760.934)">
      <rect id="Rectangle_2413-3" data-name="Rectangle 2413" class="cls-1" width="5.36" height="2.809" transform="translate(0 0)"/>
    </g>
    <g class="cls-8" transform="matrix(1, 0, 0, 1, 893, 1719)">
      <path id="Path_2403-2" data-name="Path 2403" class="cls-2" d="M124.1,62.052a60.231,60.231,0,1,1-.123-4.252C124.056,59.2,124.1,60.627,124.1,62.052Z" transform="translate(15 12)"/>
    </g>
    <path id="Path_2409" data-name="Path 2409" class="cls-3" d="M182.938,354.4H57.133a1.326,1.326,0,0,0-1.176,1.96l1.992,3.723a8.948,8.948,0,0,0,7.936,4.736h108.3a9.011,9.011,0,0,0,7.936-4.736l1.992-3.723A1.337,1.337,0,0,0,182.938,354.4Z" transform="translate(850.209 1474.346)"/>
    <path id="Path_2404" data-name="Path 2404" class="cls-4" d="M195.38,197.833H88.649a.843.843,0,0,1-.849-.849V122.749a.843.843,0,0,1,.849-.849H195.38a.843.843,0,0,1,.849.849v74.235A.888.888,0,0,1,195.38,197.833Z" transform="translate(828.2 1630.912)"/>
    <rect id="Rectangle_2443" data-name="Rectangle 2443" class="cls-5" width="98.37" height="61.106" transform="translate(921 1760.945)"/>
    <path id="Path_2407" data-name="Path 2407" class="cls-3" d="M1.862,0A1.862,1.862,0,1,1,0,1.862,1.862,1.862,0,0,1,1.862,0Z" transform="translate(969 1754.936)"/>
    <path id="Path_2410" data-name="Path 2410" class="cls-6" d="M232.6,356.751H204.384L202,354.4h32.986Z" transform="translate(752 1474.346)"/>
    <path id="Path_2408" data-name="Path 2408" class="cls-1" d="M198.581,212.582H176.6V190.6h21.981ZM178.77,210.43H196.43V192.77H178.77Z" transform="translate(797.4 1587.184)"/>
    <path id="Path_2405" data-name="Path 2405" class="cls-1" d="M198.581,212.582H176.6V190.6h21.981ZM178.77,210.43H196.43V192.77H178.77Z" transform="translate(767.638 1587.184)"/>
    <path id="Path_2406" data-name="Path 2406" class="cls-7" d="M208.388,199.878,200.3,191.79l3.821-3.821,4.266,4.267L220.241,180.4l3.821,3.821Z" transform="translate(743.938 1594.053)"/>
  </g>
</svg>
