<?xml version="1.0" encoding="utf-8"?>
<!-- Generator: Adobe Illustrator 22.1.0, SVG Export Plug-In . SVG Version: 6.00 Build 0)  -->
<svg version="1.1" id="Layer_1" xmlns="http://www.w3.org/2000/svg" xmlns:xlink="http://www.w3.org/1999/xlink" x="0px" y="0px"
	 viewBox="0 0 220 220" style="enable-background:new 0 0 220 220;" xml:space="preserve">
<style type="text/css">
	.st0{fill:#AFACBF;}
	.st1{fill:#00BF5F;}
	.st2{fill:#00A54E;}
	.st3{fill:#FFC85A;}
	.st4{fill:#FFFFFF;}
	.st5{fill:#007F3C;}
	.st6{fill:#80FFBC;}
	.st7{fill:none;}
	.st8{fill:#EA495C;}
</style>
<g>
	<g>
		<g>
			<path class="st0" d="M60,34.5c18.7,0,34,15.3,34,34s-15.3,34-34,34s-34-15.3-34-34S41.3,34.5,60,34.5 M60,28.5
				c-22.1,0-40,17.9-40,40s17.9,40,40,40s40-17.9,40-40S82.1,28.5,60,28.5L60,28.5z"/>
			<polygon class="st0" points="62,88.5 58,88.5 58,96.5 62,96.5 62,88.5 			"/>
			<polygon class="st0" points="88,66.5 80,66.5 80,70.5 88,70.5 88,66.5 			"/>
			<polygon class="st0" points="40,66.5 32,66.5 32,70.5 40,70.5 40,66.5 			"/>
			<polygon class="st0" points="72.3,43.3 68.3,50.2 71.7,52.2 75.7,45.3 72.3,43.3 			"/>
			<polygon class="st0" points="48.3,84.9 44.3,91.8 47.7,93.8 51.7,86.9 48.3,84.9 			"/>
			<polygon class="st0" points="78.3,76.8 76.3,80.3 83.2,84.3 85.2,80.8 78.3,76.8 			"/>
			<polygon class="st0" points="36.8,52.8 34.8,56.3 41.7,60.3 43.7,56.8 36.8,52.8 			"/>
			<polygon class="st0" points="83.2,52.8 76.3,56.8 78.3,60.3 85.2,56.3 83.2,52.8 			"/>
			<polygon class="st0" points="41.7,76.8 34.8,80.8 36.8,84.3 43.7,80.3 41.7,76.8 			"/>
			<polygon class="st0" points="71.7,84.9 68.3,86.9 72.3,93.8 75.7,91.8 71.7,84.9 			"/>
			<polygon class="st0" points="47.7,43.3 44.3,45.3 48.3,52.2 51.7,50.2 47.7,43.3 			"/>
			<polygon class="st0" points="71.3,78.2 57,70.3 57,40.5 63,40.5 63,66.8 74.2,72.9 			"/>
		</g>
		<g>
			<path class="st1" d="M189.4,146.2H90.6c-5.8,0-10.6-4.8-10.6-10.6V79.1c0-5.8,4.8-10.6,10.6-10.6l98.8,0
				c5.8,0,10.6,4.8,10.6,10.6v56.5C200,141.4,195.2,146.2,189.4,146.2z"/>
			<path class="st2" d="M170.6,68.5l18.8,0c5.8,0,10.6,4.8,10.6,10.6v56.5c0,5.8-4.8,10.6-10.6,10.6h-78.8L170.6,68.5z"/>
			<g>
				<path class="st3" d="M106,112.9H94c-2.2,0-4-1.8-4-4v-7.1c0-2.2,1.8-4,4-4H106c2.2,0,4,1.8,4,4v7.1
					C110,111.1,108.2,112.9,106,112.9z"/>
			</g>
			<g>
				<path class="st4" d="M97,83c0.3,0.4,0.5,0.9,0.5,1.6c0,1-0.3,1.8-0.9,2.2c-0.6,0.4-1.4,0.7-2.2,0.7h-3.6c-0.2,0-0.3-0.1-0.5-0.2
					C90.1,87.2,90,87,90,86.8v-8.6c0-0.2,0.1-0.3,0.2-0.5c0.1-0.1,0.3-0.2,0.5-0.2h3.6c0.9,0,1.5,0.2,2,0.6c0.4,0.4,0.7,1,0.7,1.8
					c0,0.5-0.1,0.9-0.3,1.2c-0.2,0.4-0.5,0.6-0.9,0.8C96.2,82.3,96.6,82.6,97,83z M95.1,79.3c-0.2-0.2-0.6-0.3-1-0.3h-2.7v2.8h2.7
					c0.4,0,0.7-0.1,1-0.4s0.4-0.6,0.4-1S95.4,79.5,95.1,79.3z M95.5,85.8c0.3-0.3,0.5-0.7,0.5-1.2c0-1-0.6-1.6-1.8-1.6h-2.8v3.2h2.9
					C94.8,86.2,95.2,86.1,95.5,85.8z"/>
				<path class="st4" d="M106.9,86.9c0,0.2-0.1,0.3-0.2,0.5c-0.1,0.1-0.3,0.2-0.4,0.2c-0.1,0-0.3,0-0.4-0.1
					c-0.1-0.1-0.2-0.2-0.3-0.3l-0.9-2.1h-4.4l-0.9,2.1c0,0.1-0.1,0.3-0.2,0.3c-0.1,0.1-0.2,0.1-0.4,0.1c-0.2,0-0.3-0.1-0.5-0.2
					c-0.1-0.1-0.2-0.2-0.2-0.4c0,0,0-0.1,0-0.2L102,78c0.1-0.2,0.2-0.3,0.3-0.3c0.1-0.1,0.3-0.1,0.4-0.1c0.1,0,0.3,0,0.4,0.1
					c0.1,0.1,0.2,0.2,0.2,0.3l3.6,8.6C106.9,86.7,106.9,86.8,106.9,86.9z M100.9,83.7h3.3l-1.7-4L100.9,83.7z"/>
				<path class="st4" d="M116.2,77.8c0.1,0.1,0.2,0.3,0.2,0.4v8.6c0,0.2-0.1,0.4-0.2,0.5c-0.1,0.1-0.3,0.2-0.5,0.2
					c-0.1,0-0.2,0-0.3,0c-0.1,0-0.2-0.1-0.2-0.1l-5.6-7.2v6.8c0,0.2-0.1,0.3-0.2,0.4c-0.1,0.1-0.3,0.2-0.4,0.2
					c-0.2,0-0.3-0.1-0.4-0.2c-0.1-0.1-0.2-0.3-0.2-0.4v-8.6c0-0.2,0.1-0.4,0.2-0.5c0.1-0.1,0.3-0.2,0.5-0.2c0.1,0,0.2,0,0.3,0.1
					c0.1,0,0.2,0.1,0.2,0.2l5.5,7.3v-6.9c0-0.2,0.1-0.3,0.2-0.4c0.1-0.1,0.3-0.2,0.4-0.2S116.1,77.6,116.2,77.8z"/>
				<path class="st4" d="M126.4,86.8c0,0.2-0.1,0.4-0.2,0.5c-0.2,0.1-0.3,0.2-0.5,0.2c-0.2,0-0.4-0.1-0.5-0.3l-3.4-4.4l-1.6,1.5v2.5
					c0,0.2-0.1,0.4-0.2,0.5c-0.1,0.1-0.3,0.2-0.5,0.2c-0.2,0-0.4-0.1-0.5-0.2c-0.1-0.1-0.2-0.3-0.2-0.5v-8.5c0-0.2,0.1-0.3,0.2-0.5
					c0.1-0.1,0.3-0.2,0.5-0.2c0.2,0,0.4,0.1,0.5,0.2c0.1,0.1,0.2,0.3,0.2,0.5v4.4l5-4.9c0.2-0.2,0.4-0.2,0.5-0.2
					c0.2,0,0.3,0.1,0.4,0.2c0.1,0.1,0.2,0.3,0.2,0.5c0,0.1-0.1,0.3-0.2,0.4l-3.4,3.2l3.5,4.5C126.3,86.5,126.4,86.6,126.4,86.8z"/>
			</g>
			<g>
				<path class="st5" d="M90.5,123.5c-0.3-0.3-0.6-0.6-0.7-1.1c-0.2-0.5-0.2-1-0.2-1.6c0-0.6,0.1-1.1,0.2-1.6
					c0.2-0.4,0.4-0.8,0.7-1.1c0.3-0.3,0.7-0.4,1.2-0.4c0.5,0,0.8,0.1,1.2,0.4c0.3,0.3,0.6,0.6,0.7,1.1c0.2,0.4,0.2,1,0.2,1.6
					c0,0.6-0.1,1.1-0.2,1.6c-0.2,0.4-0.4,0.8-0.7,1.1c-0.3,0.3-0.7,0.4-1.2,0.4C91.2,123.9,90.8,123.7,90.5,123.5z M92.6,122.5
					c0.2-0.4,0.3-0.9,0.3-1.6c0-0.7-0.1-1.2-0.3-1.6c-0.2-0.4-0.5-0.6-0.9-0.6c-0.4,0-0.7,0.2-0.9,0.6c-0.2,0.4-0.3,0.9-0.3,1.6
					c0,0.7,0.1,1.2,0.3,1.6c0.2,0.4,0.5,0.6,0.9,0.6C92,123.1,92.3,122.9,92.6,122.5z"/>
				<path class="st5" d="M95.5,123.5c-0.3-0.3-0.6-0.6-0.7-1.1c-0.2-0.5-0.2-1-0.2-1.6c0-0.6,0.1-1.1,0.2-1.6
					c0.2-0.4,0.4-0.8,0.7-1.1c0.3-0.3,0.7-0.4,1.2-0.4c0.5,0,0.8,0.1,1.2,0.4c0.3,0.3,0.6,0.6,0.7,1.1c0.2,0.4,0.2,1,0.2,1.6
					c0,0.6-0.1,1.1-0.2,1.6c-0.2,0.4-0.4,0.8-0.7,1.1c-0.3,0.3-0.7,0.4-1.2,0.4C96.2,123.9,95.8,123.7,95.5,123.5z M97.6,122.5
					c0.2-0.4,0.3-0.9,0.3-1.6c0-0.7-0.1-1.2-0.3-1.6c-0.2-0.4-0.5-0.6-0.9-0.6c-0.4,0-0.7,0.2-0.9,0.6c-0.2,0.4-0.3,0.9-0.3,1.6
					c0,0.7,0.1,1.2,0.3,1.6c0.2,0.4,0.5,0.6,0.9,0.6C97.1,123.1,97.4,122.9,97.6,122.5z"/>
				<path class="st5" d="M100.6,123.5c-0.3-0.3-0.6-0.6-0.7-1.1c-0.2-0.5-0.2-1-0.2-1.6c0-0.6,0.1-1.1,0.2-1.6
					c0.2-0.4,0.4-0.8,0.7-1.1c0.3-0.3,0.7-0.4,1.2-0.4c0.5,0,0.8,0.1,1.2,0.4c0.3,0.3,0.6,0.6,0.7,1.1c0.2,0.4,0.2,1,0.2,1.6
					c0,0.6-0.1,1.1-0.2,1.6c-0.2,0.4-0.4,0.8-0.7,1.1c-0.3,0.3-0.7,0.4-1.2,0.4C101.3,123.9,100.9,123.7,100.6,123.5z M102.7,122.5
					c0.2-0.4,0.3-0.9,0.3-1.6c0-0.7-0.1-1.2-0.3-1.6c-0.2-0.4-0.5-0.6-0.9-0.6c-0.4,0-0.7,0.2-0.9,0.6c-0.2,0.4-0.3,0.9-0.3,1.6
					c0,0.7,0.1,1.2,0.3,1.6c0.2,0.4,0.5,0.6,0.9,0.6C102.1,123.1,102.4,122.9,102.7,122.5z"/>
				<path class="st5" d="M105.6,123.5c-0.3-0.3-0.6-0.6-0.7-1.1c-0.2-0.5-0.2-1-0.2-1.6c0-0.6,0.1-1.1,0.2-1.6
					c0.2-0.4,0.4-0.8,0.7-1.1c0.3-0.3,0.7-0.4,1.2-0.4c0.5,0,0.8,0.1,1.2,0.4c0.3,0.3,0.6,0.6,0.7,1.1c0.2,0.4,0.2,1,0.2,1.6
					c0,0.6-0.1,1.1-0.2,1.6c-0.2,0.4-0.4,0.8-0.7,1.1c-0.3,0.3-0.7,0.4-1.2,0.4C106.3,123.9,105.9,123.7,105.6,123.5z M107.7,122.5
					c0.2-0.4,0.3-0.9,0.3-1.6c0-0.7-0.1-1.2-0.3-1.6c-0.2-0.4-0.5-0.6-0.9-0.6c-0.4,0-0.7,0.2-0.9,0.6c-0.2,0.4-0.3,0.9-0.3,1.6
					c0,0.7,0.1,1.2,0.3,1.6c0.2,0.4,0.5,0.6,0.9,0.6C107.2,123.1,107.5,122.9,107.7,122.5z"/>
				<path class="st5" d="M114.6,123.5c-0.3-0.3-0.6-0.6-0.7-1.1c-0.2-0.5-0.2-1-0.2-1.6c0-0.6,0.1-1.1,0.2-1.6
					c0.2-0.4,0.4-0.8,0.7-1.1c0.3-0.3,0.7-0.4,1.2-0.4c0.5,0,0.8,0.1,1.2,0.4c0.3,0.3,0.6,0.6,0.7,1.1c0.2,0.4,0.2,1,0.2,1.6
					c0,0.6-0.1,1.1-0.2,1.6c-0.2,0.4-0.4,0.8-0.7,1.1c-0.3,0.3-0.7,0.4-1.2,0.4C115.3,123.9,114.9,123.7,114.6,123.5z M116.7,122.5
					c0.2-0.4,0.3-0.9,0.3-1.6c0-0.7-0.1-1.2-0.3-1.6c-0.2-0.4-0.5-0.6-0.9-0.6c-0.4,0-0.7,0.2-0.9,0.6c-0.2,0.4-0.3,0.9-0.3,1.6
					c0,0.7,0.1,1.2,0.3,1.6c0.2,0.4,0.5,0.6,0.9,0.6C116.2,123.1,116.5,122.9,116.7,122.5z"/>
				<path class="st5" d="M119.6,123.5c-0.3-0.3-0.6-0.6-0.7-1.1c-0.2-0.5-0.2-1-0.2-1.6c0-0.6,0.1-1.1,0.2-1.6
					c0.2-0.4,0.4-0.8,0.7-1.1c0.3-0.3,0.7-0.4,1.2-0.4c0.5,0,0.8,0.1,1.2,0.4c0.3,0.3,0.6,0.6,0.7,1.1c0.2,0.4,0.2,1,0.2,1.6
					c0,0.6-0.1,1.1-0.2,1.6c-0.2,0.4-0.4,0.8-0.7,1.1c-0.3,0.3-0.7,0.4-1.2,0.4C120.4,123.9,120,123.7,119.6,123.5z M121.8,122.5
					c0.2-0.4,0.3-0.9,0.3-1.6c0-0.7-0.1-1.2-0.3-1.6c-0.2-0.4-0.5-0.6-0.9-0.6c-0.4,0-0.7,0.2-0.9,0.6c-0.2,0.4-0.3,0.9-0.3,1.6
					c0,0.7,0.1,1.2,0.3,1.6c0.2,0.4,0.5,0.6,0.9,0.6C121.2,123.1,121.5,122.9,121.8,122.5z"/>
				<path class="st5" d="M124.7,123.5c-0.3-0.3-0.6-0.6-0.7-1.1c-0.2-0.5-0.2-1-0.2-1.6c0-0.6,0.1-1.1,0.2-1.6
					c0.2-0.4,0.4-0.8,0.7-1.1c0.3-0.3,0.7-0.4,1.2-0.4c0.5,0,0.8,0.1,1.2,0.4c0.3,0.3,0.6,0.6,0.7,1.1c0.2,0.4,0.2,1,0.2,1.6
					c0,0.6-0.1,1.1-0.2,1.6c-0.2,0.4-0.4,0.8-0.7,1.1c-0.3,0.3-0.7,0.4-1.2,0.4C125.4,123.9,125,123.7,124.7,123.5z M126.8,122.5
					c0.2-0.4,0.3-0.9,0.3-1.6c0-0.7-0.1-1.2-0.3-1.6c-0.2-0.4-0.5-0.6-0.9-0.6c-0.4,0-0.7,0.2-0.9,0.6c-0.2,0.4-0.3,0.9-0.3,1.6
					c0,0.7,0.1,1.2,0.3,1.6c0.2,0.4,0.5,0.6,0.9,0.6C126.3,123.1,126.6,122.9,126.8,122.5z"/>
				<path class="st5" d="M129.7,123.5c-0.3-0.3-0.6-0.6-0.7-1.1c-0.2-0.5-0.2-1-0.2-1.6c0-0.6,0.1-1.1,0.2-1.6
					c0.2-0.4,0.4-0.8,0.7-1.1c0.3-0.3,0.7-0.4,1.2-0.4c0.5,0,0.8,0.1,1.2,0.4c0.3,0.3,0.6,0.6,0.7,1.1c0.2,0.4,0.2,1,0.2,1.6
					c0,0.6-0.1,1.1-0.2,1.6c-0.2,0.4-0.4,0.8-0.7,1.1c-0.3,0.3-0.7,0.4-1.2,0.4C130.5,123.9,130.1,123.7,129.7,123.5z M131.9,122.5
					c0.2-0.4,0.3-0.9,0.3-1.6c0-0.7-0.1-1.2-0.3-1.6c-0.2-0.4-0.5-0.6-0.9-0.6c-0.4,0-0.7,0.2-0.9,0.6c-0.2,0.4-0.3,0.9-0.3,1.6
					c0,0.7,0.1,1.2,0.3,1.6c0.2,0.4,0.5,0.6,0.9,0.6C131.3,123.1,131.6,122.9,131.9,122.5z"/>
				<path class="st5" d="M138.7,123.5c-0.3-0.3-0.6-0.6-0.7-1.1c-0.2-0.5-0.2-1-0.2-1.6c0-0.6,0.1-1.1,0.2-1.6
					c0.2-0.4,0.4-0.8,0.7-1.1c0.3-0.3,0.7-0.4,1.2-0.4c0.5,0,0.8,0.1,1.2,0.4c0.3,0.3,0.6,0.6,0.7,1.1c0.2,0.4,0.2,1,0.2,1.6
					c0,0.6-0.1,1.1-0.2,1.6c-0.2,0.4-0.4,0.8-0.7,1.1c-0.3,0.3-0.7,0.4-1.2,0.4C139.4,123.9,139,123.7,138.7,123.5z M140.8,122.5
					c0.2-0.4,0.3-0.9,0.3-1.6c0-0.7-0.1-1.2-0.3-1.6c-0.2-0.4-0.5-0.6-0.9-0.6c-0.4,0-0.7,0.2-0.9,0.6c-0.2,0.4-0.3,0.9-0.3,1.6
					c0,0.7,0.1,1.2,0.3,1.6c0.2,0.4,0.5,0.6,0.9,0.6C140.3,123.1,140.6,122.9,140.8,122.5z"/>
				<path class="st5" d="M143.8,123.5c-0.3-0.3-0.6-0.6-0.7-1.1c-0.2-0.5-0.2-1-0.2-1.6c0-0.6,0.1-1.1,0.2-1.6
					c0.2-0.4,0.4-0.8,0.7-1.1c0.3-0.3,0.7-0.4,1.2-0.4c0.5,0,0.8,0.1,1.2,0.4c0.3,0.3,0.6,0.6,0.7,1.1c0.2,0.4,0.2,1,0.2,1.6
					c0,0.6-0.1,1.1-0.2,1.6c-0.2,0.4-0.4,0.8-0.7,1.1c-0.3,0.3-0.7,0.4-1.2,0.4C144.5,123.9,144.1,123.7,143.8,123.5z M145.9,122.5
					c0.2-0.4,0.3-0.9,0.3-1.6c0-0.7-0.1-1.2-0.3-1.6c-0.2-0.4-0.5-0.6-0.9-0.6c-0.4,0-0.7,0.2-0.9,0.6c-0.2,0.4-0.3,0.9-0.3,1.6
					c0,0.7,0.1,1.2,0.3,1.6c0.2,0.4,0.5,0.6,0.9,0.6C145.3,123.1,145.7,122.9,145.9,122.5z"/>
				<path class="st5" d="M148.8,123.5c-0.3-0.3-0.6-0.6-0.7-1.1c-0.2-0.5-0.2-1-0.2-1.6c0-0.6,0.1-1.1,0.2-1.6
					c0.2-0.4,0.4-0.8,0.7-1.1c0.3-0.3,0.7-0.4,1.2-0.4c0.5,0,0.8,0.1,1.2,0.4c0.3,0.3,0.6,0.6,0.7,1.1c0.2,0.4,0.2,1,0.2,1.6
					c0,0.6-0.1,1.1-0.2,1.6c-0.2,0.4-0.4,0.8-0.7,1.1c-0.3,0.3-0.7,0.4-1.2,0.4C149.5,123.9,149.1,123.7,148.8,123.5z M150.9,122.5
					c0.2-0.4,0.3-0.9,0.3-1.6c0-0.7-0.1-1.2-0.3-1.6c-0.2-0.4-0.5-0.6-0.9-0.6c-0.4,0-0.7,0.2-0.9,0.6c-0.2,0.4-0.3,0.9-0.3,1.6
					c0,0.7,0.1,1.2,0.3,1.6c0.2,0.4,0.5,0.6,0.9,0.6C150.4,123.1,150.7,122.9,150.9,122.5z"/>
				<path class="st5" d="M153.9,123.5c-0.3-0.3-0.6-0.6-0.7-1.1c-0.2-0.5-0.2-1-0.2-1.6c0-0.6,0.1-1.1,0.2-1.6
					c0.2-0.4,0.4-0.8,0.7-1.1c0.3-0.3,0.7-0.4,1.2-0.4c0.5,0,0.8,0.1,1.2,0.4c0.3,0.3,0.6,0.6,0.7,1.1c0.2,0.4,0.2,1,0.2,1.6
					c0,0.6-0.1,1.1-0.2,1.6c-0.2,0.4-0.4,0.8-0.7,1.1c-0.3,0.3-0.7,0.4-1.2,0.4C154.6,123.9,154.2,123.7,153.9,123.5z M156,122.5
					c0.2-0.4,0.3-0.9,0.3-1.6c0-0.7-0.1-1.2-0.3-1.6c-0.2-0.4-0.5-0.6-0.9-0.6c-0.4,0-0.7,0.2-0.9,0.6c-0.2,0.4-0.3,0.9-0.3,1.6
					c0,0.7,0.1,1.2,0.3,1.6c0.2,0.4,0.5,0.6,0.9,0.6C155.4,123.1,155.8,122.9,156,122.5z"/>
				<path class="st5" d="M162.9,123.5c-0.3-0.3-0.6-0.6-0.7-1.1c-0.2-0.5-0.2-1-0.2-1.6c0-0.6,0.1-1.1,0.2-1.6
					c0.2-0.4,0.4-0.8,0.7-1.1c0.3-0.3,0.7-0.4,1.2-0.4c0.5,0,0.8,0.1,1.2,0.4c0.3,0.3,0.6,0.6,0.7,1.1c0.2,0.4,0.2,1,0.2,1.6
					c0,0.6-0.1,1.1-0.2,1.6c-0.2,0.4-0.4,0.8-0.7,1.1c-0.3,0.3-0.7,0.4-1.2,0.4C163.6,123.9,163.2,123.7,162.9,123.5z M165,122.5
					c0.2-0.4,0.3-0.9,0.3-1.6c0-0.7-0.1-1.2-0.3-1.6c-0.2-0.4-0.5-0.6-0.9-0.6c-0.4,0-0.7,0.2-0.9,0.6c-0.2,0.4-0.3,0.9-0.3,1.6
					c0,0.7,0.1,1.2,0.3,1.6c0.2,0.4,0.5,0.6,0.9,0.6C164.4,123.1,164.7,122.9,165,122.5z"/>
				<path class="st5" d="M167.9,123.5c-0.3-0.3-0.6-0.6-0.7-1.1c-0.2-0.5-0.2-1-0.2-1.6c0-0.6,0.1-1.1,0.2-1.6
					c0.2-0.4,0.4-0.8,0.7-1.1c0.3-0.3,0.7-0.4,1.2-0.4c0.5,0,0.8,0.1,1.2,0.4c0.3,0.3,0.6,0.6,0.7,1.1c0.2,0.4,0.2,1,0.2,1.6
					c0,0.6-0.1,1.1-0.2,1.6c-0.2,0.4-0.4,0.8-0.7,1.1c-0.3,0.3-0.7,0.4-1.2,0.4C168.6,123.9,168.2,123.7,167.9,123.5z M170,122.5
					c0.2-0.4,0.3-0.9,0.3-1.6c0-0.7-0.1-1.2-0.3-1.6c-0.2-0.4-0.5-0.6-0.9-0.6c-0.4,0-0.7,0.2-0.9,0.6c-0.2,0.4-0.3,0.9-0.3,1.6
					c0,0.7,0.1,1.2,0.3,1.6c0.2,0.4,0.5,0.6,0.9,0.6C169.5,123.1,169.8,122.9,170,122.5z"/>
				<path class="st5" d="M173,123.5c-0.3-0.3-0.6-0.6-0.7-1.1c-0.2-0.5-0.2-1-0.2-1.6c0-0.6,0.1-1.1,0.2-1.6
					c0.2-0.4,0.4-0.8,0.7-1.1c0.3-0.3,0.7-0.4,1.2-0.4c0.5,0,0.8,0.1,1.2,0.4c0.3,0.3,0.6,0.6,0.7,1.1c0.2,0.4,0.2,1,0.2,1.6
					c0,0.6-0.1,1.1-0.2,1.6c-0.2,0.4-0.4,0.8-0.7,1.1c-0.3,0.3-0.7,0.4-1.2,0.4C173.7,123.9,173.3,123.7,173,123.5z M175.1,122.5
					c0.2-0.4,0.3-0.9,0.3-1.6c0-0.7-0.1-1.2-0.3-1.6c-0.2-0.4-0.5-0.6-0.9-0.6c-0.4,0-0.7,0.2-0.9,0.6c-0.2,0.4-0.3,0.9-0.3,1.6
					c0,0.7,0.1,1.2,0.3,1.6c0.2,0.4,0.5,0.6,0.9,0.6C174.5,123.1,174.8,122.9,175.1,122.5z"/>
				<path class="st5" d="M178,123.5c-0.3-0.3-0.6-0.6-0.7-1.1c-0.2-0.5-0.2-1-0.2-1.6c0-0.6,0.1-1.1,0.2-1.6
					c0.2-0.4,0.4-0.8,0.7-1.1c0.3-0.3,0.7-0.4,1.2-0.4c0.5,0,0.8,0.1,1.2,0.4c0.3,0.3,0.6,0.6,0.7,1.1c0.2,0.4,0.2,1,0.2,1.6
					c0,0.6-0.1,1.1-0.2,1.6c-0.2,0.4-0.4,0.8-0.7,1.1c-0.3,0.3-0.7,0.4-1.2,0.4C178.7,123.9,178.3,123.7,178,123.5z M180.1,122.5
					c0.2-0.4,0.3-0.9,0.3-1.6c0-0.7-0.1-1.2-0.3-1.6c-0.2-0.4-0.5-0.6-0.9-0.6c-0.4,0-0.7,0.2-0.9,0.6c-0.2,0.4-0.3,0.9-0.3,1.6
					c0,0.7,0.1,1.2,0.3,1.6c0.2,0.4,0.5,0.6,0.9,0.6C179.6,123.1,179.9,122.9,180.1,122.5z"/>
			</g>
			<g>
				<circle class="st6" cx="175.6" cy="133.2" r="6"/>
				<circle class="st6" cx="184" cy="133.2" r="6"/>
			</g>
			<g>
				<path class="st5" d="M90.9,140.1c-0.3-0.2-0.5-0.5-0.6-0.9c-0.1-0.4-0.2-0.8-0.2-1.3c0-0.5,0.1-0.9,0.2-1.3s0.3-0.7,0.6-0.9
					c0.3-0.2,0.6-0.3,0.9-0.3c0.4,0,0.7,0.1,0.9,0.3c0.3,0.2,0.5,0.5,0.6,0.9s0.2,0.8,0.2,1.3c0,0.5-0.1,0.9-0.2,1.3
					c-0.1,0.4-0.3,0.7-0.6,0.9c-0.3,0.2-0.6,0.3-0.9,0.3C91.5,140.4,91.2,140.3,90.9,140.1z M92.7,139.3c0.2-0.3,0.3-0.7,0.3-1.3
					c0-0.6-0.1-1-0.3-1.3c-0.2-0.3-0.4-0.5-0.8-0.5c-0.3,0-0.6,0.2-0.8,0.5c-0.2,0.3-0.3,0.7-0.3,1.3c0,0.6,0.1,1,0.3,1.3
					c0.2,0.3,0.4,0.5,0.8,0.5C92.2,139.7,92.5,139.6,92.7,139.3z"/>
				<path class="st5" d="M95,140.1c-0.3-0.2-0.5-0.5-0.6-0.9c-0.1-0.4-0.2-0.8-0.2-1.3c0-0.5,0.1-0.9,0.2-1.3
					c0.1-0.4,0.3-0.7,0.6-0.9s0.6-0.3,0.9-0.3c0.4,0,0.7,0.1,0.9,0.3c0.3,0.2,0.5,0.5,0.6,0.9s0.2,0.8,0.2,1.3
					c0,0.5-0.1,0.9-0.2,1.3c-0.1,0.4-0.3,0.7-0.6,0.9c-0.3,0.2-0.6,0.3-0.9,0.3C95.6,140.4,95.3,140.3,95,140.1z M96.7,139.3
					c0.2-0.3,0.3-0.7,0.3-1.3c0-0.6-0.1-1-0.3-1.3c-0.2-0.3-0.4-0.5-0.8-0.5c-0.3,0-0.6,0.2-0.8,0.5c-0.2,0.3-0.3,0.7-0.3,1.3
					c0,0.6,0.1,1,0.3,1.3c0.2,0.3,0.4,0.5,0.8,0.5C96.3,139.7,96.6,139.6,96.7,139.3z"/>
				<path class="st5" d="M98.3,141.1c-0.1-0.1-0.1-0.1-0.1-0.2c0,0,0-0.1,0-0.1l2.8-5.7c0.1-0.1,0.2-0.2,0.3-0.2
					c0.1,0,0.1,0,0.2,0.1c0.1,0.1,0.1,0.1,0.1,0.2c0,0.1,0,0.1,0,0.1l-2.8,5.7c-0.1,0.1-0.1,0.2-0.3,0.2
					C98.4,141.2,98.3,141.2,98.3,141.1z"/>
				<path class="st5" d="M102.8,140.1c-0.3-0.2-0.5-0.5-0.6-0.9c-0.1-0.4-0.2-0.8-0.2-1.3c0-0.5,0.1-0.9,0.2-1.3
					c0.1-0.4,0.3-0.7,0.6-0.9s0.6-0.3,0.9-0.3c0.4,0,0.7,0.1,0.9,0.3c0.3,0.2,0.5,0.5,0.6,0.9s0.2,0.8,0.2,1.3
					c0,0.5-0.1,0.9-0.2,1.3c-0.1,0.4-0.3,0.7-0.6,0.9c-0.3,0.2-0.6,0.3-0.9,0.3C103.4,140.4,103.1,140.3,102.8,140.1z M104.5,139.3
					c0.2-0.3,0.3-0.7,0.3-1.3c0-0.6-0.1-1-0.3-1.3c-0.2-0.3-0.4-0.5-0.8-0.5c-0.3,0-0.6,0.2-0.8,0.5c-0.2,0.3-0.3,0.7-0.3,1.3
					c0,0.6,0.1,1,0.3,1.3c0.2,0.3,0.4,0.5,0.8,0.5C104.1,139.7,104.4,139.6,104.5,139.3z"/>
				<path class="st5" d="M106.9,140.1c-0.3-0.2-0.5-0.5-0.6-0.9c-0.1-0.4-0.2-0.8-0.2-1.3c0-0.5,0.1-0.9,0.2-1.3s0.3-0.7,0.6-0.9
					s0.6-0.3,0.9-0.3c0.4,0,0.7,0.1,0.9,0.3c0.3,0.2,0.5,0.5,0.6,0.9s0.2,0.8,0.2,1.3c0,0.5-0.1,0.9-0.2,1.3
					c-0.1,0.4-0.3,0.7-0.6,0.9c-0.3,0.2-0.6,0.3-0.9,0.3C107.5,140.4,107.2,140.3,106.9,140.1z M108.6,139.3
					c0.2-0.3,0.3-0.7,0.3-1.3c0-0.6-0.1-1-0.3-1.3c-0.2-0.3-0.4-0.5-0.8-0.5c-0.3,0-0.6,0.2-0.8,0.5c-0.2,0.3-0.3,0.7-0.3,1.3
					c0,0.6,0.1,1,0.3,1.3c0.2,0.3,0.4,0.5,0.8,0.5C108.2,139.7,108.5,139.6,108.6,139.3z"/>
				<path class="st5" d="M114.8,140.1c-0.3-0.2-0.5-0.5-0.6-0.9c-0.1-0.4-0.2-0.8-0.2-1.3c0-0.5,0.1-0.9,0.2-1.3s0.3-0.7,0.6-0.9
					s0.6-0.3,0.9-0.3c0.4,0,0.7,0.1,0.9,0.3c0.3,0.2,0.5,0.5,0.6,0.9s0.2,0.8,0.2,1.3c0,0.5-0.1,0.9-0.2,1.3
					c-0.1,0.4-0.3,0.7-0.6,0.9c-0.3,0.2-0.6,0.3-0.9,0.3C115.3,140.4,115,140.3,114.8,140.1z M116.5,139.3c0.2-0.3,0.3-0.7,0.3-1.3
					c0-0.6-0.1-1-0.3-1.3c-0.2-0.3-0.4-0.5-0.8-0.5c-0.3,0-0.6,0.2-0.8,0.5c-0.2,0.3-0.3,0.7-0.3,1.3c0,0.6,0.1,1,0.3,1.3
					c0.2,0.3,0.4,0.5,0.8,0.5C116,139.7,116.3,139.6,116.5,139.3z"/>
				<path class="st5" d="M118.8,140.1c-0.3-0.2-0.5-0.5-0.6-0.9c-0.1-0.4-0.2-0.8-0.2-1.3c0-0.5,0.1-0.9,0.2-1.3s0.3-0.7,0.6-0.9
					c0.3-0.2,0.6-0.3,0.9-0.3c0.4,0,0.7,0.1,0.9,0.3c0.3,0.2,0.5,0.5,0.6,0.9s0.2,0.8,0.2,1.3c0,0.5-0.1,0.9-0.2,1.3
					c-0.1,0.4-0.3,0.7-0.6,0.9c-0.3,0.2-0.6,0.3-0.9,0.3C119.4,140.4,119.1,140.3,118.8,140.1z M120.6,139.3
					c0.2-0.3,0.3-0.7,0.3-1.3c0-0.6-0.1-1-0.3-1.3c-0.2-0.3-0.4-0.5-0.8-0.5c-0.3,0-0.6,0.2-0.8,0.5c-0.2,0.3-0.3,0.7-0.3,1.3
					c0,0.6,0.1,1,0.3,1.3c0.2,0.3,0.4,0.5,0.8,0.5C120.1,139.7,120.4,139.6,120.6,139.3z"/>
				<path class="st5" d="M122.1,141.1c-0.1-0.1-0.1-0.1-0.1-0.2c0,0,0-0.1,0-0.1l2.8-5.7c0.1-0.1,0.2-0.2,0.3-0.2
					c0.1,0,0.1,0,0.2,0.1c0.1,0.1,0.1,0.1,0.1,0.2c0,0.1,0,0.1,0,0.1l-2.8,5.7c-0.1,0.1-0.1,0.2-0.3,0.2
					C122.2,141.2,122.1,141.2,122.1,141.1z"/>
				<path class="st5" d="M126.6,140.1c-0.3-0.2-0.5-0.5-0.6-0.9c-0.1-0.4-0.2-0.8-0.2-1.3c0-0.5,0.1-0.9,0.2-1.3s0.3-0.7,0.6-0.9
					c0.3-0.2,0.6-0.3,0.9-0.3c0.4,0,0.7,0.1,0.9,0.3c0.3,0.2,0.5,0.5,0.6,0.9s0.2,0.8,0.2,1.3c0,0.5-0.1,0.9-0.2,1.3
					c-0.1,0.4-0.3,0.7-0.6,0.9c-0.3,0.2-0.6,0.3-0.9,0.3C127.2,140.4,126.9,140.3,126.6,140.1z M128.4,139.3
					c0.2-0.3,0.3-0.7,0.3-1.3c0-0.6-0.1-1-0.3-1.3c-0.2-0.3-0.4-0.5-0.8-0.5c-0.3,0-0.6,0.2-0.8,0.5c-0.2,0.3-0.3,0.7-0.3,1.3
					c0,0.6,0.1,1,0.3,1.3c0.2,0.3,0.4,0.5,0.8,0.5C127.9,139.7,128.2,139.6,128.4,139.3z"/>
				<path class="st5" d="M130.7,140.1c-0.3-0.2-0.5-0.5-0.6-0.9c-0.1-0.4-0.2-0.8-0.2-1.3c0-0.5,0.1-0.9,0.2-1.3s0.3-0.7,0.6-0.9
					s0.6-0.3,0.9-0.3c0.4,0,0.7,0.1,0.9,0.3c0.3,0.2,0.5,0.5,0.6,0.9s0.2,0.8,0.2,1.3c0,0.5-0.1,0.9-0.2,1.3
					c-0.1,0.4-0.3,0.7-0.6,0.9c-0.3,0.2-0.6,0.3-0.9,0.3C131.3,140.4,131,140.3,130.7,140.1z M132.4,139.3c0.2-0.3,0.3-0.7,0.3-1.3
					c0-0.6-0.1-1-0.3-1.3c-0.2-0.3-0.4-0.5-0.8-0.5c-0.3,0-0.6,0.2-0.8,0.5c-0.2,0.3-0.3,0.7-0.3,1.3c0,0.6,0.1,1,0.3,1.3
					c0.2,0.3,0.4,0.5,0.8,0.5C132,139.7,132.3,139.6,132.4,139.3z"/>
			</g>
			<g>
				<path class="st5" d="M94.8,127.3c0.1,0.1,0.1,0.1,0.1,0.2v4.1c0,0.1,0,0.2-0.1,0.2s-0.1,0.1-0.2,0.1s-0.2,0-0.2-0.1
					c-0.1-0.1-0.1-0.1-0.1-0.2v-3.1l-1.3,2c0,0-0.1,0.1-0.1,0.1c0,0-0.1,0-0.1,0c0,0-0.1,0-0.1,0c0,0-0.1-0.1-0.1-0.1l-1.3-2v3.2
					c0,0.1,0,0.2-0.1,0.2c-0.1,0.1-0.1,0.1-0.2,0.1c-0.1,0-0.2,0-0.2-0.1s-0.1-0.1-0.1-0.2v-4.1c0-0.1,0-0.2,0.1-0.2
					c0.1-0.1,0.1-0.1,0.2-0.1c0.1,0,0.1,0,0.2,0c0.1,0,0.1,0.1,0.1,0.1l1.6,2.4l1.6-2.4c0.1-0.1,0.2-0.1,0.3-0.1
					C94.7,127.2,94.8,127.2,94.8,127.3z"/>
				<path class="st5" d="M99.7,131.5c0,0,0,0.1,0,0.1c0,0.1,0,0.2-0.1,0.2s-0.1,0.1-0.2,0.1s-0.2,0-0.2-0.1
					c-0.1-0.1-0.2-0.2-0.3-0.4c-0.1-0.2-0.1-0.4-0.1-0.8c0-0.2-0.1-0.4-0.2-0.5c-0.1-0.1-0.3-0.2-0.5-0.2h-1.4v1.5
					c0,0.1,0,0.2-0.1,0.2c-0.1,0.1-0.1,0.1-0.2,0.1c-0.1,0-0.2,0-0.3-0.1s-0.1-0.1-0.1-0.2v-4.1c0-0.1,0-0.2,0.1-0.2
					s0.1-0.1,0.2-0.1h1.9c0.2,0,0.5,0.1,0.7,0.2c0.2,0.1,0.4,0.3,0.5,0.5c0.1,0.2,0.2,0.4,0.2,0.7c0,0.3-0.1,0.5-0.2,0.7
					c-0.1,0.2-0.3,0.4-0.5,0.5c0.2,0.1,0.3,0.2,0.4,0.4s0.1,0.3,0.2,0.5c0,0.3,0,0.4,0.1,0.5s0.1,0.2,0.1,0.2
					C99.7,131.4,99.7,131.4,99.7,131.5z M98.6,129.4c0.1-0.1,0.2-0.2,0.2-0.3c0.1-0.1,0.1-0.3,0.1-0.5c0-0.2-0.1-0.4-0.2-0.6
					c-0.1-0.2-0.3-0.2-0.5-0.2h-1.5v1.7h1.5C98.4,129.5,98.5,129.5,98.6,129.4z"/>
				<path class="st5" d="M106.2,131.6c0,0.1,0,0.2-0.1,0.2s-0.1,0.1-0.2,0.1c-0.1,0-0.1,0-0.2-0.1c-0.1,0-0.1-0.1-0.1-0.2l-0.4-1
					H103l-0.4,1c0,0.1-0.1,0.1-0.1,0.2s-0.1,0.1-0.2,0.1c-0.1,0-0.2,0-0.2-0.1c0,0-0.1-0.1-0.1-0.2c0,0,0-0.1,0-0.1l1.7-4.2
					c0-0.1,0.1-0.1,0.1-0.2c0.1,0,0.1-0.1,0.2,0c0.1,0,0.1,0,0.2,0.1c0.1,0,0.1,0.1,0.1,0.2l1.7,4.1
					C106.1,131.5,106.2,131.6,106.2,131.6z M103.3,130.1h1.6l-0.8-1.9L103.3,130.1z"/>
				<path class="st5" d="M109.3,131.8c-0.3-0.1-0.5-0.2-0.7-0.4c-0.1-0.1-0.1-0.2-0.1-0.3c0-0.1,0-0.2,0.1-0.2s0.1-0.1,0.2-0.1
					c0.1,0,0.1,0,0.2,0.1c0.2,0.2,0.4,0.3,0.6,0.4s0.4,0.1,0.7,0.1c0.3,0,0.5-0.1,0.7-0.2c0.2-0.1,0.3-0.3,0.3-0.5
					c0-0.2-0.1-0.4-0.3-0.5c-0.2-0.1-0.5-0.2-0.9-0.3c-0.5-0.1-0.8-0.2-1.1-0.5c-0.2-0.2-0.4-0.5-0.4-0.9c0-0.3,0.1-0.5,0.2-0.7
					c0.1-0.2,0.3-0.4,0.6-0.5c0.2-0.1,0.5-0.2,0.8-0.2c0.3,0,0.5,0,0.8,0.1c0.2,0.1,0.4,0.2,0.6,0.4c0.1,0.1,0.2,0.2,0.2,0.3
					c0,0.1,0,0.2-0.1,0.2s-0.1,0.1-0.2,0.1c-0.1,0-0.1,0-0.2-0.1c-0.1-0.1-0.3-0.2-0.5-0.3s-0.4-0.1-0.6-0.1c-0.3,0-0.5,0.1-0.7,0.2
					c-0.2,0.1-0.3,0.3-0.3,0.5c0,0.2,0.1,0.4,0.3,0.5c0.2,0.1,0.4,0.2,0.8,0.3c0.4,0.1,0.6,0.2,0.9,0.3c0.2,0.1,0.4,0.2,0.5,0.4
					c0.1,0.2,0.2,0.4,0.2,0.7c0,0.3-0.1,0.5-0.2,0.7c-0.1,0.2-0.3,0.4-0.6,0.5c-0.3,0.1-0.5,0.2-0.8,0.2
					C109.8,132,109.5,131.9,109.3,131.8z"/>
				<path class="st5" d="M116.3,131.6c0,0.1,0,0.2-0.1,0.2s-0.1,0.1-0.2,0.1c-0.1,0-0.1,0-0.2-0.1c-0.1,0-0.1-0.1-0.1-0.2l-0.4-1
					h-2.1l-0.4,1c0,0.1-0.1,0.1-0.1,0.2s-0.1,0.1-0.2,0.1c-0.1,0-0.2,0-0.2-0.1c0,0-0.1-0.1-0.1-0.2c0,0,0-0.1,0-0.1l1.7-4.2
					c0-0.1,0.1-0.1,0.1-0.2c0.1,0,0.1-0.1,0.2,0c0.1,0,0.1,0,0.2,0.1c0.1,0,0.1,0.1,0.1,0.2l1.7,4.1
					C116.3,131.5,116.3,131.6,116.3,131.6z M113.4,130.1h1.6l-0.8-1.9L113.4,130.1z"/>
				<path class="st5" d="M121.3,127.3c0.1,0.1,0.1,0.1,0.1,0.2v4.1c0,0.1,0,0.2-0.1,0.2s-0.1,0.1-0.2,0.1c-0.1,0-0.2,0-0.2-0.1
					s-0.1-0.1-0.1-0.2v-3.1l-1.3,2c0,0-0.1,0.1-0.1,0.1c0,0-0.1,0-0.1,0c0,0-0.1,0-0.1,0c0,0-0.1-0.1-0.1-0.1l-1.3-2v3.2
					c0,0.1,0,0.2-0.1,0.2s-0.1,0.1-0.2,0.1c-0.1,0-0.2,0-0.2-0.1s-0.1-0.1-0.1-0.2v-4.1c0-0.1,0-0.2,0.1-0.2
					c0.1-0.1,0.1-0.1,0.2-0.1c0.1,0,0.1,0,0.2,0c0.1,0,0.1,0.1,0.1,0.1l1.6,2.4l1.6-2.4c0.1-0.1,0.2-0.1,0.3-0.1
					C121.2,127.2,121.2,127.2,121.3,127.3z"/>
				<path class="st5" d="M125.1,127.4c0.2,0.1,0.4,0.3,0.5,0.5c0.1,0.2,0.2,0.5,0.2,0.7c0,0.3-0.1,0.5-0.2,0.7
					c-0.1,0.2-0.3,0.4-0.5,0.5c-0.2,0.1-0.4,0.2-0.7,0.2h-1.3v1.5c0,0.1,0,0.2-0.1,0.2s-0.1,0.1-0.2,0.1c-0.1,0-0.2,0-0.2-0.1
					s-0.1-0.1-0.1-0.2v-4.1c0-0.1,0-0.2,0.1-0.2s0.1-0.1,0.2-0.1h1.6C124.6,127.2,124.9,127.3,125.1,127.4z M124.7,129.4
					c0.1-0.1,0.2-0.2,0.2-0.3s0.1-0.3,0.1-0.4c0-0.2-0.1-0.4-0.2-0.6s-0.3-0.2-0.5-0.2h-1.3v1.7h1.3
					C124.5,129.5,124.6,129.4,124.7,129.4z"/>
				<path class="st5" d="M129.4,131.4c0.1,0.1,0.1,0.1,0.1,0.2c0,0.1,0,0.2-0.1,0.2c-0.1,0.1-0.1,0.1-0.2,0.1h-2.3
					c-0.1,0-0.2,0-0.2-0.1s-0.1-0.1-0.1-0.2v-4.1c0-0.1,0-0.2,0.1-0.2s0.1-0.1,0.2-0.1c0.1,0,0.2,0,0.2,0.1s0.1,0.1,0.1,0.2v3.8h1.9
					C129.3,131.3,129.3,131.3,129.4,131.4z"/>
				<path class="st5" d="M133.2,131.4c0.1,0.1,0.1,0.1,0.1,0.2c0,0.1,0,0.2-0.1,0.2c-0.1,0.1-0.1,0.1-0.2,0.1h-2.3
					c-0.1,0-0.2,0-0.2-0.1s-0.1-0.1-0.1-0.2v-4.1c0-0.1,0-0.2,0.1-0.2s0.1-0.1,0.2-0.1h2.3c0.1,0,0.2,0,0.2,0.1
					c0.1,0.1,0.1,0.1,0.1,0.2c0,0.1,0,0.2-0.1,0.2s-0.1,0.1-0.2,0.1h-2v1.4h1.7c0.1,0,0.2,0,0.2,0.1c0.1,0.1,0.1,0.1,0.1,0.2
					c0,0.1,0,0.2-0.1,0.2c-0.1,0.1-0.1,0.1-0.2,0.1h-1.7v1.5h2C133,131.3,133.1,131.3,133.2,131.4z"/>
			</g>
		</g>
	</g>
	<rect x="10" y="8.5" class="st7" width="200" height="210"/>
	<g>
		<path class="st8" d="M43.6,191.6c0.8,0.5,1.5,1.1,1.9,2c0.5,0.8,0.7,1.8,0.7,2.9s-0.2,2-0.7,2.9c-0.5,0.9-1.1,1.6-1.9,2.1
			c-0.8,0.5-1.7,0.8-2.8,0.8H35v7.4c0,0.2-0.1,0.4-0.2,0.6c-0.2,0.2-0.4,0.2-0.6,0.2c-0.2,0-0.4-0.1-0.6-0.2s-0.2-0.4-0.2-0.6v-17.9
			c0-0.2,0.1-0.4,0.2-0.6s0.4-0.2,0.6-0.2h6.6C41.8,190.9,42.7,191.2,43.6,191.6z M43.4,199.4c0.7-0.8,1-1.8,1-2.9
			c0-1.2-0.3-2.1-1-2.8c-0.7-0.7-1.6-1.1-2.6-1.1H35v8h5.8C41.9,200.6,42.7,200.2,43.4,199.4z"/>
		<path class="st8" d="M61.7,196.5c0.2,0.2,0.2,0.4,0.2,0.6v12.6c0,0.2-0.1,0.4-0.2,0.6c-0.2,0.2-0.4,0.2-0.6,0.2
			c-0.2,0-0.4-0.1-0.6-0.2s-0.2-0.4-0.2-0.6v-1.9c-0.5,0.8-1.2,1.5-2.1,2.1s-2,0.9-3.1,0.9c-1.3,0-2.4-0.3-3.4-1
			c-1-0.7-1.8-1.5-2.4-2.7c-0.6-1.1-0.9-2.4-0.9-3.8c0-1.4,0.3-2.7,0.9-3.8s1.4-2,2.4-2.6c1-0.6,2.1-1,3.3-1c1.1,0,2.1,0.3,3.1,0.8
			c0.9,0.5,1.6,1.3,2.1,2.1v-1.7c0-0.2,0.1-0.4,0.2-0.6s0.4-0.3,0.6-0.3C61.3,196.2,61.5,196.3,61.7,196.5z M57.9,208.5
			c0.8-0.5,1.4-1.2,1.8-2.1c0.4-0.9,0.7-1.9,0.7-3c0-1.1-0.2-2.1-0.7-3c-0.4-0.9-1-1.6-1.8-2.1c-0.8-0.5-1.6-0.8-2.6-0.8
			s-1.8,0.3-2.6,0.8c-0.8,0.5-1.4,1.2-1.8,2.1c-0.4,0.9-0.7,1.9-0.7,3s0.2,2.1,0.6,3c0.4,0.9,1,1.6,1.8,2.1c0.8,0.5,1.7,0.8,2.6,0.8
			C56.2,209.2,57.1,209,57.9,208.5z"/>
		<path class="st8" d="M77.2,196.2c0.2,0.2,0.2,0.4,0.2,0.6v12.3c0,1.5-0.3,2.7-0.9,3.8c-0.6,1-1.4,1.8-2.4,2.4
			c-1,0.5-2.2,0.8-3.5,0.8c-0.8,0-1.5-0.1-2.2-0.3c-0.7-0.2-1.2-0.4-1.7-0.7c-0.4-0.2-0.6-0.5-0.6-0.8c0,0,0-0.1,0.1-0.3
			c0.1-0.2,0.1-0.3,0.3-0.4c0.1-0.1,0.3-0.1,0.4-0.1c0.1,0,0.2,0,0.3,0.1c1.2,0.7,2.3,1,3.4,1c1.5,0,2.8-0.5,3.7-1.5
			c0.9-1,1.4-2.3,1.4-4v-1c-0.5,0.8-1.1,1.4-2,1.9c-0.9,0.5-1.8,0.7-2.9,0.7c-1.6,0-2.9-0.5-3.7-1.5s-1.3-2.3-1.3-3.9v-8.6
			c0-0.2,0.1-0.4,0.2-0.6c0.2-0.2,0.4-0.2,0.6-0.2s0.4,0.1,0.6,0.2c0.2,0.2,0.2,0.4,0.2,0.6v8.3c0,1.3,0.3,2.4,0.9,3.1
			c0.6,0.7,1.5,1,2.8,1c0.8,0,1.5-0.2,2.2-0.6c0.7-0.4,1.3-0.9,1.7-1.5c0.4-0.6,0.6-1.3,0.6-2v-8.3c0-0.2,0.1-0.4,0.2-0.6
			c0.2-0.2,0.4-0.2,0.6-0.2S77.1,196,77.2,196.2z"/>
		<path class="st8" d="M107.6,191.2c0.2,0.2,0.2,0.4,0.2,0.6v17.9c0,0.2-0.1,0.4-0.3,0.6s-0.4,0.2-0.6,0.2c-0.3,0-0.5-0.1-0.6-0.2
			s-0.3-0.4-0.3-0.6v-15.4l-6.6,10c-0.2,0.2-0.4,0.4-0.6,0.3h-0.1c-0.2,0-0.4-0.1-0.6-0.3l-6.6-10v15.5c0,0.2-0.1,0.4-0.2,0.6
			s-0.4,0.2-0.6,0.2c-0.2,0-0.4-0.1-0.6-0.2c-0.1-0.2-0.2-0.4-0.2-0.6v-17.9c0-0.2,0.1-0.4,0.2-0.6c0.2-0.2,0.4-0.3,0.6-0.3
			c0.1,0,0.3,0,0.4,0.1c0.1,0.1,0.3,0.2,0.3,0.3l7.3,11l7.4-11c0.2-0.3,0.5-0.4,0.8-0.4C107.2,190.9,107.4,191,107.6,191.2z"/>
		<path class="st8" d="M125,207.2c-0.6,1.1-1.5,2-2.5,2.7c-1.1,0.6-2.3,1-3.6,1c-1.3,0-2.5-0.3-3.6-1s-1.9-1.5-2.5-2.7
			c-0.6-1.1-0.9-2.4-0.9-3.8s0.3-2.7,0.9-3.8c0.6-1.1,1.5-2,2.5-2.7c1.1-0.7,2.3-1,3.6-1c1.3,0,2.5,0.3,3.6,1
			c1.1,0.7,1.9,1.5,2.5,2.7c0.6,1.1,0.9,2.4,0.9,3.8S125.6,206,125,207.2z M123.5,200.3c-0.5-0.9-1.1-1.6-1.9-2.1
			c-0.8-0.5-1.8-0.8-2.8-0.8s-1.9,0.3-2.7,0.8c-0.8,0.5-1.5,1.2-1.9,2.1s-0.7,1.9-0.7,3c0,1.1,0.2,2.1,0.7,3s1.1,1.6,1.9,2.1
			c0.8,0.5,1.7,0.8,2.7,0.8s1.9-0.3,2.8-0.8c0.8-0.5,1.5-1.2,1.9-2.1s0.7-1.9,0.7-3S124,201.2,123.5,200.3z"/>
		<path class="st8" d="M139.9,197.4c0.8,1,1.2,2.4,1.2,4v8.2c0,0.2-0.1,0.4-0.3,0.6s-0.4,0.2-0.6,0.2c-0.2,0-0.4-0.1-0.6-0.2
			s-0.2-0.4-0.2-0.6v-8.1c0-1.2-0.3-2.2-0.9-3c-0.6-0.8-1.5-1.1-2.8-1.1c-0.8,0-1.6,0.2-2.3,0.6c-0.7,0.4-1.3,0.9-1.8,1.5
			c-0.4,0.6-0.7,1.3-0.7,2v8.1c0,0.2-0.1,0.4-0.2,0.6c-0.2,0.2-0.4,0.2-0.6,0.2s-0.4-0.1-0.6-0.2c-0.2-0.2-0.2-0.4-0.2-0.6v-12.5
			c0-0.2,0.1-0.4,0.2-0.6c0.2-0.2,0.4-0.2,0.6-0.2s0.4,0.1,0.6,0.2c0.2,0.2,0.2,0.4,0.2,0.6v1.5c0.5-0.8,1.2-1.5,2.2-2
			c0.9-0.5,1.9-0.8,2.9-0.8C137.8,195.9,139.1,196.4,139.9,197.4z"/>
		<path class="st8" d="M148.3,197.8v9.4c0,0.7,0.1,1.2,0.4,1.4c0.3,0.3,0.6,0.4,1,0.4c0.1,0,0.3,0,0.4-0.1c0.2,0,0.3-0.1,0.4-0.1
			c0.2,0,0.3,0.1,0.4,0.2c0.1,0.1,0.2,0.3,0.2,0.5c0,0.3-0.2,0.5-0.4,0.7c-0.3,0.2-0.7,0.3-1.1,0.3c-0.5,0-1,0-1.3-0.1
			c-0.4-0.1-0.8-0.4-1.1-0.8c-0.4-0.5-0.5-1.2-0.5-2.2v-9.5h-2c-0.2,0-0.4-0.1-0.6-0.2c-0.2-0.1-0.2-0.3-0.2-0.6
			c0-0.2,0.1-0.4,0.2-0.6s0.3-0.2,0.6-0.2h2v-3.1c0-0.2,0.1-0.4,0.2-0.6c0.2-0.2,0.4-0.2,0.6-0.2s0.4,0.1,0.6,0.2
			c0.2,0.2,0.2,0.4,0.2,0.6v3.1h2.8c0.2,0,0.4,0.1,0.5,0.3c0.2,0.2,0.2,0.4,0.2,0.6c0,0.2-0.1,0.4-0.2,0.5c-0.2,0.1-0.3,0.2-0.6,0.2
			H148.3z"/>
		<path class="st8" d="M165.3,197.7c0.8,1.1,1.2,2.4,1.2,4.1v7.9c0,0.2-0.1,0.4-0.2,0.6s-0.4,0.2-0.6,0.2c-0.2,0-0.4-0.1-0.6-0.2
			s-0.2-0.4-0.2-0.6v-7.9c0-1.2-0.3-2.2-0.9-3c-0.6-0.8-1.5-1.1-2.7-1.1c-0.8,0-1.5,0.2-2.2,0.6c-0.7,0.4-1.3,0.9-1.7,1.5
			c-0.4,0.6-0.6,1.3-0.6,2v7.9c0,0.2-0.1,0.4-0.2,0.6s-0.4,0.2-0.6,0.2c-0.2,0-0.4-0.1-0.6-0.2c-0.2-0.2-0.2-0.4-0.2-0.6v-19
			c0-0.2,0.1-0.4,0.2-0.6c0.2-0.2,0.4-0.2,0.6-0.2c0.2,0,0.4,0.1,0.6,0.2c0.2,0.2,0.2,0.4,0.2,0.6v8.2c0.5-0.8,1.2-1.5,2.1-2
			c0.9-0.5,1.8-0.8,2.7-0.8C163.2,196.1,164.5,196.6,165.3,197.7z"/>
		<path class="st8" d="M172.5,210.3c-0.2,0.2-0.4,0.2-0.6,0.2c-0.2,0-0.4-0.1-0.6-0.2c-0.2-0.2-0.2-0.4-0.2-0.6v-19
			c0-0.2,0.1-0.4,0.2-0.6c0.2-0.2,0.4-0.2,0.6-0.2c0.2,0,0.4,0.1,0.6,0.2c0.2,0.2,0.2,0.4,0.2,0.6v19
			C172.7,209.9,172.7,210.1,172.5,210.3z"/>
		<path class="st8" d="M188.2,196.2c0.2,0.2,0.2,0.4,0.2,0.6v12.3c0,1.5-0.3,2.7-0.9,3.8c-0.6,1-1.4,1.8-2.4,2.4
			c-1,0.5-2.2,0.8-3.5,0.8c-0.8,0-1.5-0.1-2.2-0.3c-0.7-0.2-1.2-0.4-1.7-0.7c-0.4-0.2-0.6-0.5-0.6-0.8c0,0,0-0.1,0.1-0.3
			c0.1-0.2,0.1-0.3,0.3-0.4c0.1-0.1,0.3-0.1,0.4-0.1c0.1,0,0.2,0,0.3,0.1c1.2,0.7,2.3,1,3.4,1c1.5,0,2.8-0.5,3.7-1.5s1.4-2.3,1.4-4
			v-1c-0.5,0.8-1.1,1.4-2,1.9s-1.8,0.7-2.9,0.7c-1.6,0-2.9-0.5-3.7-1.5s-1.3-2.3-1.3-3.9v-8.6c0-0.2,0.1-0.4,0.2-0.6
			c0.2-0.2,0.4-0.2,0.6-0.2c0.2,0,0.4,0.1,0.6,0.2s0.2,0.4,0.2,0.6v8.3c0,1.3,0.3,2.4,0.9,3.1c0.6,0.7,1.5,1,2.8,1
			c0.8,0,1.5-0.2,2.2-0.6c0.7-0.4,1.3-0.9,1.7-1.5c0.4-0.6,0.6-1.3,0.6-2v-8.3c0-0.2,0.1-0.4,0.2-0.6s0.4-0.2,0.6-0.2
			C187.8,196,188,196,188.2,196.2z"/>
	</g>
</g>
</svg>
