<svg id="Yes" xmlns="http://www.w3.org/2000/svg" viewBox="0 0 142.484 142.484">
  <defs>
    <style>
      .cls-1, .cls-2 {
        fill: none;
      }

      .cls-1 {
        stroke: #ea495c;
        stroke-linecap: round;
        stroke-linejoin: round;
        stroke-miterlimit: 10;
        stroke-width: 4px;
      }
    </style>
  </defs>
  <g id="check-Done" transform="translate(16.687 35.942)">
    <path id="Path_579" data-name="Path 579" class="cls-1" d="M2,38.593,40.025,76.618,110.643,6" transform="translate(-2 -6)"/>
  </g>
  <rect id="Rectangle_1482" data-name="Rectangle 1482" class="cls-2" width="142.484" height="142.484" transform="translate(0 0)"/>
</svg>
