<?xml version="1.0" encoding="utf-8"?>
<!-- Generator: Adobe Illustrator 22.1.0, SVG Export Plug-In . SVG Version: 6.00 Build 0)  -->
<svg version="1.1" id="Layer_1" xmlns="http://www.w3.org/2000/svg" xmlns:xlink="http://www.w3.org/1999/xlink" x="0px" y="0px"
	 viewBox="0 0 30 30" style="enable-background:new 0 0 30 30;" xml:space="preserve">
<style type="text/css">
	.st0{fill:#EA495C;}
</style>
<path class="st0" d="M15,8c4.8,0,9.3,2.5,12.6,7c-3.2,4.5-7.8,7-12.6,7s-9.3-2.5-12.6-7C5.7,10.5,10.2,8,15,8 M15,6
	C8.9,6,3.5,9.5,0,15c3.5,5.5,8.9,9,15,9s11.5-3.5,15-9C26.5,9.5,21.1,6,15,6L15,6z"/>
<path class="st0" d="M15,12.5c1.4,0,2.5,1.1,2.5,2.5s-1.1,2.5-2.5,2.5s-2.5-1.1-2.5-2.5S13.6,12.5,15,12.5"/>
<g>
	<path class="st0" d="M15,10.5c2.5,0,4.5,2,4.5,4.5s-2,4.5-4.5,4.5s-4.5-2-4.5-4.5S12.5,10.5,15,10.5 M15,9.5c-3,0-5.5,2.5-5.5,5.5
		s2.5,5.5,5.5,5.5s5.5-2.5,5.5-5.5S18,9.5,15,9.5L15,9.5z"/>
</g>
</svg>
