<?xml version="1.0" encoding="utf-8"?>
<!-- Generator: Adobe Illustrator 22.1.0, SVG Export Plug-In . SVG Version: 6.00 Build 0)  -->
<svg version="1.1" id="Layer_1" xmlns="http://www.w3.org/2000/svg" xmlns:xlink="http://www.w3.org/1999/xlink" x="0px" y="0px"
	 viewBox="0 0 30 30" style="enable-background:new 0 0 30 30;" xml:space="preserve">
<style type="text/css">
	.st0{fill:#FFFFFF;}
</style>
<g>
	<path class="st0" d="M9.7,18.4c0.8-0.9,1.3-2.1,1.3-3.4c0-2.8-2.2-5-5-5s-5,2.2-5,5c0,1.3,0.5,2.5,1.3,3.4C1,19,0,20.4,0,22v8h12
		v-8C12,20.4,11,19,9.7,18.4z M6,12c1.7,0,3,1.3,3,3s-1.3,3-3,3s-3-1.3-3-3S4.3,12,6,12z M10,28H2v-6c0-1.1,0.9-2,2-2h4
		c1.1,0,2,0.9,2,2V28z"/>
	<path class="st0" d="M27.7,18.4c0.8-0.9,1.3-2.1,1.3-3.4c0-2.8-2.2-5-5-5s-5,2.2-5,5c0,1.3,0.5,2.5,1.3,3.4C19,19,18,20.4,18,22v8
		h12v-8C30,20.4,29,19,27.7,18.4z"/>
	<polygon class="st0" points="20,6 20,4 16,4 16,0 14,0 14,4 10,4 10,6 14,6 14,10 16,10 16,6 	"/>
</g>
</svg>
