<svg xmlns="http://www.w3.org/2000/svg" viewBox="0 0 69 68">
  <defs>
    <style>
      .cls-1, .cls-2 {
        fill: none;
      }

      .cls-1 {
        stroke: #fff;
        stroke-linecap: round;
        stroke-linejoin: round;
        stroke-width: 2px;
      }
    </style>
  </defs>
  <g id="white" transform="translate(13823 592)">
    <g id="Group_2660" data-name="Group 2660" transform="translate(17 32)">
      <g id="single-01" transform="translate(-13820.5 -606.5)">
        <path id="Path_745" data-name="Path 745" class="cls-1" d="M29.5,15.844a2.154,2.154,0,0,0-.918-1.766A22.329,22.329,0,0,0,15.5,10.511,22.329,22.329,0,0,0,2.418,14.077,2.154,2.154,0,0,0,1.5,15.844V21.28h28Z" transform="translate(0 11.528)"/>
        <circle id="Ellipse_157" data-name="Ellipse 157" class="cls-1" cx="7.538" cy="7.538" r="7.538" transform="translate(7.962 0.5)"/>
      </g>
      <rect id="Rectangle_1639" data-name="Rectangle 1639" class="cls-2" width="38" height="38" transform="translate(-13824 -609)"/>
    </g>
    <rect id="Rectangle_1374" data-name="Rectangle 1374" class="cls-2" width="69" height="68" transform="translate(-13823 -592)"/>
  </g>
</svg>
