<svg id="Group_2255" data-name="Group 2255" xmlns="http://www.w3.org/2000/svg" viewBox="-12177 -3936 69 68">
  <defs>
    <style>
      .cls-1, .cls-2 {
        fill: none;
      }

      .cls-2 {
        stroke: #fff;
        stroke-linecap: round;
        stroke-linejoin: round;
        stroke-miterlimit: 10;
        stroke-width: 2px;
      }
    </style>
  </defs>
  <g id="Group_2111" data-name="Group 2111" transform="translate(-12161 -3919.877)">
    <rect id="Rectangle_1294" data-name="Rectangle 1294" class="cls-1" width="38.515" height="38.515"/>
    <g id="money-time" transform="translate(3 3)">
      <path id="Path_635" data-name="Path 635" class="cls-2" d="M11,12v5.432c0,2.25,3.648,4.074,8.148,4.074S27.3,19.683,27.3,17.432V12" transform="translate(3.581 3.939)"/>
      <path id="Path_636" data-name="Path 636" class="cls-2" d="M11,16v5.432c0,2.25,3.648,4.074,8.148,4.074S27.3,23.683,27.3,21.432V16" transform="translate(3.581 5.371)"/>
      <ellipse id="Ellipse_144" data-name="Ellipse 144" class="cls-2" cx="8.148" cy="4.074" rx="8.148" ry="4.074" transform="translate(14.581 11.865)"/>
      <path id="Path_637" data-name="Path 637" class="cls-2" d="M9.074,5V9.074H5" transform="translate(1.432 1.432)"/>
      <path id="Path_638" data-name="Path 638" class="cls-2" d="M10.506,20.013A9.506,9.506,0,1,1,19.619,7.792"/>
    </g>
  </g>
  <rect id="Rectangle_1366" data-name="Rectangle 1366" class="cls-1" width="69" height="68" transform="translate(-12177 -3936)"/>
</svg>
