<svg xmlns="http://www.w3.org/2000/svg" viewBox="16044 11065 100 100">
  <defs>
    <style>
      .cls-1 {
        fill: none;
      }

      .cls-2 {
        fill: #ea495c;
      }
    </style>
  </defs>
  <g id="ic_vpn_key_black_24px_1_" data-name="ic_vpn_key_black_24px (1)" transform="translate(16044 11065)">
    <path id="Path_324" data-name="Path 324" class="cls-1" d="M0,0H100V100H0Z"/>
    <path id="Path_325" data-name="Path 325" class="cls-2" d="M49.542,22.667a25,25,0,1,0,0,16.667H67.667V56H84.333V39.333h8.333V22.667ZM26,39.333A8.333,8.333,0,1,1,34.333,31,8.358,8.358,0,0,1,26,39.333Z" transform="translate(3.167 19)"/>
  </g>
</svg>
