<svg xmlns="http://www.w3.org/2000/svg" viewBox="15197 11056 100 100">
  <defs>
    <style>
      .cls-1 {
        fill: #ea495c;
      }

      .cls-2 {
        fill: none;
      }
    </style>
  </defs>
  <g id="ic_power_black_24px" transform="translate(15197 11056)">
    <path id="Path_320" data-name="Path 320" class="cls-1" d="M47.708,19.667,47.667,3H39.333V19.667H22.667V3H14.333V19.667h-.042C10.167,19.625,6,23.792,6,27.958V50.833L20.583,65.5V78H41.417V65.5L56,50.875V27.958C56,23.792,51.833,19.625,47.708,19.667Z" transform="translate(19 9.5)"/>
    <path id="Path_321" data-name="Path 321" class="cls-2" d="M0,0H100V100H0Z"/>
  </g>
</svg>
