<svg xmlns="http://www.w3.org/2000/svg" viewBox="-2375.138 12517.145 42.837 42.837">
  <defs>
    <style>
      .cls-1 {
        fill: none;
      }

      .cls-2 {
        fill: #fff;
      }
    </style>
  </defs>
  <g id="ic_check_white_24px_1_" data-name="ic_check_white_24px (1)" transform="translate(-2375.138 12517.145)">
    <path id="Path_305" data-name="Path 305" class="cls-1" d="M0,0H42.837V42.837H0Z"/>
    <path id="Path_306" data-name="Path 306" class="cls-2" d="M13.387,24.474,5.945,17.031,3.41,19.548l9.977,9.977L34.806,8.107,32.289,5.59Z" transform="translate(2.676 4.387)"/>
  </g>
</svg>
