<svg xmlns="http://www.w3.org/2000/svg" viewBox="-2147.014 12146.063 158.711 134.904">
  <defs>
    <style>
      .cls-1 {
        fill: #ea495c;
      }
    </style>
  </defs>
  <path id="Path_321" data-name="Path 321" class="cls-1" d="M131.484,879.9V832.292h31.742V879.9H202.9V816.42h23.807L147.356,745,68,816.42H91.807V879.9Z" transform="translate(-2215.014 11401.062)"/>
</svg>
