<svg xmlns="http://www.w3.org/2000/svg" xmlns:xlink="http://www.w3.org/1999/xlink" viewBox="-9238.37 15385.984 39.99 39.99">
  <defs>
    <style>
      .cls-1 {
        fill: #fff;
      }

      .cls-2 {
        clip-path: url(#clip-path);
      }
    </style>
    <clipPath id="clip-path">
      <rect id="Rectangle_8" data-name="Rectangle 8" class="cls-1" width="39.991" height="39.991"/>
    </clipPath>
  </defs>
  <g id="Group_1638" data-name="Group 1638" transform="translate(-9238.37 15385.984)">
    <g id="Group_14" data-name="Group 14" class="cls-2">
      <path id="Path_12" data-name="Path 12" class="cls-1" d="M101.991,652.866a3.3,3.3,0,0,1-3.333,3.333,1.691,1.691,0,0,1-.8-.133l-6,5.865a1.976,1.976,0,0,1,.133.933,3.333,3.333,0,1,1-6.665,0,2.268,2.268,0,0,1,.133-.933L81.2,657.665a1.978,1.978,0,0,1-.933.133,2.27,2.27,0,0,1-.933-.133l-7.6,7.6a1.69,1.69,0,0,1,.133.8,3.333,3.333,0,1,1-3.333-3.333,1.691,1.691,0,0,1,.8.133l7.6-7.6a1.977,1.977,0,0,1-.133-.933,3.333,3.333,0,0,1,6.665,0,2.269,2.269,0,0,1-.133.933l4.266,4.266a1.977,1.977,0,0,1,.933-.133,2.269,2.269,0,0,1,.933.133l5.865-6a1.691,1.691,0,0,1-.133-.8,3.3,3.3,0,0,1,3.333-3.333A3.529,3.529,0,0,1,101.991,652.866Z" transform="translate(-63.6 -639.536)"/>
    </g>
  </g>
</svg>
