<svg xmlns="http://www.w3.org/2000/svg" xmlns:xlink="http://www.w3.org/1999/xlink" viewBox="1236.89 -14470.465 117.525 166.299">
  <defs>
    <style>
      .cls-1 {
        fill: url(#linear-gradient);
      }
    </style>
    <linearGradient id="linear-gradient" x1="0.5" x2="0.5" y2="1" gradientUnits="objectBoundingBox">
      <stop offset="0" stop-color="#b224ef"/>
      <stop offset="1" stop-color="#7579ff"/>
    </linearGradient>
  </defs>
  <path id="gas" class="cls-1" d="M832.607,202.2c2.392,2.24,4.86,4.518,7.252,6.834,12.833,12.264,25.324,24.869,36.3,38.841,9.378,11.922,17.351,24.641,21.983,39.221,4.063,12.833,5.923,26.008,3.8,39.373-3.151,19.781-17.617,36.639-37.436,41.385-.949.228-1.936.38-3.265.645.455-.494.646-.759.911-.987,10.251-8.2,16.364-18.984,19.326-31.589,4.252-18.149.342-34.93-9.15-50.611-5.581-9.188-14.694-19.591-21.718-25.1,2.582,21.034-2.354,40.17-13.023,58.546-1.291-10.517-5.354-19.1-13.061-25.97a7.192,7.192,0,0,0-.456,1.025c-1.823,7.29-4.86,14.048-8.125,20.768a73.451,73.451,0,0,0-6.454,17.807c-2.088,10.669,1.025,19.743,7.783,27.83,2.05,2.468,4.4,4.746,6.53,7.366-3.493-1.595-7.024-3.075-10.441-4.86a53.793,53.793,0,0,1-19.819-17.2c-5.847-8.581-8.277-18.149-8.239-28.476.038-9.682,2.43-18.794,6.189-27.6,4.822-11.314,11.39-21.68,17.617-32.235,6.72-11.428,13.061-23.085,17.465-35.614,2.24-6.341,3.987-12.833,6.037-19.4" transform="translate(451.591 -14672.665)"/>
</svg>
