<svg xmlns="http://www.w3.org/2000/svg" viewBox="5198 -14489 200 200">
  <defs>
    <style>
      .cls-1, .cls-2 {
        fill: none;
      }

      .cls-1 {
        stroke: #7579ff;
        stroke-linecap: round;
        stroke-linejoin: round;
        stroke-miterlimit: 10;
        stroke-width: 4px;
      }
    </style>
  </defs>
  <g id="No" transform="translate(4633 -15023)">
    <g id="No-2" data-name="No" transform="translate(610 579)">
      <line id="Line_229" data-name="Line 229" class="cls-1" x1="100.212" y2="100.212" transform="translate(5 5)"/>
      <line id="Line_230" data-name="Line 230" class="cls-1" x1="100.212" y1="100.212" transform="translate(5 5)"/>
    </g>
    <rect id="Rectangle_1481" data-name="Rectangle 1481" class="cls-2" width="200" height="200" transform="translate(565 534)"/>
  </g>
</svg>
