<svg xmlns="http://www.w3.org/2000/svg" viewBox="19029 -11910 190 190">
  <defs>
    <style>
      .cls-1, .cls-2 {
        fill: none;
      }

      .cls-1 {
        stroke: #7579ff;
        stroke-linecap: round;
        stroke-linejoin: round;
        stroke-miterlimit: 10;
        stroke-width: 4px;
      }
    </style>
  </defs>
  <g id="Slow" transform="translate(18495 -12411)">
    <g id="sink-wash" transform="translate(587.999 555)">
      <path id="Path_580" data-name="Path 580" class="cls-1" d="M16,33.172C16,26.266,26.9,15,26.9,15s10.9,11.266,10.9,18.172a10.693,10.693,0,0,1-10.9,10.9A10.693,10.693,0,0,1,16,33.172Z" transform="translate(39.515 36.881)"/>
      <path id="Path_581" data-name="Path 581" class="cls-1" d="M40.978,1H1V15.537"/>
      <path id="Path_582" data-name="Path 582" class="cls-1" d="M1,5H80.955V26.806H22.806V70.418H1Z" transform="translate(0 10.537)"/>
    </g>
    <rect id="Rectangle_1503" data-name="Rectangle 1503" class="cls-2" width="190" height="190" transform="translate(534 501)"/>
  </g>
</svg>
