<svg xmlns="http://www.w3.org/2000/svg" viewBox="3473 -14459 200 200">
  <defs>
    <style>
      .cls-1, .cls-2, .cls-3, .cls-4 {
        fill: none;
      }

      .cls-1, .cls-2, .cls-3 {
        stroke: #7579ff;
      }

      .cls-1, .cls-2 {
        stroke-width: 3px;
      }

      .cls-2 {
        stroke-miterlimit: 10;
      }
    </style>
  </defs>
  <g id="Standard" transform="translate(2623 -15022)">
    <g id="Standard-2" data-name="Standard" transform="translate(875 578)">
      <rect id="Rectangle_614" data-name="Rectangle 614" class="cls-1" width="4.791" height="24.913" transform="translate(25.073 131.591)"/>
      <rect id="Rectangle_615" data-name="Rectangle 615" class="cls-1" width="4.791" height="24.913" transform="translate(37.689 131.591)"/>
      <path id="Path_243" data-name="Path 243" class="cls-2" d="M54.595.3H20.1V25.213h4.791V5.091h29.7Z" transform="translate(10.999 -7.3)"/>
      <path id="Path_244" data-name="Path 244" class="cls-1" d="M68.031,22.879A11.35,11.35,0,0,0,56.693,11.7H11.339A11.246,11.246,0,0,0,0,22.879v91.187H68.031ZM0,128.6H17.088l4.791,4.791H46.312L51.1,128.6H68.191v-9.742H0Z" transform="translate(0 6.506)"/>
      <circle id="Ellipse_76" data-name="Ellipse 76" class="cls-1" cx="3.194" cy="3.194" r="3.194" transform="translate(30.662 104.921)"/>
      <g id="Group_765" data-name="Group 765" transform="translate(91.667 81.606)">
        <path id="Path_245" data-name="Path 245" class="cls-1" d="M63.788,140.831h3.194v6.388H73.37v-6.388H98.921v6.388h6.388v-6.388H108.5a6.407,6.407,0,0,0,6.388-6.388V57.788A6.407,6.407,0,0,0,108.5,51.4H63.788A6.407,6.407,0,0,0,57.4,57.788v76.655A6.407,6.407,0,0,0,63.788,140.831Zm.16-82.244h44.715v67.073H63.948ZM69.7,131.728a2.076,2.076,0,1,1-2.076-2.076A2.114,2.114,0,0,1,69.7,131.728Zm7.985,0a2.076,2.076,0,1,1-2.076-2.076A2.114,2.114,0,0,1,77.682,131.728Zm27.149.639a2.555,2.555,0,1,1-2.555-2.555A2.522,2.522,0,0,1,104.83,132.367Z" transform="translate(-57.4 -51.4)"/>
      </g>
      <path id="gas" class="cls-3" d="M789.457,201.712c-.021.067-.041.134-.069.224-.147.485-.288.988-.462,1.481a18.021,18.021,0,0,1-1.535,3.13,24.763,24.763,0,0,0-1.548,2.833,6.2,6.2,0,0,0-.544,2.426,4.3,4.3,0,0,0,.724,2.5,4.728,4.728,0,0,0,1.742,1.512c.3.157.611.287.918.427-.187-.23-.394-.43-.574-.647a2.807,2.807,0,0,1-.684-2.446,6.455,6.455,0,0,1,.567-1.565,9.421,9.421,0,0,0,.714-1.825.625.625,0,0,1,.04-.09,3.48,3.48,0,0,1,1.148,2.282,8.022,8.022,0,0,0,1.145-5.145,9.262,9.262,0,0,1,1.909,2.206,5.78,5.78,0,0,1,.8,4.448,4.857,4.857,0,0,1-1.7,2.776c-.023.02-.04.043-.08.087.117-.023.2-.037.287-.057a4.434,4.434,0,0,0,3.29-3.637,7.483,7.483,0,0,0-.334-3.46,10.977,10.977,0,0,0-1.932-3.447,32.83,32.83,0,0,0-3.19-3.414c-.21-.2-.573-.813-.637-.6" transform="translate(-669.928 -64.969)"/>
    </g>
    <rect id="Rectangle_1479" data-name="Rectangle 1479" class="cls-4" width="200" height="200" transform="translate(850 563)"/>
  </g>
</svg>
