<?xml version="1.0" encoding="utf-8"?>
<!-- Generator: Adobe Illustrator 22.1.0, SVG Export Plug-In . SVG Version: 6.00 Build 0)  -->
<svg version="1.1" id="Layer_1" xmlns="http://www.w3.org/2000/svg" xmlns:xlink="http://www.w3.org/1999/xlink" x="0px" y="0px"
	 viewBox="0 0 50 50" style="enable-background:new 0 0 50 50;" xml:space="preserve">
<style type="text/css">
	.st0{fill:#EA495C;}
	.st1{clip-path:url(#SVGID_2_);}
	.st2{fill:#84A0A5;}
	.st3{fill:#B7DCE5;}
	.st4{fill:#7A7C6A;}
	.st5{fill:none;stroke:#84A0A5;stroke-width:1;stroke-miterlimit:10;}
	.st6{fill:#333333;}
</style>
<circle class="st0" cx="25" cy="24.9" r="22.5"/>
<g>
	<defs>
		<path id="SVGID_1_" d="M2.5,2.4v22.5c0,12.4,10.1,22.5,22.5,22.5c12.4,0,22.5-10.1,22.5-22.5V2.4H2.5z"/>
	</defs>
	<clipPath id="SVGID_2_">
		<use xlink:href="#SVGID_1_"  style="overflow:visible;"/>
	</clipPath>
	<g class="st1">
		<path class="st2" d="M41.3,39.5H6.4c-1.5,0-2.8-1.3-2.8-2.8V13.1c0-1.5,1.3-2.8,2.8-2.8h34.9c1.5,0,2.8,1.3,2.8,2.8v23.6
			C44.1,38.3,42.9,39.5,41.3,39.5z"/>
		<path class="st3" d="M43.6,39.5H10.9c-1.5,0-2.8-1.3-2.8-2.8V13.1c0-1.5,1.3-2.8,2.8-2.8h32.6c1.5,0,2.8,1.3,2.8,2.8v23.6
			C46.4,38.3,45.1,39.5,43.6,39.5z"/>
		<path class="st4" d="M41.9,26.6H12.6c-0.9,0-1.7-0.8-1.7-1.7V14.8c0-0.9,0.8-1.7,1.7-1.7h29.3c0.9,0,1.7,0.8,1.7,1.7v10.1
			C43.6,25.8,42.8,26.6,41.9,26.6z"/>
		<path class="st5" d="M10.9,39.5v-8.4c0-0.9,0.8-1.7,1.7-1.7h29.3c0.9,0,1.7,0.8,1.7,1.7v8.4"/>
		<g>
			<path class="st6" d="M15.1,16.7h0.3c0,0,0,0,0,0v0.9c0,0-0.2,0.2-0.7,0.7c-0.3,0-0.5,0-0.7,0h-0.2c0,0,0,0,0,0
				c0-0.3,0.1-0.4,0.2-0.4C14.7,17.1,15,16.7,15.1,16.7z M15.8,15.9c0,0,0.2,0.2,0.7,0.7v2.5c0,0-0.2,0.2-0.7,0.7
				c0,0-0.1-0.1-0.2-0.2v-3.4C15.6,16.2,15.7,16.1,15.8,15.9z M16.3,19.9c0,0,0.1,0.1,0.2,0.2v3.4c0,0-0.1,0.1-0.2,0.2
				c0,0-0.2-0.2-0.7-0.7v-2.5C15.6,20.6,15.8,20.4,16.3,19.9z"/>
			<path class="st6" d="M18.4,20c0,0,0.2,0.2,0.7,0.7v2.2c0,0-0.2,0.2-0.7,0.7c0,0-0.1-0.1-0.2-0.2v-3.1
				C18.2,20.2,18.3,20.1,18.4,20z M18.8,15.9h3.1c0,0,0.1,0.1,0.2,0.2c0,0-0.2,0.2-0.7,0.7h-2.2c0,0-0.2-0.2-0.7-0.7
				C18.6,16.2,18.7,16.1,18.8,15.9z M19.1,19.4h2.6c0,0,0.2,0.1,0.4,0.4v0c0,0-0.1,0.2-0.4,0.4h-2.6c0,0-0.2-0.1-0.4-0.4v0
				C18.6,19.8,18.8,19.7,19.1,19.4z M19.3,22.9h2.2c0,0,0.2,0.2,0.7,0.7c0,0-0.1,0.1-0.2,0.2h-3.1c0,0-0.1-0.1-0.2-0.2
				C18.6,23.5,18.8,23.3,19.3,22.9z M22.4,16.2c0,0,0.1,0.1,0.2,0.2v3.1c0,0-0.1,0.1-0.2,0.2c0,0-0.2-0.2-0.7-0.7v-2.2
				C21.7,16.8,21.9,16.6,22.4,16.2z"/>
			<path class="st6" d="M24.5,15.9h3.1c0,0,0.1,0.1,0.2,0.2c0,0-0.2,0.2-0.7,0.7h-2.2c0,0-0.2-0.2-0.7-0.7
				C24.2,16.2,24.3,16.1,24.5,15.9z M24.9,22.9h2.2c0,0,0.2,0.2,0.7,0.7c0,0-0.1,0.1-0.2,0.2h-3.1c0,0-0.1-0.1-0.2-0.2
				C24.3,23.5,24.5,23.3,24.9,22.9z M24.8,19.4h2.6c0,0,0.2,0.1,0.4,0.4v0c0,0-0.1,0.2-0.4,0.4h-2.6c0,0-0.2-0.1-0.4-0.4v0
				C24.3,19.8,24.5,19.7,24.8,19.4z M28,16.2c0,0,0.1,0.1,0.2,0.2v3.1c0,0-0.1,0.1-0.2,0.2c0,0-0.2-0.2-0.7-0.7v-2.2
				C27.3,16.8,27.6,16.6,28,16.2z M28,19.9c0,0,0.1,0.1,0.2,0.2v3.1c0,0-0.1,0.1-0.2,0.2c0,0-0.2-0.2-0.7-0.7v-2.2
				C27.3,20.6,27.6,20.4,28,19.9z"/>
			<path class="st6" d="M30.5,15.9c0,0,0.2,0.2,0.7,0.7v2.5c0,0-0.2,0.2-0.7,0.7c0,0-0.1-0.1-0.2-0.2v-3.4
				C30.3,16.2,30.4,16.1,30.5,15.9z M31.2,19.4h2.6c0,0,0.2,0.1,0.4,0.4v0c0,0-0.1,0.2-0.4,0.4h-2.6c0,0-0.2-0.1-0.4-0.4v0
				C30.8,19.8,31,19.7,31.2,19.4z M34.5,15.9c0,0,0.1,0.1,0.2,0.2v3.4c0,0-0.1,0.1-0.2,0.2c0,0-0.2-0.2-0.7-0.7v-2.5
				C33.8,16.6,34,16.4,34.5,15.9z M34.5,20.2c0,0,0.1,0.1,0.2,0.2v3.1c0,0-0.1,0.1-0.2,0.2c0,0-0.2-0.2-0.7-0.7v-2.2
				C33.8,20.8,34,20.6,34.5,20.2z"/>
			<path class="st6" d="M36.6,16.2c0,0,0.2,0.2,0.7,0.7v2.2c0,0-0.2,0.2-0.7,0.7c0,0-0.1-0.1-0.2-0.2v-3.1
				C36.4,16.4,36.4,16.3,36.6,16.2z M37.4,22.9h2.2c0,0,0.2,0.2,0.7,0.7c0,0-0.1,0.1-0.2,0.2H37c0,0-0.1-0.1-0.2-0.2
				C36.8,23.5,37,23.3,37.4,22.9z M37,15.9h3.1c0,0,0.1,0.1,0.2,0.2c0,0-0.2,0.2-0.7,0.7h-2.2c0,0-0.2-0.2-0.7-0.7
				C36.8,16.2,36.9,16.1,37,15.9z M37.2,19.4h2.6c0,0,0.2,0.1,0.4,0.4v0c0,0-0.1,0.2-0.4,0.4h-2.6c0,0-0.2-0.1-0.4-0.4v0
				C36.8,19.8,36.9,19.7,37.2,19.4z M40.5,20c0,0,0.1,0.1,0.2,0.2v3.1c0,0-0.1,0.1-0.2,0.2c0,0-0.2-0.2-0.7-0.7v-2.2
				C39.9,20.6,40.1,20.4,40.5,20z"/>
		</g>
	</g>
</g>
</svg>
