<?xml version="1.0" encoding="utf-8"?>
<!-- Generator: Adobe Illustrator 22.1.0, SVG Export Plug-In . SVG Version: 6.00 Build 0)  -->
<svg version="1.1" id="Group_2744" xmlns="http://www.w3.org/2000/svg" xmlns:xlink="http://www.w3.org/1999/xlink" x="0px" y="0px"
	 viewBox="0 0 50 50" style="enable-background:new 0 0 50 50;" xml:space="preserve">
<style type="text/css">
	.st0{fill:#EA495C;}
	.st1{fill:#6B2F05;}
	.st2{fill:#1FCC48;}
	.st3{fill:#26993E;}
	.st4{fill:#994710;}
	.st5{fill:#F2AA19;}
	.st6{fill:#B27200;}
	.st7{fill:#F2DF55;}
</style>
<circle class="st0" cx="25" cy="25" r="22.5"/>
<path class="st1" d="M38.5,29.5H16c-1.2,0-2.3-1-2.3-2.3V14.9c0-1.2,1-2.3,2.3-2.3h22.5c1.2,0,2.3,1,2.3,2.3v12.4
	C40.8,28.5,39.7,29.5,38.5,29.5z"/>
<g>
	<rect x="16" y="14.9" class="st2" width="27" height="16.9"/>
	
		<rect x="22.2" y="10.9" transform="matrix(-1.941940e-07 1 -1 -1.941940e-07 52.8128 -6.1876)" class="st3" width="14.6" height="24.7"/>
</g>
<path class="st4" d="M16,17.1c-1.2,0-2.3-1-2.3-2.3v16.9c0,1.2,1,2.3,2.3,2.3h20.3c1.2,0,2.3-1,2.3-2.3V19.4c0-1.2-1-2.3-2.3-2.3H16
	z"/>
<circle class="st5" cx="34.6" cy="25.6" r="1.7"/>
<g>
	<path class="st6" d="M22.8,40.8c0,1.2-2,2.3-4.5,2.3s-4.5-1-4.5-2.3v-1.1h9V40.8z"/>
	<ellipse class="st5" cx="18.3" cy="39.6" rx="4.5" ry="2.3"/>
	<path class="st7" d="M20,37.5l-6.1,2.5c0.1,0.3,0.4,0.6,0.8,0.9l6.9-2.9C21.1,37.9,20.6,37.7,20,37.5z"/>
</g>
<g>
	<path class="st6" d="M12.7,36.3c0,1.2-2,2.3-4.5,2.3s-4.5-1-4.5-2.3v-1.1h9V36.3z"/>
	<ellipse class="st5" cx="8.2" cy="35.1" rx="4.5" ry="2.3"/>
	<path class="st7" d="M10,33l-6.1,2.5c0.1,0.3,0.4,0.6,0.8,0.9l6.9-2.9C11.1,33.4,10.6,33.2,10,33z"/>
</g>
</svg>
