<svg xmlns="http://www.w3.org/2000/svg" viewBox="0 0 38 38">
  <defs>
    <style>
      .cls-1, .cls-2, .cls-3 {
        fill: none;
      }

      .cls-1, .cls-2 {
        stroke: #ea495c;
        stroke-miterlimit: 10;
        stroke-width: 1.5px;
      }

      .cls-1 {
        stroke-linecap: square;
      }
    </style>
  </defs>
  <g id="Refer_Earn_Side_Icon" data-name="Refer &amp; Earn Side Icon" transform="translate(13851 734)">
    <g id="multiple-19" transform="translate(-13850 -736)">
      <path id="Path_741" data-name="Path 741" class="cls-1" d="M38,14.8c0,2.651,2.149,5.867,4.8,5.867s4.8-3.215,4.8-5.867a4.8,4.8,0,1,0-9.6,0Z" transform="translate(-16.8 -0.933)"/>
      <path id="Path_742" data-name="Path 742" class="cls-2" d="M41.064,44.4h7.467V42.094a3.185,3.185,0,0,0-2-2.966,16.555,16.555,0,0,0-12.009,0,3.133,3.133,0,0,0-1.389,1.086" transform="translate(-14.531 -14)"/>
      <path id="Path_743" data-name="Path 743" class="cls-1" d="M22.267,48.533H2v-3A4.253,4.253,0,0,1,4.382,41.7,17.608,17.608,0,0,1,12.133,40a17.608,17.608,0,0,1,7.751,1.7,4.253,4.253,0,0,1,2.382,3.83Z" transform="translate(0 -14.933)"/>
      <path id="Path_744" data-name="Path 744" class="cls-1" d="M21.733,13.867c0,3.24-2.627,6.933-5.867,6.933S10,17.107,10,13.867a5.867,5.867,0,0,1,11.733,0Z" transform="translate(-3.733)"/>
    </g>
    <rect id="Rectangle_1638" data-name="Rectangle 1638" class="cls-3" width="38" height="38" transform="translate(-13851 -734)"/>
  </g>
</svg>
