<?xml version="1.0" encoding="utf-8"?>
<!-- Generator: Adobe Illustrator 22.1.0, SVG Export Plug-In . SVG Version: 6.00 Build 0)  -->
<svg version="1.1" id="Usage" xmlns="http://www.w3.org/2000/svg" xmlns:xlink="http://www.w3.org/1999/xlink" x="0px" y="0px"
	 viewBox="0 0 50 50" style="enable-background:new 0 0 50 50;" xml:space="preserve">
<style type="text/css">
	.st0{fill:#EA495C;}
	.st1{fill:#296633;}
	.st2{fill:#6CD883;}
	.st3{fill:#994110;}
	.st4{fill:#FFC85A;}
	.st5{fill:#287199;}
	.st6{fill:#91D9F2;}
</style>
<circle class="st0" cx="25" cy="25" r="22.5"/>
<g>
	<rect x="30.1" y="10.9" class="st1" width="5.6" height="24.8"/>
	<rect x="33.4" y="10.9" class="st2" width="6.8" height="24.8"/>
	<rect x="7.6" y="24.4" class="st3" width="7.9" height="11.3"/>
	<rect x="10.9" y="24.4" class="st4" width="6.8" height="11.3"/>
	<rect x="18.8" y="15.4" class="st5" width="7.9" height="20.3"/>
	<rect x="22.2" y="15.4" class="st6" width="6.8" height="20.3"/>
</g>
</svg>
