<svg xmlns="http://www.w3.org/2000/svg" viewBox="0 0 49.734 49.734">
  <defs>
    <style>
      .cls-1 {
        fill: none;
        stroke: #ea495c;
        stroke-linecap: round;
        stroke-linejoin: round;
        stroke-miterlimit: 10;
        stroke-width: 2px;
      }

      .cls-2 {
        fill: #ea495c;
      }
    </style>
  </defs>
  <g id="alert-circle-exc" transform="translate(-0.5 -0.5)">
    <circle id="Ellipse_155" data-name="Ellipse 155" class="cls-1" cx="23.867" cy="23.867" r="23.867" transform="translate(1.5 1.5)"/>
    <circle id="Ellipse_156" data-name="Ellipse 156" class="cls-2" cx="3.41" cy="3.41" r="3.41" transform="translate(21.957 33.891)"/>
    <line id="Line_326" data-name="Line 326" class="cls-1" y2="15.343" transform="translate(25.367 11.729)"/>
  </g>
</svg>
