<svg xmlns="http://www.w3.org/2000/svg" viewBox="0 0 47.516 48">
  <defs>
    <style>
      .cls-1 {
        fill: #0086ff;
      }

      .cls-2 {
        fill: #fff;
      }
    </style>
  </defs>
  <g id="logo-messenger" transform="translate(-0.242)">
    <path id="Path_738" data-name="Path 738" class="cls-1" d="M24,0C10.879,0,.242,9.947.242,22.216A21.667,21.667,0,0,0,9.068,39.5V48l8.108-4.5a25.291,25.291,0,0,0,6.824.93c13.121,0,23.758-9.947,23.758-22.217S37.121,0,24,0Zm2.5,29.792-6.145-6.384L8.524,29.953,21.5,16.185l6.145,6.384,11.834-6.544Z"/>
    <path id="Path_739" data-name="Path 739" class="cls-2" d="M26.5,29.792l-6.145-6.384L8.524,29.953,21.5,16.185l6.145,6.384,11.834-6.544Z"/>
  </g>
</svg>
