<?xml version="1.0" encoding="utf-8"?>
<!-- Generator: Adobe Illustrator 22.1.0, SVG Export Plug-In . SVG Version: 6.00 Build 0)  -->
<svg version="1.1" id="Layer_1" xmlns="http://www.w3.org/2000/svg" xmlns:xlink="http://www.w3.org/1999/xlink" x="0px" y="0px"
	 viewBox="0 0 200 150" style="enable-background:new 0 0 200 150;" xml:space="preserve">
<style type="text/css">
	.st0{fill:#0D143F;}
	.st1{fill:#242959;}
	.st2{fill:#7F7F7F;}
	.st3{fill:#999999;}
	.st4{fill:#E5A173;}
	.st5{fill:#FFC299;}
	.st6{fill:#FFFFFF;}
	.st7{fill:#724A22;}
	.st8{clip-path:url(#SVGID_2_);fill:#724A22;}
	.st9{fill:#591623;}
	.st10{fill:#666666;}
	.st11{fill:#4C4C4C;}
	.st12{fill:#CCCCCC;}
	.st13{fill:#394172;}
</style>
<g>
	<path class="st0" d="M91,122.1c-3.3,0-6-2.7-6-6s2.7-6,6-6c13.2,0,24-10.8,24-24c0-3.3,2.7-6,6-6s6,2.7,6,6
		C127,105.9,110.9,122.1,91,122.1z"/>
	<path class="st1" d="M169.2,134v-33c0-16.5-13.5-30-30-30h0c-16.5,0-30,13.5-30,30v33H169.2z"/>
	<polygon class="st2" points="40.2,126.5 92.7,126.5 71.7,84.5 19.2,84.5 	"/>
	
		<rect x="40.2" y="126.5" transform="matrix(-1 -1.224647e-16 1.224647e-16 -1 132.8333 260.4266)" class="st3" width="52.5" height="7.5"/>
	<path class="st4" d="M141.5,82L141.5,82c2.9-2.9,2.9-7.7,0-10.6l-5.3-5.3c-2.9-2.9-7.7-2.9-10.6,0l0,0c-2.9,2.9-2.9,7.7,0,10.6
		l5.3,5.3C133.8,84.9,138.6,84.9,141.5,82z"/>
	<g>
		<path class="st5" d="M151.2,57.5L151.2,57.5c3.3,0,6-2.7,6-6v0c0-3.3-2.7-6-6-6h0c-3.3,0-6,2.7-6,6v0
			C145.2,54.8,147.9,57.5,151.2,57.5z"/>
		<path class="st5" d="M128.7,77L128.7,77c12.4,0,22.5-10.1,22.5-22.5v-18c0-12.4-10.1-22.5-22.5-22.5h0
			c-12.4,0-22.5,10.1-22.5,22.5v18C106.2,66.9,116.3,77,128.7,77z"/>
		<path class="st6" d="M110.7,59.8c0,5.8,4.7,10.5,10.5,10.5c5.8,0,10.5-4.7,10.5-10.5H110.7z"/>
		<circle class="st7" cx="127.9" cy="46.3" r="3.8"/>
		<path class="st7" d="M143.7,24.3c-2.3-2.3-2.3-6.1,0-8.5l4.2,4.2L143.7,24.3z"/>
		<circle class="st7" cx="112.9" cy="46.3" r="3.8"/>
		<path class="st4" d="M119.7,57.5L119.7,57.5c1.7,0,3-1.3,3-3v-6c0-1.6-1.3-3-3-3h0c-1.7,0-3,1.3-3,3v6
			C116.7,56.2,118,57.5,119.7,57.5z"/>
		<path class="st7" d="M133.5,32c3.7,0,6.8-3,6.8-6.7v-3c0-3.7-3-6.7-6.8-6.7l-16.8,0c-2.5,0-4.5-2-4.5-4.5c-5,0-9,4-9,9v0v3v0
			c0,4.9,4,9,9,9H132"/>
		<path class="st7" d="M120.3,25.9l-6.4-6.4c4-3.4,9.1-5.5,14.7-5.5c12.4,0,22.5,10.1,22.5,22.5v15c-5,0-9-4-9-9v-6
			c0-7.4-6.1-13.5-13.5-13.5C125.5,23,122.6,24.1,120.3,25.9z"/>
		<g>
			<defs>
				<path id="SVGID_1_" d="M128.7,77L128.7,77c12.4,0,22.5-10.1,22.5-22.5v-18c0-12.4-10.1-22.5-22.5-22.5h0
					c-12.4,0-22.5,10.1-22.5,22.5v18C106.2,66.9,116.3,77,128.7,77z"/>
			</defs>
			<clipPath id="SVGID_2_">
				<use xlink:href="#SVGID_1_"  style="overflow:visible;"/>
			</clipPath>
			<circle class="st8" cx="106.2" cy="30.5" r="4.5"/>
		</g>
		<circle class="st6" cx="126.4" cy="44.8" r="1.5"/>
		<circle class="st6" cx="111.4" cy="44.8" r="1.5"/>
		<path class="st9" d="M131.2,62.8c-1.3,4.3-5.3,7.5-10.1,7.5c-4.8,0-8.8-3.2-10.1-7.5H131.2z"/>
	</g>
	<circle class="st5" cx="109" cy="119" r="10.5"/>
	<ellipse class="st10" cx="55.9" cy="105.5" rx="6" ry="4.5"/>
	<path class="st11" d="M44.7,132.5c-1.2,0-2.3-1-2.3-2.3s1-2.3,2.3-2.3s2.3,1,2.3,2.3S45.9,132.5,44.7,132.5z M44.7,129.5
		c-0.4,0-0.8,0.3-0.8,0.8s0.3,0.8,0.8,0.8s0.8-0.3,0.8-0.8S45.1,129.5,44.7,129.5z"/>
	<path class="st11" d="M50.7,132.5c-1.2,0-2.3-1-2.3-2.3s1-2.3,2.3-2.3s2.3,1,2.3,2.3S51.9,132.5,50.7,132.5z M50.7,129.5
		c-0.4,0-0.8,0.3-0.8,0.8s0.3,0.8,0.8,0.8s0.8-0.3,0.8-0.8S51.1,129.5,50.7,129.5z"/>
	<polygon class="st3" points="26.7,81.5 79.2,81.5 71.7,84.5 19.2,84.5 	"/>
	
		<rect x="92.7" y="126.5" transform="matrix(-1 -1.224647e-16 1.224647e-16 -1 215.3333 260.4266)" class="st12" width="30" height="7.5"/>
	<polygon class="st12" points="101.7,126.5 79.2,81.5 71.7,84.5 92.7,126.5 	"/>
	
		<rect x="25.2" y="134" transform="matrix(-1 -1.224647e-16 1.224647e-16 -1 209.3333 275.4266)" class="st7" width="159" height="7.5"/>
	<path class="st13" d="M139.7,137.1c-8.6,0-16.8-3.4-22.9-9.5c-2.3-2.3-2.3-6.1,0-8.5c2.3-2.3,6.1-2.3,8.5,0c3.8,3.8,9,6,14.4,6
		s10.6-2.1,14.4-6c7.9-7.9,7.9-20.9,0-28.8c-2.3-2.3-2.3-6.1,0-8.5c2.3-2.3,6.1-2.3,8.5,0c12.6,12.6,12.6,33.1,0,45.8
		C156.5,133.7,148.3,137.1,139.7,137.1z"/>
</g>
</svg>
