<svg xmlns="http://www.w3.org/2000/svg" viewBox="16781 -7072 148 148">
  <defs>
    <style>
      .cls-1 {
        fill: none;
      }

      .cls-2 {
        fill: #62c6f2;
      }
    </style>
  </defs>
  <g id="ic_store_black_24px" transform="translate(16781 -7072)">
    <path id="Path_239" data-name="Path 239" class="cls-1" d="M0,0H148V148H0Z"/>
    <path id="Path_240" data-name="Path 240" class="cls-2" d="M107.833,4H9.167V16.333h98.667ZM114,65.667V53.333L107.833,22.5H9.167L3,53.333V65.667H9.167v37H70.833v-37H95.5v37h12.333v-37ZM58.5,90.333h-37V65.667h37Z" transform="translate(15.5 20.667)"/>
  </g>
</svg>
