<svg xmlns="http://www.w3.org/2000/svg" viewBox="11542 -7058 148 148">
  <defs>
    <style>
      .cls-1 {
        fill: none;
      }

      .cls-2 {
        fill: #62c6f2;
      }
    </style>
  </defs>
  <g id="ic_flash_on_black_24px" transform="translate(11542 -7058)">
    <path id="Path_229" data-name="Path 229" class="cls-1" d="M0,0H148V148H0Z"/>
    <path id="Path_230" data-name="Path 230" class="cls-2" d="M7,2V69.833H25.5v55.5l43.167-74H44L68.667,2Z" transform="translate(36.167 10.333)"/>
  </g>
</svg>
