<svg xmlns="http://www.w3.org/2000/svg" viewBox="10161 -7073.788 148 148">
  <defs>
    <style>
      .cls-1 {
        fill: none;
      }

      .cls-2 {
        fill: #62c6f2;
      }
    </style>
  </defs>
  <g id="ic_tv_black_24px" transform="translate(10161 -7073.788)">
    <path id="Path_219" data-name="Path 219" class="cls-1" d="M0,0H148V148H0Z"/>
    <path id="Path_220" data-name="Path 220" class="cls-2" d="M124.333,3h-111A12.37,12.37,0,0,0,1,15.333v74a12.37,12.37,0,0,0,12.333,12.333H44.167V114H93.5V101.667h30.833A12.317,12.317,0,0,0,136.6,89.333l.062-74A12.37,12.37,0,0,0,124.333,3Zm0,86.333h-111v-74h111Z" transform="translate(5.167 15.5)"/>
  </g>
</svg>
