<svg xmlns="http://www.w3.org/2000/svg" viewBox="0 0 33.34 38.238">
  <defs>
    <style>
      .cls-1 {
        fill: none;
        stroke: #ea495c;
        stroke-linecap: round;
        stroke-linejoin: round;
        stroke-miterlimit: 10;
        stroke-width: 1.5px;
      }
    </style>
  </defs>
  <g id="single-copy-04" transform="translate(0.75 0.75)">
    <rect id="Rectangle_1625" data-name="Rectangle 1625" class="cls-1" width="26.941" height="31.84" transform="translate(0 4.898)"/>
    <line id="Line_323" data-name="Line 323" class="cls-1" x2="14.695" transform="translate(6.123 13.471)"/>
    <line id="Line_324" data-name="Line 324" class="cls-1" x2="14.695" transform="translate(6.123 20.818)"/>
    <line id="Line_325" data-name="Line 325" class="cls-1" x2="4.898" transform="translate(6.123 28.166)"/>
    <path id="Path_735" data-name="Path 735" class="cls-1" d="M6,1H34.166V34.064" transform="translate(-2.326 -1)"/>
  </g>
</svg>
