<svg xmlns="http://www.w3.org/2000/svg" viewBox="0 0 153.869 125.235">
  <defs>
    <style>
      .cls-1 {
        fill: #ea495c;
      }
    </style>
  </defs>
  <g id="headset" transform="translate(-0.001 0)">
    <g id="Group_4552" data-name="Group 4552" transform="translate(0 0)">
      <path id="Path_2801" data-name="Path 2801" class="cls-1" d="M169.815,125.423h-2.654C157.126,100.539,135.2,83.23,109.829,83.23S62.543,100.539,52.5,125.423H49.843a9.987,9.987,0,0,0-9.992,9.992v34.908a9.987,9.987,0,0,0,9.992,9.993h6.9l29.687,24.3H98.3v.516a3.34,3.34,0,0,0,3.331,3.331h15.784a3.35,3.35,0,0,0,3.341-3.331v-5.823A3.331,3.331,0,0,0,117.415,196H101.631a3.322,3.322,0,0,0-3.331,3.309v.516H88.147L63.274,179.489a9.988,9.988,0,0,0,6.038-9.165V135.415a10,10,0,0,0-7.865-9.756c9.252-20.263,27.463-34.1,48.382-34.1,20.941,0,39.153,13.839,48.393,34.1a10,10,0,0,0-7.865,9.756v34.908a9.994,9.994,0,0,0,9.928,9.993h9.53a9.98,9.98,0,0,0,9.993-9.993V135.415A9.98,9.98,0,0,0,169.815,125.423Z" transform="translate(-32.996 -83.23)"/>
      <path id="Path_2802" data-name="Path 2802" class="cls-1" d="M870.2,422.775a2.291,2.291,0,0,0-2.289,2.289v19.673a2.289,2.289,0,1,0,4.577,0V425.064A2.3,2.3,0,0,0,870.2,422.775Z" transform="translate(-718.623 -364.369)"/>
      <path id="Path_2803" data-name="Path 2803" class="cls-1" d="M2.278,422.775A2.281,2.281,0,0,0,0,425.064v19.673a2.289,2.289,0,1,0,4.577,0V425.064A2.3,2.3,0,0,0,2.278,422.775Z" transform="translate(0 -364.369)"/>
    </g>
  </g>
</svg>
