<svg id="Call" xmlns="http://www.w3.org/2000/svg" viewBox="0 0 142.484 142.484">
  <defs>
    <style>
      .cls-1, .cls-2 {
        fill: none;
      }

      .cls-2 {
        stroke: #ff5858;
        stroke-linecap: round;
        stroke-linejoin: round;
        stroke-miterlimit: 10;
        stroke-width: 3px;
      }
    </style>
  </defs>
  <rect id="Rectangle_1481" data-name="Rectangle 1481" class="cls-1" width="142.484" height="142.484" transform="translate(0)"/>
  <g id="phone-2-2" transform="translate(30 29)">
    <path id="Path_564" data-name="Path 564" class="cls-2" d="M61.836,51.43,50.43,62.836,20.011,32.418,31.418,21.011,12.407,2,1,13.407A68.441,68.441,0,0,0,69.441,81.848L80.848,70.441Z"/>
  </g>
</svg>
