<svg id="Group_2744" data-name="Group 2744" xmlns="http://www.w3.org/2000/svg" viewBox="0 0 60.575 54.124">
  <defs>
    <style>
      .cls-1, .cls-2 {
        fill: none;
      }

      .cls-2 {
        stroke: #000;
        stroke-linecap: round;
        stroke-linejoin: round;
        stroke-miterlimit: 10;
        stroke-width: 2px;
      }
    </style>
  </defs>
  <g id="Group_2106" data-name="Group 2106" transform="translate(0 0)">
    <rect id="Rectangle_1293" data-name="Rectangle 1293" class="cls-1" width="60.575" height="54.124"/>
  </g>
  <g id="Payments" transform="translate(7.572 6.765)">
    <path id="Path_628" data-name="Path 628" class="cls-2" d="M10.851,3H4.94A3.747,3.747,0,0,0,1,6.521H1a3.747,3.747,0,0,0,3.94,3.521" transform="translate(-1 0.521)"/>
    <path id="Path_629" data-name="Path 629" class="cls-2" d="M6,11.562V1H33.582V11.562" transform="translate(3.851 -1)"/>
    <path id="Path_630" data-name="Path 630" class="cls-2" d="M44.343,8.521H4.94A3.747,3.747,0,0,1,1,5V31.405c0,2.917,2.646,5.281,5.91,5.281H44.343Z" transform="translate(-1 2.041)"/>
    <ellipse id="Ellipse_142" data-name="Ellipse 142" class="cls-2" cx="3.94" cy="3.521" rx="3.94" ry="3.521" transform="translate(27.582 21.124)"/>
  </g>
</svg>
