<svg id="Group_95" data-name="Group 95" xmlns="http://www.w3.org/2000/svg" viewBox="-834 -600 4 5">
  <defs>
    <style>
      .cls-1 {
        fill: #fff;
      }

      .cls-2 {
        fill: #343a40;
      }
    </style>
  </defs>
  <rect id="Rectangle_498" data-name="Rectangle 498" class="cls-1" width="4" height="5" transform="translate(-834 -600)"/>
  <path id="index" class="cls-2" d="M2,0,0,2H4ZM2,5,0,3H4Z" transform="translate(-834 -600)"/>
</svg>
