<svg xmlns="http://www.w3.org/2000/svg" viewBox="761 -14410 93 96">
  <defs>
    <style>
      .cls-1, .cls-2 {
        fill: none;
      }

      .cls-1 {
        stroke: #7579ff;
        stroke-linecap: round;
        stroke-linejoin: round;
        stroke-miterlimit: 10;
        stroke-width: 4px;
      }
    </style>
  </defs>
  <g id="Back_Button" data-name="Back Button" transform="translate(509 -15022)">
    <g id="Back-1" transform="translate(271 638)">
      <line id="Line_228" data-name="Line 228" class="cls-1" x1="51.341" transform="translate(2 22.969)"/>
      <path id="Path_578" data-name="Path 578" class="cls-1" d="M19.969,40.939,2,22.969,19.969,5" transform="translate(0)"/>
    </g>
    <rect id="Rectangle_1505" data-name="Rectangle 1505" class="cls-2" width="93" height="96" transform="translate(252 612)"/>
  </g>
</svg>
