<svg xmlns="http://www.w3.org/2000/svg" xmlns:xlink="http://www.w3.org/1999/xlink" viewBox="9573 -5759 1920 592">
  <defs>
    <style>
      .cls-1 {
        fill: none;
      }

      .cls-2 {
        clip-path: url(#clip-path);
      }

      .cls-3 {
        stroke: #707070;
        fill: url(#linear-gradient);
      }

      .cls-4 {
        fill: #f5f9fc;
      }

      .cls-5 {
        opacity: 0.24;
      }

      .cls-6 {
        fill: #fff;
      }

      .cls-7 {
        stroke: none;
      }
    </style>
    <clipPath id="clip-path">
      <rect id="Rectangle_1404" data-name="Rectangle 1404" class="cls-1" width="1920" height="592" transform="translate(9269 -5749)"/>
    </clipPath>
    <linearGradient id="linear-gradient" x1="0.546" y1="1.107" x2="0.711" y2="-0.045" gradientUnits="objectBoundingBox">
      <stop offset="0" stop-color="#ff5858"/>
      <stop offset="1" stop-color="#ee4392"/>
    </linearGradient>
  </defs>
  <g id="Top_Header_Cus" data-name="Top Header Cus" class="cls-2" transform="translate(304 -10)">
    <g id="Rectangle_1403" data-name="Rectangle 1403" class="cls-3" transform="translate(9269 -5749)">
      <rect class="cls-7" width="1920" height="575"/>
      <rect class="cls-1" x="0.5" y="0.5" width="1919" height="574"/>
    </g>
    <g id="Group_2291" data-name="Group 2291" transform="translate(9269 -5738)">
      <g id="_3_Wave" data-name="3 Wave" transform="translate(0 237)">
        <g id="Layer_1" data-name="Layer 1">
          <path id="Path_6" data-name="Path 6" class="cls-4" d="M1920,0c-104.39,57.44-188.83,146.78-360.29,184-252.42,54.79-311.81-86.25-626.45-53.75C613.2,163.31,556.67,321.44,296.6,312.07,177,307.75,75.46,270.19,0,230.39v145.4H1920Z"/>
        </g>
      </g>
      <g id="_3_Wave-2" data-name="3 Wave" class="cls-5" transform="translate(0 87)">
        <g id="Layer_1-2" data-name="Layer 1">
          <path id="Path_6-2" data-name="Path 6" class="cls-6" d="M1920,0c-104.39,80.347-188.83,205.316-360.29,257.379-252.42,76.64-311.81-120.646-626.45-75.185C613.2,228.438,556.67,449.63,296.6,436.523,177,430.48,75.46,377.941,0,322.269V525.655H1920Z"/>
        </g>
      </g>
      <g id="_3_Wave-3" data-name="3 Wave" class="cls-5" transform="translate(0 -58.532)">
        <g id="Layer_1-3" data-name="Layer 1">
          <path id="Path_6-3" data-name="Path 6" class="cls-6" d="M1920,0c-104.39,99.076-188.83,253.176-360.29,317.375-252.42,94.505-311.81-148.77-626.45-92.711C613.2,281.688,556.67,554.44,296.6,538.278,177,530.827,75.46,466.041,0,397.391v250.8H1920Z"/>
        </g>
      </g>
    </g>
  </g>
</svg>
