<svg xmlns="http://www.w3.org/2000/svg" viewBox="7915 -18464.309 36.309 36.309">
  <defs>
    <style>
      .cls-1 {
        fill: none;
      }

      .cls-2 {
        fill: #ea495c;
      }
    </style>
  </defs>
  <g id="ic_today_black_24px_1_" data-name="ic_today_black_24px (1)" transform="translate(7915 -18464.309)">
    <path id="Path_401" data-name="Path 401" class="cls-1" d="M0,0H36.309V36.309H0Z"/>
    <path id="Path_402" data-name="Path 402" class="cls-2" d="M27.206,4.026H25.693V1H22.667V4.026h-12.1V1H7.539V4.026H6.026A3.012,3.012,0,0,0,3.015,7.052L3,28.232a3.025,3.025,0,0,0,3.026,3.026h21.18a3.035,3.035,0,0,0,3.026-3.026V7.052A3.035,3.035,0,0,0,27.206,4.026Zm0,24.206H6.026V11.59h21.18ZM9.052,14.616h7.564V22.18H9.052Z" transform="translate(1.539 0.513)"/>
  </g>
</svg>
