<svg xmlns="http://www.w3.org/2000/svg" viewBox="0 0 530.8 65.2">
  <defs>
    <style>
      .cls-1 {
        fill: #fff;
      }
    </style>
  </defs>
  <path id="Path_727" data-name="Path 727" class="cls-1" d="M-212.85-26.2a27.514,27.514,0,0,1-.2,2.9h-43a16.643,16.643,0,0,0,6.15,11.25A20.07,20.07,0,0,0-236.85-7.8q9.5,0,15.3-6.4l5.3,6.2a23.215,23.215,0,0,1-8.95,6.4A31.151,31.151,0,0,1-237.15.6a31.3,31.3,0,0,1-14.9-3.45A24.606,24.606,0,0,1-262.1-12.5a27.667,27.667,0,0,1-3.55-14,28.1,28.1,0,0,1,3.45-13.9,24.715,24.715,0,0,1,9.5-9.65,27.062,27.062,0,0,1,13.65-3.45,26.515,26.515,0,0,1,13.55,3.45,24.227,24.227,0,0,1,9.3,9.65A29.4,29.4,0,0,1-212.85-26.2Zm-26.2-19.2a16.592,16.592,0,0,0-11.55,4.2,16.932,16.932,0,0,0-5.45,11h34a17.044,17.044,0,0,0-5.45-10.95A16.477,16.477,0,0,0-239.05-45.4Zm85.4-7.6-23.2,53h-9.8l-23.2-53h10l18.2,42.5,18.6-42.5Zm55.4,26.8a27.514,27.514,0,0,1-.2,2.9h-43a16.643,16.643,0,0,0,6.15,11.25A20.07,20.07,0,0,0-122.25-7.8q9.5,0,15.3-6.4l5.3,6.2a23.215,23.215,0,0,1-8.95,6.4A31.151,31.151,0,0,1-122.55.6a31.3,31.3,0,0,1-14.9-3.45A24.606,24.606,0,0,1-147.5-12.5a27.667,27.667,0,0,1-3.55-14,28.1,28.1,0,0,1,3.45-13.9,24.715,24.715,0,0,1,9.5-9.65,27.062,27.062,0,0,1,13.65-3.45,26.515,26.515,0,0,1,13.55,3.45,24.227,24.227,0,0,1,9.3,9.65A29.4,29.4,0,0,1-98.25-26.2Zm-26.2-19.2A16.592,16.592,0,0,0-136-41.2a16.932,16.932,0,0,0-5.45,11h34a17.044,17.044,0,0,0-5.45-10.95A16.477,16.477,0,0,0-124.45-45.4Zm48.7,1.3a16.379,16.379,0,0,1,7.4-7,26.858,26.858,0,0,1,11.9-2.4v9.3a18.742,18.742,0,0,0-2.2-.1q-7.8,0-12.25,4.65T-75.35-26.4V0h-9.6V-53h9.2ZM-29.05.6a44.415,44.415,0,0,1-12.5-1.75,27.448,27.448,0,0,1-9.4-4.45l4-7.6a28.711,28.711,0,0,0,8.5,4,34.976,34.976,0,0,0,10.1,1.5q12.6,0,12.6-7.2a4.663,4.663,0,0,0-1.7-3.8,10.763,10.763,0,0,0-4.25-2.05q-2.55-.65-7.25-1.45A71.049,71.049,0,0,1-39.4-24.5a16.106,16.106,0,0,1-6.95-4.4q-2.9-3.1-2.9-8.7a13.588,13.588,0,0,1,6-11.55q6-4.35,16.1-4.35a44.353,44.353,0,0,1,10.6,1.3,28.507,28.507,0,0,1,8.7,3.5l-4.1,7.6a27.566,27.566,0,0,0-15.3-4.2q-6.1,0-9.3,2a6.035,6.035,0,0,0-3.2,5.3,5.053,5.053,0,0,0,1.8,4.1,11.382,11.382,0,0,0,4.45,2.2q2.65.7,7.45,1.6A80.856,80.856,0,0,1-15.7-27.75,15.456,15.456,0,0,1-8.95-23.5q2.8,3,2.8,8.4A13.246,13.246,0,0,1-12.3-3.65Q-18.45.6-29.05.6ZM72.15-53.5q10,0,15.85,5.8t5.85,17.2V0h-9.6V-29.4q0-7.7-3.55-11.6T70.55-44.9q-7.3,0-11.6,4.55T54.65-27.3V0h-9.6V-29.4q0-7.7-3.55-11.6T31.35-44.9q-7.3,0-11.6,4.55T15.45-27.3V0H5.85V-53h9.2v7.9a18.6,18.6,0,0,1,7.6-6.25,25.452,25.452,0,0,1,10.7-2.15,23.467,23.467,0,0,1,11,2.5,17.374,17.374,0,0,1,7.4,7.3,20.305,20.305,0,0,1,8.35-7.2A27.212,27.212,0,0,1,72.15-53.5Zm58.7,0q11,0,16.85,5.4T153.55-32V0h-9.1V-7a15.173,15.173,0,0,1-6.85,5.65A26.143,26.143,0,0,1,127.05.6q-8.9,0-14.25-4.3A13.794,13.794,0,0,1,107.45-15a13.917,13.917,0,0,1,5.1-11.25q5.1-4.25,16.2-4.25h15.2v-1.9q0-6.2-3.6-9.5t-10.6-3.3a28.063,28.063,0,0,0-9.2,1.55,23.7,23.7,0,0,0-7.6,4.15l-4-7.2a29.026,29.026,0,0,1,9.8-5.05A41.007,41.007,0,0,1,130.85-53.5Zm-2.2,46.7a17.832,17.832,0,0,0,9.5-2.45,14.02,14.02,0,0,0,5.8-6.95v-7.4h-14.8q-12.2,0-12.2,8.2a7.42,7.42,0,0,0,3.1,6.3Q123.15-6.8,128.65-6.8Zm51.9-37.3a16.379,16.379,0,0,1,7.4-7,26.858,26.858,0,0,1,11.9-2.4v9.3a18.742,18.742,0,0,0-2.2-.1q-7.8,0-12.25,4.65T180.95-26.4V0h-9.6V-53h9.2Zm63.1,41a14.323,14.323,0,0,1-5.2,2.75,21.72,21.72,0,0,1-6.4.95q-8,0-12.4-4.3T215.25-16V-45.1h-9V-53h9V-64.6h9.6V-53h15.2v7.9h-15.2v28.7q0,4.3,2.15,6.6a8.008,8.008,0,0,0,6.15,2.3,11.569,11.569,0,0,0,7.5-2.5ZM258.55.6a6.631,6.631,0,0,1-4.8-1.95,6.619,6.619,0,0,1-2-4.95,6.5,6.5,0,0,1,2-4.85,6.631,6.631,0,0,1,4.8-1.95,6.384,6.384,0,0,1,4.7,1.9,6.632,6.632,0,0,1,1.9,4.9,6.707,6.707,0,0,1-1.95,4.95A6.348,6.348,0,0,1,258.55.6Z" transform="translate(265.65 64.6)"/>
</svg>
