<svg xmlns="http://www.w3.org/2000/svg" viewBox="0 0 49.69 36.973">
  <defs>
    <style>
      .cls-1 {
        fill: #fff;
      }
    </style>
  </defs>
  <g id="Menu_item" data-name="Menu item" transform="translate(-34.478 -24.14)">
    <rect id="Rectangle_2369" data-name="Rectangle 2369" class="cls-1" width="49.691" height="9.196" rx="4.598" transform="translate(34.478 38.028)"/>
    <rect id="Rectangle_2370" data-name="Rectangle 2370" class="cls-1" width="49.691" height="9.196" rx="4.598" transform="translate(34.478 51.916)"/>
    <rect id="Rectangle_2371" data-name="Rectangle 2371" class="cls-1" width="49.691" height="9.196" rx="4.598" transform="translate(34.478 24.14)"/>
  </g>
</svg>
