<svg xmlns="http://www.w3.org/2000/svg" viewBox="0 0 87.364 79.968">
  <defs>
    <style>
      .cls-1 {
        fill: none;
        stroke: #ea495c;
        stroke-linecap: round;
        stroke-linejoin: round;
        stroke-miterlimit: 10;
        stroke-width: 6px;
      }
    </style>
  </defs>
  <g id="Complaints" transform="translate(3 3)">
    <path id="Path_568" data-name="Path 568" class="cls-1" d="M72.748,56.736c5.917-5.917,9.616-13.314,9.616-21.451C82.364,16.793,64.242,2,41.682,2S1,16.793,1,35.285,19.122,68.571,41.682,68.571a39.019,39.019,0,0,0,11.465-1.479l21.82,8.876Z" transform="translate(-1 -2)"/>
    <line id="Line_222" data-name="Line 222" class="cls-1" x2="29.587" transform="translate(25.889 25.889)"/>
    <line id="Line_223" data-name="Line 223" class="cls-1" x2="18.492" transform="translate(25.889 40.682)"/>
  </g>
</svg>
