<svg xmlns="http://www.w3.org/2000/svg" xmlns:xlink="http://www.w3.org/1999/xlink" viewBox="0 0 1920 382">
  <defs>
    <style>
      .cls-1 {
        fill: none;
      }

      .cls-2 {
        clip-path: url(#clip-path);
      }

      .cls-3 {
        fill: #ea495c;
      }

      .cls-4 {
        clip-path: url(#clip-path-2);
      }

      .cls-5 {
        clip-path: url(#clip-path-3);
      }

      .cls-6 {
        fill: #f5f9fc;
      }
    </style>
    <clipPath id="clip-path">
      <rect id="Rectangle_1441" data-name="Rectangle 1441" class="cls-1" width="1920" height="382" transform="translate(-17720 -18631)"/>
    </clipPath>
    <clipPath id="clip-path-2">
      <rect id="Rectangle_5" data-name="Rectangle 5" class="cls-1" width="1920" height="1220" transform="translate(204.34 1232.03)"/>
    </clipPath>
    <clipPath id="clip-path-3">
      <rect id="Rectangle_4" data-name="Rectangle 4" class="cls-1" width="3346" height="279.65" transform="translate(3446.34 1507.8) rotate(180)"/>
    </clipPath>
  </defs>
  <g id="Top_Shape1" data-name="Top Shape1" class="cls-2" transform="translate(17720 18631)">
    <rect id="Rectangle_1692" data-name="Rectangle 1692" class="cls-3" width="1920" height="391" transform="translate(-17720 -18631)"/>
    <g id="homepage_top_shape" data-name="homepage top shape" transform="translate(-17720 -20666)">
      <g id="Inverse_3" data-name="Inverse 3" transform="translate(-204.34 793.97)">
        <g id="Layer_1" data-name="Layer 1">
          <g id="Group_5" data-name="Group 5" class="cls-4">
            <g id="Group_4" data-name="Group 4" class="cls-5">
              <path id="Path_3" data-name="Path 3" class="cls-6" d="M3483,1121.73c-100.33,16.78-145.33-40.45-320.62-41.8-313.2-2.42-387.79,178.58-729.5,235.9-326.61,54.79-403.45-86.25-810.56-53.75-414.12,33.06-487.26,191.19-823.76,181.82-313.79-8.74-531.24-154.07-566.79-177.83-343.54-229.61-270.25-623.36-7.2-852C869-146.17,3111-113.87,3625.26,366.27,3904,626.51,3739.95,1078.76,3483,1121.73Z"/>
            </g>
          </g>
        </g>
      </g>
    </g>
  </g>
</svg>
