<svg id="Asset_4" data-name="Asset 4" xmlns="http://www.w3.org/2000/svg" viewBox="0 0 1920 401.39">
  <defs>
    <style>
      .cls-1 {
        fill: #ea495c;
      }

      .cls-2 {
        fill: #f5f9fc;
      }
    </style>
  </defs>
  <rect id="Rectangle_8" data-name="Rectangle 8" class="cls-1" width="1920" height="401"/>
  <g id="Layer_1" data-name="Layer 1">
    <path id="Path_1" data-name="Path 1" class="cls-2" d="M960,207.37C589.91,207.37,252.87,128.78,0,0V401.39H1920V0C1667.13,128.78,1330.09,207.37,960,207.37Z"/>
  </g>
</svg>
