<svg xmlns="http://www.w3.org/2000/svg" xmlns:xlink="http://www.w3.org/1999/xlink" viewBox="6591 120 1440 540">
  <defs>
    <style>
      .cls-1 {
        fill: none;
      }

      .cls-2 {
        clip-path: url(#clip-path);
      }

      .cls-3 {
        fill: #62c6f2;
      }
    </style>
    <clipPath id="clip-path">
      <rect id="Rectangle_996" data-name="Rectangle 996" class="cls-1" width="1440" height="540"/>
    </clipPath>
  </defs>
  <g id="Mask_Group_7" data-name="Mask Group 7" class="cls-2" transform="translate(6591 120)">
    <circle id="Ellipse_6" data-name="Ellipse 6" class="cls-3" cx="3243" cy="3243" r="3243" transform="translate(-2523 -5960)"/>
  </g>
</svg>
