<svg xmlns="http://www.w3.org/2000/svg" viewBox="-665 -17899 100 100">
  <defs>
    <style>
      .cls-1, .cls-2 {
        fill: none;
      }

      .cls-1 {
        stroke: #fff;
        stroke-linecap: square;
        stroke-miterlimit: 10;
        stroke-width: 4px;
      }
    </style>
  </defs>
  <g id="check-Done" transform="translate(-2000 -22583)">
    <g id="check-Done-2" data-name="check-Done" transform="translate(1344 4703)">
      <path id="Path_616" data-name="Path 616" class="cls-1" d="M2,29.4,29.3,56.7,80,6" transform="translate(0 0)"/>
    </g>
    <rect id="Rectangle_1390" data-name="Rectangle 1390" class="cls-2" width="100" height="100" transform="translate(1335 4684)"/>
  </g>
</svg>
