<svg xmlns="http://www.w3.org/2000/svg" viewBox="1195.5 4440.5 38.095 37.122">
  <defs>
    <style>
      .cls-1, .cls-2 {
        fill: none;
        stroke: #fff;
        stroke-miterlimit: 10;
        stroke-width: 3px;
      }

      .cls-2 {
        stroke-linecap: square;
      }
    </style>
  </defs>
  <g id="cloud-download-93" transform="translate(1196 4441)">
    <line id="Line_254" data-name="Line 254" class="cls-1" y2="20.738" transform="translate(18.548 13.762)"/>
    <path id="Path_607" data-name="Path 607" class="cls-2" d="M18.571,19l-4.786,4.786L9,19" transform="translate(4.762 10.714)"/>
    <path id="Path_608" data-name="Path 608" class="cls-2" d="M26.524,24.929h3.19a6.379,6.379,0,1,0-.04-12.757,11.949,11.949,0,0,0-23.86.212A6.369,6.369,0,0,0,7.381,24.929h3.19"/>
  </g>
</svg>
