<svg xmlns="http://www.w3.org/2000/svg" viewBox="11430 -341 100 100">
  <defs>
    <style>
      .cls-1, .cls-2 {
        fill: none;
      }

      .cls-1 {
        stroke: #12cfff;
        stroke-linecap: round;
        stroke-linejoin: round;
        stroke-miterlimit: 10;
        stroke-width: 4px;
      }
    </style>
  </defs>
  <g id="Switching" transform="translate(10944 -4656)">
    <g id="Switching-2" data-name="Switching" transform="translate(504 4332.3)">
      <path id="Path_649" data-name="Path 649" class="cls-1" d="M2,32.357A30.446,30.446,0,0,1,32.357,2,29.858,29.858,0,0,1,59.375,18.7" transform="translate(0 0.611)"/>
      <path id="Path_650" data-name="Path 650" class="cls-1" d="M60.475,12A30.446,30.446,0,0,1,30.118,42.357,29.858,29.858,0,0,1,3.1,25.661" transform="translate(2.239 20.968)"/>
      <path id="Path_651" data-name="Path 651" class="cls-1" d="M35.643,1.7,33.214,19.611,15,17.182" transform="translate(26.464)"/>
      <path id="Path_652" data-name="Path 652" class="cls-1" d="M2.2,34.311,4.629,16.4l18.214,2.429" transform="translate(0.407 29.925)"/>
    </g>
    <rect id="Rectangle_1460" data-name="Rectangle 1460" class="cls-2" width="100" height="100" transform="translate(486 4315)"/>
  </g>
</svg>
