<svg xmlns="http://www.w3.org/2000/svg" xmlns:xlink="http://www.w3.org/1999/xlink" viewBox="6591 2968 1440 211">
  <defs>
    <style>
      .cls-1 {
        fill: none;
      }

      .cls-2 {
        clip-path: url(#clip-path);
      }

      .cls-3 {
        fill: #62c6f2;
      }

      .cls-4 {
        filter: url(#Ellipse_73);
      }
    </style>
    <clipPath id="clip-path">
      <rect id="Rectangle_998" data-name="Rectangle 998" class="cls-1" width="1440" height="211" transform="translate(0 2848)"/>
    </clipPath>
    <filter id="Ellipse_73" x="4200.63" y="1669.012" width="6792.817" height="1668.565" filterUnits="userSpaceOnUse">
      <feOffset dy="10" input="SourceAlpha"/>
      <feGaussianBlur stdDeviation="5" result="blur"/>
      <feFlood flood-opacity="0.161"/>
      <feComposite operator="in" in2="blur"/>
      <feComposite in="SourceGraphic"/>
    </filter>
  </defs>
  <g id="Mask_Group_10" data-name="Mask Group 10" class="cls-2" transform="translate(6591 120)">
    <g class="cls-4" transform="matrix(1, 0, 0, 1, -6591, -120)">
      <ellipse id="Ellipse_73-2" data-name="Ellipse 73" class="cls-3" cx="3348" cy="529.5" rx="3348" ry="529.5" transform="translate(4215.63 2257.61) rotate(-5)"/>
    </g>
  </g>
</svg>
