<svg xmlns="http://www.w3.org/2000/svg" viewBox="421 -4013 74.537 75">
  <defs>
    <style>
      .cls-1 {
        fill: #0084ff;
      }
    </style>
  </defs>
  <path id="facebookMessenger" class="cls-1" d="M133.269,93C112.686,93,96,108.546,96,127.722a33.825,33.825,0,0,0,13.889,27.039V168l12.69-7.008a39.812,39.812,0,0,0,10.69,1.452c20.583,0,37.269-15.546,37.269-34.722S153.851,93,133.269,93Zm3.7,46.759-9.491-10.185-18.519,10.185L129.333,118l9.722,10.185L157.343,118Z" transform="translate(325 -4106)"/>
</svg>
