<svg xmlns="http://www.w3.org/2000/svg" viewBox="7895.5 -17089.133 30.161 27.691">
  <defs>
    <style>
      .cls-1 {
        fill: none;
        stroke: #111;
        stroke-linecap: round;
        stroke-linejoin: round;
        stroke-miterlimit: 10;
        stroke-width: 3px;
      }
    </style>
  </defs>
  <g id="Complaints" transform="translate(7896 -17089.633)">
    <path id="Path_568" data-name="Path 568" class="cls-1" d="M24.951,20.272a10.142,10.142,0,0,0,3.21-7.161C28.161,6.938,22.111,2,14.58,2S1,6.938,1,13.111,7.049,24.222,14.58,24.222a13.025,13.025,0,0,0,3.827-.494l7.284,2.963Z"/>
    <line id="Line_222" data-name="Line 222" class="cls-1" x2="9.877" transform="translate(9.642 10.642)"/>
    <line id="Line_223" data-name="Line 223" class="cls-1" x2="6.173" transform="translate(9.642 15.58)"/>
  </g>
</svg>
