<svg xmlns="http://www.w3.org/2000/svg" viewBox="-8423.704 -757.332 113.496 122.271">
  <defs>
    <style>
      .cls-1 {
        fill: #ea495c;
      }
    </style>
  </defs>
  <path id="Path_443" data-name="Path 443" class="cls-1" d="M162.375,489.95H86.906V477.664h75.469Zm0-24.571H86.906V453.093h75.469Zm0-24.571H86.906V428.522h75.469ZM67.6,520.371l9.36-9.361,9.36,9.361,9.36-9.361,9.36,9.361,9.361-9.361,9.361,9.361,9.36-9.361,9.36,9.361,9.361-9.361,9.36,9.361,9.361-9.361,10.531,9.361V398.1l-9.361,9.36-9.36-9.36-9.36,9.36-9.36-9.36-9.36,9.36-9.361-9.36-9.361,9.36-9.361-9.36-9.36,9.36-9.36-9.36-9.361,9.36-9.36-9.36V520.371Z" transform="translate(-8491.304 -1155.432)"/>
</svg>
