<svg xmlns="http://www.w3.org/2000/svg" viewBox="9689 -11925 387 387">
  <defs>
    <style>
      .cls-1, .cls-2, .cls-3, .cls-6, .cls-7 {
        fill: none;
      }

      .cls-1, .cls-2, .cls-3, .cls-4, .cls-5, .cls-6 {
        stroke: #7579ff;
        stroke-linecap: round;
      }

      .cls-1, .cls-2, .cls-3, .cls-4, .cls-5 {
        stroke-linejoin: round;
      }

      .cls-1, .cls-4, .cls-6 {
        stroke-width: 2px;
      }

      .cls-3 {
        stroke-width: 3px;
      }

      .cls-4, .cls-5 {
        fill: #fff;
      }
    </style>
  </defs>
  <g id="Covered_Flue_No" data-name="Covered Flue No" transform="translate(8648 -12426)">
    <g id="Covered_Flue_No-2" data-name="Covered Flue No" transform="translate(1074 590)">
      <rect id="Rectangle_921" data-name="Rectangle 921" class="cls-1" width="3.195" height="18.007" transform="translate(150.298 71.882)"/>
      <path id="Path_318" data-name="Path 318" class="cls-2" d="M109.395,63.308,106.2,65.2V51.4l3.195,1.888Z" transform="translate(47.293 22.515)"/>
      <path id="Path_319" data-name="Path 319" class="cls-1" d="M108.4,52.8h24.106l-5.373,9.729H108.4" transform="translate(48.288 23.148)"/>
      <rect id="Rectangle_922" data-name="Rectangle 922" class="cls-3" width="150.443" height="208.965" transform="translate(0 0)"/>
      <rect id="Rectangle_923" data-name="Rectangle 923" class="cls-4" width="60.555" height="134.47" transform="translate(11.908 65.492)"/>
      <rect id="Rectangle_924" data-name="Rectangle 924" class="cls-2" width="45.598" height="55.908" transform="translate(19.168 73.043)"/>
      <rect id="Rectangle_925" data-name="Rectangle 925" class="cls-2" width="45.598" height="55.908" transform="translate(19.168 136.067)"/>
      <rect id="Rectangle_926" data-name="Rectangle 926" class="cls-5" width="65.202" height="3.776" transform="translate(10.165 199.962)"/>
      <path id="Path_660" data-name="Path 660" class="cls-6" d="M0,0H321.217" transform="translate(0 208.965)"/>
    </g>
    <rect id="Rectangle_1493" data-name="Rectangle 1493" class="cls-7" width="387" height="387" transform="translate(1041 501)"/>
  </g>
</svg>
