<svg xmlns="http://www.w3.org/2000/svg" viewBox="7048 -11905 394 394">
  <defs>
    <style>
      .cls-1, .cls-2, .cls-3, .cls-4 {
        fill: none;
      }

      .cls-1, .cls-2, .cls-3 {
        stroke: #7579ff;
        stroke-linecap: round;
        stroke-linejoin: round;
      }

      .cls-1 {
        stroke-width: 3px;
      }

      .cls-2 {
        stroke-width: 2px;
      }

      .cls-3 {
        stroke-width: 1.5px;
      }

      .cls-5, .cls-6 {
        fill: #7579ff;
      }

      .cls-5 {
        font-size: 15px;
        font-family: Quicksand-Regular, Quicksand;
      }
    </style>
  </defs>
  <g id="more_than_2_meter_flue" data-name="more than 2 meter flue" transform="translate(6603 -12411)">
    <g id="more_than_2_meter_flue-2" data-name="more than 2 meter flue" transform="translate(485 608.792)">
      <rect id="Rectangle_815" data-name="Rectangle 815" class="cls-1" width="105.951" height="184.963" transform="translate(207.303 1.265)"/>
      <rect id="Rectangle_816" data-name="Rectangle 816" class="cls-1" width="109.401" height="184.963" transform="translate(0 1.265)"/>
      <path id="Path_311" data-name="Path 311" class="cls-2" d="M132.954,50.7H104.7l6.242,11.5h22.012" transform="translate(66.793 32.09)"/>
      <path id="Path_312" data-name="Path 312" class="cls-3" d="M121.9,63.163l3.778,2.3V49.2L121.9,51.5Z" transform="translate(77.846 31.126)"/>
      <rect id="Rectangle_817" data-name="Rectangle 817" class="cls-2" width="3.778" height="21.026" transform="translate(203.525 78.026)"/>
      <rect id="Rectangle_818" data-name="Rectangle 818" class="cls-4" width="76.055" height="51.744" transform="translate(123.692 5.421)"/>
      <g id="Group" transform="translate(128.16 1.209)">
        <text id="less_than_" data-name="less than " class="cls-5" transform="translate(0 15)"><tspan x="0" y="0">less than </tspan></text>
        <text id="_2m" data-name="2m" class="cls-5" transform="translate(21.354 34.712)"><tspan x="0" y="0">2m</tspan></text>
      </g>
      <g id="Group_964" data-name="Group 964" transform="translate(109.401 41.723)">
        <g id="Group_963" data-name="Group 963">
          <g id="Group_962" data-name="Group 962">
            <g id="Group_937" data-name="Group 937">
              <g id="Group_936" data-name="Group 936">
                <g id="Group_935" data-name="Group 935">
                  <rect id="Rectangle_819" data-name="Rectangle 819" class="cls-4" width="10.842" height="12.32"/>
                </g>
                <rect id="Rectangle_820" data-name="Rectangle 820" class="cls-6" width="1.971" height="1.314" transform="translate(8.049 5.749)"/>
                <rect id="Rectangle_821" data-name="Rectangle 821" class="cls-6" width="1.971" height="1.314" transform="translate(4.435 5.749)"/>
                <rect id="Rectangle_822" data-name="Rectangle 822" class="cls-6" width="1.971" height="1.314" transform="translate(0.821 5.749)"/>
              </g>
            </g>
            <g id="Group_940" data-name="Group 940" transform="translate(10.841)">
              <g id="Group_939" data-name="Group 939">
                <g id="Group_938" data-name="Group 938">
                  <rect id="Rectangle_823" data-name="Rectangle 823" class="cls-4" width="10.842" height="12.32"/>
                </g>
                <rect id="Rectangle_824" data-name="Rectangle 824" class="cls-6" width="1.971" height="1.314" transform="translate(8.049 5.749)"/>
                <rect id="Rectangle_825" data-name="Rectangle 825" class="cls-6" width="1.971" height="1.314" transform="translate(4.435 5.749)"/>
                <rect id="Rectangle_826" data-name="Rectangle 826" class="cls-6" width="1.971" height="1.314" transform="translate(0.821 5.749)"/>
              </g>
            </g>
            <g id="Group_943" data-name="Group 943" transform="translate(21.683)">
              <g id="Group_942" data-name="Group 942">
                <g id="Group_941" data-name="Group 941">
                  <rect id="Rectangle_827" data-name="Rectangle 827" class="cls-4" width="10.842" height="12.32"/>
                </g>
                <rect id="Rectangle_828" data-name="Rectangle 828" class="cls-6" width="1.971" height="1.314" transform="translate(8.049 5.749)"/>
                <rect id="Rectangle_829" data-name="Rectangle 829" class="cls-6" width="1.971" height="1.314" transform="translate(4.435 5.749)"/>
                <rect id="Rectangle_830" data-name="Rectangle 830" class="cls-6" width="1.971" height="1.314" transform="translate(0.821 5.749)"/>
              </g>
            </g>
            <g id="Group_946" data-name="Group 946" transform="translate(32.524)">
              <g id="Group_945" data-name="Group 945">
                <g id="Group_944" data-name="Group 944">
                  <rect id="Rectangle_831" data-name="Rectangle 831" class="cls-4" width="10.842" height="12.32"/>
                </g>
                <rect id="Rectangle_832" data-name="Rectangle 832" class="cls-6" width="1.971" height="1.314" transform="translate(8.049 5.749)"/>
                <rect id="Rectangle_833" data-name="Rectangle 833" class="cls-6" width="1.971" height="1.314" transform="translate(4.435 5.749)"/>
                <rect id="Rectangle_834" data-name="Rectangle 834" class="cls-6" width="1.971" height="1.314" transform="translate(0.821 5.749)"/>
              </g>
            </g>
            <g id="Group_949" data-name="Group 949" transform="translate(43.53)">
              <g id="Group_948" data-name="Group 948">
                <g id="Group_947" data-name="Group 947">
                  <rect id="Rectangle_835" data-name="Rectangle 835" class="cls-4" width="10.842" height="12.32"/>
                </g>
                <rect id="Rectangle_836" data-name="Rectangle 836" class="cls-6" width="1.971" height="1.314" transform="translate(8.049 5.749)"/>
                <rect id="Rectangle_837" data-name="Rectangle 837" class="cls-6" width="1.971" height="1.314" transform="translate(4.435 5.749)"/>
                <rect id="Rectangle_838" data-name="Rectangle 838" class="cls-6" width="1.971" height="1.314" transform="translate(0.821 5.749)"/>
              </g>
            </g>
            <g id="Group_952" data-name="Group 952" transform="translate(54.372)">
              <g id="Group_951" data-name="Group 951">
                <g id="Group_950" data-name="Group 950">
                  <rect id="Rectangle_839" data-name="Rectangle 839" class="cls-4" width="10.842" height="12.32"/>
                </g>
                <rect id="Rectangle_840" data-name="Rectangle 840" class="cls-6" width="1.971" height="1.314" transform="translate(8.049 5.749)"/>
                <rect id="Rectangle_841" data-name="Rectangle 841" class="cls-6" width="1.971" height="1.314" transform="translate(4.435 5.749)"/>
                <rect id="Rectangle_842" data-name="Rectangle 842" class="cls-6" width="1.971" height="1.314" transform="translate(0.821 5.749)"/>
              </g>
            </g>
            <g id="Group_955" data-name="Group 955" transform="translate(65.213)">
              <g id="Group_954" data-name="Group 954">
                <g id="Group_953" data-name="Group 953">
                  <rect id="Rectangle_843" data-name="Rectangle 843" class="cls-4" width="10.842" height="12.32"/>
                </g>
                <rect id="Rectangle_844" data-name="Rectangle 844" class="cls-6" width="1.971" height="1.314" transform="translate(8.049 5.749)"/>
                <rect id="Rectangle_845" data-name="Rectangle 845" class="cls-6" width="1.971" height="1.314" transform="translate(4.435 5.749)"/>
                <rect id="Rectangle_846" data-name="Rectangle 846" class="cls-6" width="1.971" height="1.314" transform="translate(0.821 5.749)"/>
              </g>
            </g>
            <g id="Group_958" data-name="Group 958" transform="translate(76.055)">
              <g id="Group_957" data-name="Group 957">
                <g id="Group_956" data-name="Group 956">
                  <rect id="Rectangle_847" data-name="Rectangle 847" class="cls-4" width="10.842" height="12.32"/>
                </g>
                <rect id="Rectangle_848" data-name="Rectangle 848" class="cls-6" width="1.971" height="1.314" transform="translate(8.049 5.749)"/>
                <rect id="Rectangle_849" data-name="Rectangle 849" class="cls-6" width="1.971" height="1.314" transform="translate(4.435 5.749)"/>
                <rect id="Rectangle_850" data-name="Rectangle 850" class="cls-6" width="1.971" height="1.314" transform="translate(0.821 5.749)"/>
              </g>
            </g>
            <g id="Group_961" data-name="Group 961" transform="translate(86.896)">
              <g id="Group_960" data-name="Group 960">
                <g id="Group_959" data-name="Group 959">
                  <rect id="Rectangle_851" data-name="Rectangle 851" class="cls-4" width="10.842" height="12.32"/>
                </g>
                <rect id="Rectangle_852" data-name="Rectangle 852" class="cls-6" width="1.971" height="1.314" transform="translate(8.049 5.749)"/>
                <rect id="Rectangle_853" data-name="Rectangle 853" class="cls-6" width="1.971" height="1.314" transform="translate(4.435 5.749)"/>
                <rect id="Rectangle_854" data-name="Rectangle 854" class="cls-6" width="1.971" height="1.314" transform="translate(0.821 5.749)"/>
              </g>
            </g>
          </g>
        </g>
      </g>
    </g>
    <rect id="Rectangle_1496" data-name="Rectangle 1496" class="cls-4" width="394" height="394" transform="translate(445 506)"/>
  </g>
</svg>
