<svg xmlns="http://www.w3.org/2000/svg" viewBox="3743 -11910 266 266">
  <defs>
    <style>
      .cls-1, .cls-3, .cls-6 {
        fill: none;
      }

      .cls-1, .cls-2, .cls-3, .cls-4, .cls-5 {
        stroke: #7579ff;
        stroke-linecap: round;
        stroke-linejoin: round;
      }

      .cls-1 {
        stroke-width: 3px;
      }

      .cls-2, .cls-4, .cls-5 {
        fill: rgba(0,0,0,0);
      }

      .cls-2 {
        stroke-width: 1.75px;
      }

      .cls-3, .cls-4 {
        stroke-width: 0.5px;
      }

      .cls-5 {
        stroke-width: 1.5px;
      }
    </style>
  </defs>
  <g id="Round" transform="translate(2623 -12411)">
    <g id="Round-2" data-name="Round" transform="translate(1145 531)">
      <rect id="Rectangle_630" data-name="Rectangle 630" class="cls-1" width="215.274" height="206.122" transform="translate(0 0)"/>
      <circle id="Ellipse_78" data-name="Ellipse 78" class="cls-1" cx="57.621" cy="57.621" r="57.621" transform="translate(52.465 51.692)"/>
      <circle id="Ellipse_79" data-name="Ellipse 79" class="cls-2" cx="42.668" cy="42.668" r="42.668" transform="translate(67.418 66.645)"/>
      <line id="Line_114" data-name="Line 114" class="cls-3" x2="5.156" y2="5.543" transform="translate(115.887 121.043)"/>
      <line id="Line_115" data-name="Line 115" class="cls-3" x2="5.156" y2="5.543" transform="translate(121.301 116.016)"/>
      <path id="Path_292" data-name="Path 292" class="cls-4" d="M94.4,93.306c2.965-4.9,2.965-8.508,0-13.406" transform="translate(26.901 22.71)"/>
      <path id="Path_293" data-name="Path 293" class="cls-4" d="M81.3,94.2c4.125,2.063,7.348,2.063,11.473,0" transform="translate(23.114 26.843)"/>
      <path id="Path_294" data-name="Path 294" class="cls-4" d="M98.4,100.121a20.306,20.306,0,0,0,0-24.621" transform="translate(28.058 21.438)"/>
      <path id="Path_295" data-name="Path 295" class="cls-4" d="M77.3,98.5c7.863,4.9,13.922,4.9,21.785,0" transform="translate(21.958 28.086)"/>
      <path id="Path_296" data-name="Path 296" class="cls-4" d="M102.4,106.907a27.843,27.843,0,0,0,0-35.707" transform="translate(29.214 20.195)"/>
      <path id="Path_297" data-name="Path 297" class="cls-4" d="M73.4,102.8a27.925,27.925,0,0,0,31.969,0" transform="translate(20.831 29.329)"/>
      <line id="Line_116" data-name="Line 116" class="cls-3" x2="5.027" y2="5.543" transform="translate(126.071 132.129)"/>
      <line id="Line_117" data-name="Line 117" class="cls-3" x2="5.027" y2="5.543" transform="translate(131.614 127.102)"/>
      <line id="Line_118" data-name="Line 118" class="cls-3" y1="5.414" x2="5.027" transform="translate(131.614 85.981)"/>
      <line id="Line_119" data-name="Line 119" class="cls-3" y1="5.672" x2="5.156" transform="translate(121.301 96.938)"/>
      <line id="Line_120" data-name="Line 120" class="cls-3" y1="5.414" x2="5.027" transform="translate(126.071 80.953)"/>
      <line id="Line_121" data-name="Line 121" class="cls-3" y1="5.672" x2="5.156" transform="translate(115.887 91.911)"/>
      <path id="Path_298" data-name="Path 298" class="cls-4" d="M99.085,72.424c-7.863-4.9-13.922-4.9-21.785,0" transform="translate(21.958 19.487)"/>
      <path id="Path_299" data-name="Path 299" class="cls-4" d="M105.269,68.427a27.925,27.925,0,0,0-31.969,0" transform="translate(20.802 17.94)"/>
      <path id="Path_300" data-name="Path 300" class="cls-4" d="M92.773,76.347c-4.125-2.062-7.348-2.062-11.473,0" transform="translate(23.114 21.236)"/>
      <line id="Line_122" data-name="Line 122" class="cls-3" x1="5.156" y1="5.672" transform="translate(99.258 91.911)"/>
      <line id="Line_123" data-name="Line 123" class="cls-3" x1="5.156" y2="5.543" transform="translate(99.258 121.043)"/>
      <line id="Line_124" data-name="Line 124" class="cls-3" x1="5.156" y2="5.543" transform="translate(93.844 116.016)"/>
      <path id="Path_301" data-name="Path 301" class="cls-4" d="M77.6,79.9c-2.965,4.9-2.965,8.508,0,13.406" transform="translate(21.402 22.71)"/>
      <path id="Path_302" data-name="Path 302" class="cls-4" d="M74.032,75.5a20.306,20.306,0,0,0,0,24.621" transform="translate(19.812 21.438)"/>
      <line id="Line_125" data-name="Line 125" class="cls-3" x1="5.156" y2="5.543" transform="translate(89.075 132.129)"/>
      <path id="Path_303" data-name="Path 303" class="cls-4" d="M70.553,71.2a27.843,27.843,0,0,0,0,35.707" transform="translate(18.135 20.195)"/>
      <line id="Line_126" data-name="Line 126" class="cls-3" x1="5.027" y2="5.543" transform="translate(83.66 127.102)"/>
      <line id="Line_127" data-name="Line 127" class="cls-3" x1="5.156" y1="5.672" transform="translate(93.844 96.938)"/>
      <line id="Line_128" data-name="Line 128" class="cls-3" x1="5.156" y1="5.414" transform="translate(89.075 80.953)"/>
      <line id="Line_129" data-name="Line 129" class="cls-3" x1="5.027" y1="5.414" transform="translate(83.66 85.981)"/>
      <path id="Path_304" data-name="Path 304" class="cls-4" d="M86.972,92.044c4,0,5.672-1.676,5.672-5.672S90.968,80.7,86.972,80.7,81.3,82.376,81.3,86.372,83.1,92.044,86.972,92.044Z" transform="translate(23.114 22.941)"/>
      <circle id="Ellipse_80" data-name="Ellipse 80" class="cls-5" cx="35.32" cy="35.32" r="35.32" transform="translate(74.766 73.992)"/>
    </g>
    <rect id="Rectangle_1500" data-name="Rectangle 1500" class="cls-6" width="266" height="266" transform="translate(1120 501)"/>
  </g>
</svg>
