<svg xmlns="http://www.w3.org/2000/svg" viewBox="19681 -14526 266 266">
  <defs>
    <style>
      .cls-1, .cls-2, .cls-3, .cls-4 {
        fill: none;
      }

      .cls-1, .cls-2, .cls-3 {
        stroke: #7579ff;
        stroke-linecap: round;
        stroke-linejoin: round;
      }

      .cls-1 {
        stroke-width: 3px;
      }

      .cls-2 {
        stroke-width: 2px;
      }

      .cls-3 {
        stroke-width: 1.5px;
      }
    </style>
  </defs>
  <g id="Wall" transform="translate(18543 -15022)">
    <g id="Wall-2" data-name="Wall" transform="translate(1188 523)">
      <rect id="Rectangle_624" data-name="Rectangle 624" class="cls-1" width="97.897" height="212.398" transform="translate(67.611 0)"/>
      <path id="Path_278" data-name="Path 278" class="cls-2" d="M53.766,72.4H.5L12.189,94.184H53.766" transform="translate(-0.5 23.372)"/>
      <path id="Path_279" data-name="Path 279" class="cls-3" d="M40.6,95.434l7.173,4.383V69L40.6,73.383Z" transform="translate(12.666 22.256)"/>
      <rect id="Rectangle_625" data-name="Rectangle 625" class="cls-2" width="7.173" height="39.85" transform="translate(60.439 86.739)"/>
    </g>
    <rect id="Rectangle_1490" data-name="Rectangle 1490" class="cls-4" width="266" height="266" transform="translate(1138 496)"/>
  </g>
</svg>
