<svg xmlns="http://www.w3.org/2000/svg" viewBox="-3891.14 12515.624 47.932 47.932">
  <defs>
    <style>
      .cls-1 {
        fill: #fff;
      }

      .cls-2 {
        fill: none;
      }
    </style>
  </defs>
  <g id="ic_clear_white_24px_2_" data-name="ic_clear_white_24px (2)" transform="translate(-3891.14 12515.624)">
    <path id="Path_303" data-name="Path 303" class="cls-1" d="M32.96,7.816,30.144,5,18.98,16.164,7.816,5,5,7.816,16.164,18.98,5,30.144,7.816,32.96,18.98,21.8,30.144,32.96l2.816-2.816L21.8,18.98Z" transform="translate(4.986 4.986)"/>
    <path id="Path_304" data-name="Path 304" class="cls-2" d="M0,0H47.932V47.932H0Z"/>
  </g>
</svg>
