<svg xmlns="http://www.w3.org/2000/svg" viewBox="-10284 -3368 118.67 118.672">
  <defs>
    <style>
      .cls-1, .cls-2 {
        fill: none;
      }

      .cls-1 {
        stroke: #ea495c;
        stroke-linecap: round;
        stroke-linejoin: round;
        stroke-miterlimit: 10;
        stroke-width: 4px;
      }
    </style>
  </defs>
  <g id="Group_2209" data-name="Group 2209" transform="translate(-10284 -3368)">
    <g id="Semi-Detached" transform="translate(24.723 14.834)">
      <path id="Path_634" data-name="Path 634" class="cls-1" d="M39.906,2,3,34.806V88.115H27.6V59.41h24.6v28.7h24.6V34.806Z" transform="translate(-3 -2)"/>
    </g>
    <rect id="Rectangle_1300" data-name="Rectangle 1300" class="cls-2" width="118.67" height="118.672"/>
  </g>
</svg>
