<svg id="Group_2265" data-name="Group 2265" xmlns="http://www.w3.org/2000/svg" viewBox="-11822 -3633 69 68">
  <defs>
    <style>
      .cls-1, .cls-2 {
        fill: none;
      }

      .cls-1 {
        stroke: #ea495c;
        stroke-linecap: round;
        stroke-linejoin: round;
        stroke-miterlimit: 10;
        stroke-width: 1.5px;
      }
    </style>
  </defs>
  <g id="Group_2108" data-name="Group 2108" transform="translate(-11806 -3618.5)">
    <g id="usage" transform="translate(3.209 6.861)">
      <line id="Line_268" data-name="Line 268" class="cls-1" x2="30.842" transform="translate(0 25.235)"/>
      <rect id="Rectangle_1295" data-name="Rectangle 1295" class="cls-1" width="5.608" height="12.617" transform="translate(1.402 7.01)"/>
      <rect id="Rectangle_1296" data-name="Rectangle 1296" class="cls-1" width="5.608" height="19.627" transform="translate(12.617)"/>
      <rect id="Rectangle_1297" data-name="Rectangle 1297" class="cls-1" width="5.608" height="7.01" transform="translate(23.833 12.617)"/>
    </g>
    <rect id="Rectangle_1298" data-name="Rectangle 1298" class="cls-2" width="38.515" height="38.515" transform="translate(0 0)"/>
  </g>
  <rect id="Rectangle_1376" data-name="Rectangle 1376" class="cls-2" width="69" height="68" transform="translate(-11822 -3633)"/>
</svg>
