<?xml version="1.0" encoding="utf-8"?>
<!-- Generator: Adobe Illustrator 22.1.0, SVG Export Plug-In . SVG Version: 6.00 Build 0)  -->
<svg version="1.1" id="Layer_1" xmlns="http://www.w3.org/2000/svg" xmlns:xlink="http://www.w3.org/1999/xlink" x="0px" y="0px"
	 viewBox="0 0 50 50" style="enable-background:new 0 0 50 50;" xml:space="preserve">
<style type="text/css">
	.st0{fill:#EA495C;}
	.st1{clip-path:url(#SVGID_2_);fill:#FFA6B5;}
</style>
<title>Right display</title>
<circle class="st0" cx="25" cy="25" r="22.5"/>
<g>
	<defs>
		<circle id="SVGID_1_" cx="25" cy="25" r="22.5"/>
	</defs>
	<clipPath id="SVGID_2_">
		<use xlink:href="#SVGID_1_"  style="overflow:visible;"/>
	</clipPath>
	<path class="st1" d="M31.7,37.5c-1-0.8-1.7-2-1.9-3.4c2.8-1.7,4.7-4.7,4.7-8.2V22c0-5.3-4.3-9.5-9.5-9.5h0c-5.3,0-9.5,4.3-9.5,9.5
		v3.8c0,3.5,1.9,6.6,4.7,8.2c-0.2,1.4-0.8,2.6-1.9,3.4C12.2,38.4,7.5,43.7,7.5,50v10.1h35V50C42.5,43.7,37.8,38.4,31.7,37.5z"/>
</g>
</svg>
