<svg xmlns="http://www.w3.org/2000/svg" viewBox="7889 -19525.598 69.597 69.598">
  <defs>
    <style>
      .cls-1 {
        fill: #ea495c;
      }

      .cls-2 {
        fill: none;
      }
    </style>
  </defs>
  <g id="ic_arrow_drop_down_black_24px_3_" data-name="ic_arrow_drop_down_black_24px (3)" transform="translate(7889 -19525.598)">
    <path id="Path_399" data-name="Path 399" class="cls-1" d="M7,10,21.5,24.5,36,10Z" transform="translate(13.299 18.999)"/>
    <path id="Path_400" data-name="Path 400" class="cls-2" d="M0,0H69.6V69.6H0Z"/>
  </g>
</svg>
