<svg xmlns="http://www.w3.org/2000/svg" viewBox="15911 -7071.645 148 148">
  <defs>
    <style>
      .cls-1 {
        fill: #62c6f2;
      }

      .cls-2 {
        fill: none;
      }
    </style>
  </defs>
  <g id="Detached" transform="translate(15911 -7071.645)">
    <path id="Path_231" data-name="Path 231" class="cls-1" d="M55.267,108.033v-37H82.4v37h33.917V58.7h20.35L68.833,3.2,1,58.7H21.35v49.333Z" transform="translate(5.167 16.533)"/>
    <path id="Path_232" data-name="Path 232" class="cls-2" d="M0,0H148V148H0Z"/>
    <rect id="Rectangle_610" data-name="Rectangle 610" class="cls-1" width="18.5" height="32.683" transform="translate(30.217 35.767)"/>
  </g>
</svg>
