<svg xmlns="http://www.w3.org/2000/svg" viewBox="7271 -7031.807 178.118 178.852">
  <defs>
    <style>
      .cls-1 {
        fill: #62c6f2;
      }
    </style>
  </defs>
  <g id="direct-debit-logo-symbol" transform="translate(7270.943 -7031.807)">
    <g id="Layer_1_copy_14_" transform="translate(0.057)">
      <path id="Path_176" data-name="Path 176" class="cls-1" d="M149.973,81.4a46.036,46.036,0,0,1-3.548,3.749,49.461,49.461,0,0,1-8.653,6.83c-2.737,1.648-5.448,3.373-8.3,4.8a61.512,61.512,0,0,1-11.37,4.488c-3.587.966-7.135,2.056-10.735,2.867a63.011,63.011,0,0,1-8.036,1.193c-3.762.35-7.563.59-11.351.746-2.633.13-5.286.13-7.933,0-2.789-.136-5.565-.357-8.328-.752-3.094-.454-6.188-1.038-9.23-1.771-3.509-.856-7-1.829-10.423-2.958a51.462,51.462,0,0,1-6.882-2.86,104.583,104.583,0,0,1-9.593-5.221,74.313,74.313,0,0,1-8.361-6.337,57.389,57.389,0,0,1-6.194-6.363,44.146,44.146,0,0,1-6.888-11.085,38.834,38.834,0,0,1-2.679-8.679,31.211,31.211,0,0,1-.48-10.008c.357-2.413.545-4.852.986-7.239a32.335,32.335,0,0,1,1.362-4.677,43.129,43.129,0,0,1,5.734-10.9,50.258,50.258,0,0,1,7.109-7.881,55.034,55.034,0,0,1,9.885-7.128,77.752,77.752,0,0,1,9.185-4.443C49,6.285,52.861,5.053,56.74,3.937c2.847-.811,5.812-1.291,8.724-1.855,2.173-.422,4.359-.785,6.558-1.1,1.408-.208,2.834-.324,4.248-.4,2.588-.156,5.163-.266,7.751-.4.1-.006.195-.117.285-.175h5.65V38.21c-.363.019-.675.052-.966.045-2.912-.058-5.825-.253-8.73-.156-3.541.117-7.083.324-10.592.759-3.691.454-7.355,1.155-11.007,1.855a77.077,77.077,0,0,0-15.937,4.962,54.37,54.37,0,0,0-10.177,5.565,22.705,22.705,0,0,0-7.524,8.16,12.448,12.448,0,0,0-.915,8.5,25.252,25.252,0,0,0,6.129,11.221,43.887,43.887,0,0,0,9.074,7.874c2.841,1.862,5.838,3.5,8.841,5.092a69.177,69.177,0,0,0,15.327,5.656A83.966,83.966,0,0,0,73,99.5c3.068.4,6.175.649,9.262.746a59.994,59.994,0,0,0,8.841-.2A49.25,49.25,0,0,0,106.97,95.51,45.284,45.284,0,0,0,117.1,88.887a46.374,46.374,0,0,0,8.361-9.353,44,44,0,0,0,6.668-15.658,59.194,59.194,0,0,0,1.135-7.771,71.833,71.833,0,0,0,.169-8.439,63.713,63.713,0,0,0-.889-7.258,40.184,40.184,0,0,0-1.252-5.844c-.889-2.731-1.965-5.4-3.12-8.03a36.408,36.408,0,0,0-4.839-7.608,41.036,41.036,0,0,0-11.545-9.892,66.148,66.148,0,0,0-9.639-4.566A75.128,75.128,0,0,0,93.867,2.1C92.641,1.777,93.426.9,93.044.149c1.7.091,3.178.117,4.664.272,1.758.182,3.5.4,5.221.739,3.762.746,7.537,1.453,11.234,2.426a93.672,93.672,0,0,1,9.055,3A71.367,71.367,0,0,1,138.486,14.7a63.525,63.525,0,0,1,10.767,9.489,47.782,47.782,0,0,1,7.167,10.4,39.412,39.412,0,0,1,3.97,11.8,40.072,40.072,0,0,1-1.537,19.66,45.189,45.189,0,0,1-4.839,10.093A56.916,56.916,0,0,1,149.973,81.4Zm-37.25,36.55v-4.793h-22.7v28.332h22.494v-4.878H97.759v-6.791H111.8v-4.878H97.772v-6.992Zm3.814,46.493a11.813,11.813,0,0,1-.7,6.622,10.782,10.782,0,0,1-5.585,5.675,15.914,15.914,0,0,1-8.562,1.129,11.119,11.119,0,0,1-6.953-2.763c-.078-.071-.227-.058-.4-.1v2.1H85.928V146.485h8.309v12.486c3.632-3.379,7.881-3.574,12.136-3.256a11.128,11.128,0,0,1,7.764,3.645A10.323,10.323,0,0,1,116.537,164.439Zm-10.183-2.056a7.527,7.527,0,0,0-6.045-1.836c-2.847.227-6.525,2.906-6.019,6.428a4.653,4.653,0,0,0,1.7,4.21,7.8,7.8,0,0,0,8.932,1.135C108.786,170.251,109.648,165.412,106.353,162.383Zm20.6-42.044c2.354-2.024,5.267-2.582,8.244-2.711a27.355,27.355,0,0,1,4.119.175c1.784.175,3.587.5,5.539.785.214-1.206.467-2.562.675-3.9.039-.136-.175-.4-.357-.454a22.468,22.468,0,0,0-6.713-1.518,51.411,51.411,0,0,0-5.2.006,30.47,30.47,0,0,0-5.04.675,20.109,20.109,0,0,0-9.275,4.476,11.419,11.419,0,0,0-3.165,4.443,13.4,13.4,0,0,0,2.51,13.705,17.663,17.663,0,0,0,8.439,4.917,31.4,31.4,0,0,0,10.222,1.213,39.441,39.441,0,0,0,8.108-1.258c-.143-1.557-.292-3.081-.422-4.6-1.44.195-2.7.486-3.989.532a29.148,29.148,0,0,1-9.963-.921c-2.595-.824-4.813-2.108-6-4.683a9.532,9.532,0,0,1-.357-6.408A8.012,8.012,0,0,1,126.954,120.339Zm12.512,26.334h-8.179V152h8.179ZM131.286,177.3h8.192V156.5h-8.192ZM76.381,127.87c3.36,4.034,5.228,9.055,8.218,13.55a4.941,4.941,0,0,1-.675.123c-2.569.006-5.15-.006-7.725.019a.917.917,0,0,1-.953-.636c-1.5-2.88-3.023-5.76-4.586-8.6a4.092,4.092,0,0,0-3.5-2.069c-1.213-.1-2.439-.013-3.723-.013v11.228H54.989v-28.39H65.211c1.816,0,3.645.013,5.461,0a17.17,17.17,0,0,1,8.964,2.14,5.689,5.689,0,0,1,3,4.9,7.7,7.7,0,0,1-1.1,4.586C80.279,126.663,78.378,127.344,76.381,127.87Zm-3.237-8.549a4.518,4.518,0,0,0-3.023-1.382c-2.225.013-4.456,0-6.694,0v7.381c1.738,0,3.36.013,4.988,0a7.905,7.905,0,0,0,4.326-1.349A3.163,3.163,0,0,0,73.144,119.321Zm9.275-78.01a36.564,36.564,0,0,0-9.373,3.444,32.734,32.734,0,0,0-10.313,8.387,25.087,25.087,0,0,0-4.093,7.051,18.681,18.681,0,0,0-1.485,6.35,45.561,45.561,0,0,0,.123,6.318A18.361,18.361,0,0,0,59.393,79a25.226,25.226,0,0,0,5.293,6.765,43.217,43.217,0,0,0,5.572,4.1,34.562,34.562,0,0,0,9.9,4.378c1.991.512,3.97,1.025,5.987,1.466,1.142.246,2.316.324,3.561.467V40.3c-.428.078-.791.169-1.155.214C86.518,40.766,84.423,40.863,82.419,41.311ZM15.468,141.562c-5.137-.039-10.268.11-15.4.156V113.25c5.014,0,10.047-.039,15.061.013a25.286,25.286,0,0,1,11.922,2.828,13.553,13.553,0,0,1,6.869,7.459,11.513,11.513,0,0,1-1.544,10.994,15.59,15.59,0,0,1-7.128,5.267A25.484,25.484,0,0,1,15.468,141.562Zm-4.514-4.728c1.771-.091,3.561-.045,5.325-.214a11.4,11.4,0,0,0,6.22-2.549,9.028,9.028,0,0,0,.525-13.1,10.072,10.072,0,0,0-6.175-3.01c-1.356-.136-2.711-.3-4.073-.37-1.323-.058-2.646,0-4.008,0v19.459C9.553,136.976,10.253,136.859,10.954,136.834Zm158.024,36.277a2.442,2.442,0,0,1-1.557-2.51c.091-1.44.013-2.88.013-4.333v-5.345h6.9V156.39h-6.927v-5.358H158.9v5.423h-6.5v4.495h6.551v1.135c0,3.483-.026,6.96.013,10.443a5.042,5.042,0,0,0,1.459,3.509,8.908,8.908,0,0,0,5.066,2.432c.662.123,1.3.253,1.952.383h3.2a23,23,0,0,0,2.51-.4c.519-.136,1.408.175,1.446-.772.058-1.395.019-2.789.019-4.19A8.27,8.27,0,0,1,168.978,173.111ZM33.124,157.226a11.524,11.524,0,0,1,.713,10.015c-1.518,4.106-4.754,6.376-8.581,8.01a21.611,21.611,0,0,1-8.179,1.719q-8.513.107-17.02.182V148.684c4.4,0,8.789.013,13.187,0a33.1,33.1,0,0,1,9.223.992C26.858,150.935,30.782,153.088,33.124,157.226Zm-8,2.633c-.908-3.01-3.139-4.793-5.98-5.889-3.34-1.278-6.895-.519-10.359-1.193v19.472c1.6,0,3.159-.013,4.722,0a16.259,16.259,0,0,0,6.149-1.116A8.8,8.8,0,0,0,25.126,159.86Zm22.546-46.707H39.117V141.3h8.555Zm99.635,4.826h11.487v23.688h8.082v-23.7h11.3v-4.7H147.3C147.307,114.9,147.307,116.389,147.307,117.978ZM73.332,168.1H52.44c-.1,2.7,2.283,4.2,4.495,4.715a23.771,23.771,0,0,0,11.487-.571A22.048,22.048,0,0,0,71.3,170.99c0,1.44.032,2.9-.019,4.372a.948.948,0,0,1-.519.72,45.58,45.58,0,0,1-5.928,1.226,50.756,50.756,0,0,1-7.025.2,17.208,17.208,0,0,1-9.314-2.828,10.128,10.128,0,0,1-4.592-6.35,9.337,9.337,0,0,1,2.627-8.938c2.971-3.042,6.681-4.132,10.774-4.5a19.431,19.431,0,0,1,7.245.629c3.217.9,5.961,2.543,7.511,5.675A12.556,12.556,0,0,1,73.332,168.1Zm-7.887-4.171c-.662-2.374-1.317-3.444-2.776-4.093a8.991,8.991,0,0,0-8.179.389,3.689,3.689,0,0,0-1.9,3.7Z" transform="translate(-0.057)"/>
    </g>
  </g>
</svg>
