<svg xmlns="http://www.w3.org/2000/svg" xmlns:xlink="http://www.w3.org/1999/xlink" viewBox="10016 -6719.484 148 148">
  <defs>
    <style>
      .cls-1 {
        fill: #62c6f2;
      }

      .cls-2 {
        clip-path: url(#clip-path);
      }
    </style>
    <clipPath id="clip-path">
      <path id="Path_224" data-name="Path 224" class="cls-1" d="M0,0H148V148H0Z"/>
    </clipPath>
  </defs>
  <g id="ic_compare_arrows_black_24px" class="cls-2" transform="translate(10016 -6719.484)">
    <path id="Path_223" data-name="Path 223" class="cls-1" d="M45.228,60.5H2V72.833H45.228v18.5L69.833,66.667,45.228,42Zm36.877-6.167v-18.5h43.228V23.5H82.105V5L57.5,29.667Z" transform="translate(10.333 25.833)"/>
  </g>
</svg>
