<svg xmlns="http://www.w3.org/2000/svg" viewBox="11674 535 186 186">
  <defs>
    <style>
      .cls-1 {
        fill: #62c6f2;
      }

      .cls-2 {
        fill: none;
      }
    </style>
  </defs>
  <g id="ic_clear_black_24px" transform="translate(11674 535)">
    <path id="Path_138" data-name="Path 138" class="cls-1" d="M113.5,15.928,102.573,5,59.25,48.323,15.928,5,5,15.928,48.323,59.25,5,102.573,15.928,113.5,59.25,70.178,102.573,113.5,113.5,102.573,70.178,59.25Z" transform="translate(33.75 33.75)"/>
    <path id="Path_139" data-name="Path 139" class="cls-2" d="M0,0H186V186H0Z"/>
  </g>
</svg>
