<svg xmlns="http://www.w3.org/2000/svg" viewBox="12191 570 253.329 253.329">
  <defs>
    <style>
      .cls-1 {
        fill: none;
      }

      .cls-2 {
        fill: #62c6f2;
      }
    </style>
  </defs>
  <g id="ic_done_black_24px" transform="translate(12191 570)">
    <path id="Path_136" data-name="Path 136" class="cls-1" d="M0,0H253.329V253.329H0Z"/>
    <path id="Path_137" data-name="Path 137" class="cls-2" d="M62.51,117.487,18.178,73.154,3.4,87.932l59.11,59.11L189.175,20.378,174.4,5.6Z" transform="translate(32.488 53.51)"/>
  </g>
</svg>
