<svg xmlns="http://www.w3.org/2000/svg" xmlns:xlink="http://www.w3.org/1999/xlink" viewBox="0 0 51.514 51.694">
  <defs>
    <style>
      .cls-1 {
        clip-path: url(#clip-path);
      }

      .cls-2, .cls-4 {
        fill: rgba(0,0,0,0);
        stroke-linecap: round;
        stroke-linejoin: round;
      }

      .cls-2, .cls-3, .cls-4 {
        stroke: #000;
      }

      .cls-2 {
        stroke-width: 2px;
      }

      .cls-3 {
        fill: none;
        stroke-width: 1.5px;
      }

      .cls-4 {
        stroke-width: 1.4px;
      }
    </style>
    <clipPath id="clip-path">
      <rect id="Rectangle_1910" data-name="Rectangle 1910" width="51.514" height="51.695" rx="20" transform="translate(0 0)"/>
    </clipPath>
  </defs>
  <g id="Mask_Group_32" data-name="Mask Group 32" class="cls-1">
    <g id="Right_display-03" data-name="Right display-03" transform="translate(1.02 1.111)">
      <path id="Path_856" data-name="Path 856" class="cls-2" d="M43.4,18.838A24.737,24.737,0,1,0,68.135,43.6,24.737,24.737,0,0,0,43.4,18.838Z" transform="translate(-18.661 -18.838)"/>
      <path id="Path_857" data-name="Path 857" class="cls-3" d="M39.589,67.6H36.5a16.887,16.887,0,0,1,1.928-7.982l2.04,3.009a13.822,13.822,0,0,0-.877,4.973Z" transform="translate(-28.771 -41.955)"/>
      <path id="Path_858" data-name="Path 858" class="cls-4" d="M61.751,64.03a3.06,3.06,0,0,1-4.361,0h0c-1.214-1.214-10.2-14.556-10.2-14.556s13.348,8.982,14.562,10.19a3.06,3.06,0,0,1,.071,4.345A.082.082,0,0,1,61.751,64.03Z" transform="translate(-34.831 -36.202)"/>
      <path id="Path_859" data-name="Path 859" class="cls-3" d="M79.171,55.7a13.883,13.883,0,0,0-18.953-13l-3.009-2.04A16.984,16.984,0,0,1,82.272,55.7Z" transform="translate(-40.51 -30.05)"/>
    </g>
  </g>
</svg>
