<svg xmlns="http://www.w3.org/2000/svg" xmlns:xlink="http://www.w3.org/1999/xlink" viewBox="3155.225 -14491.683 73.919 123.199">
  <defs>
    <style>
      .cls-1 {
        fill: url(#linear-gradient);
      }
    </style>
    <linearGradient id="linear-gradient" x1="0.5" y1="2.148" x2="0.5" y2="-0.275" gradientUnits="objectBoundingBox">
      <stop offset="0" stop-color="#7579ff"/>
      <stop offset="1" stop-color="#b224ef"/>
    </linearGradient>
  </defs>
  <g id="Combi" transform="translate(3155.225 -14491.683)">
    <path id="Path_241" data-name="Path 241" class="cls-1" d="M8.213,114.986H12.32V123.2h8.213v-8.213H53.386V123.2H61.6v-8.213h4.107a8.237,8.237,0,0,0,8.213-8.213V8.213A8.237,8.237,0,0,0,65.706,0H8.213A8.237,8.237,0,0,0,0,8.213v98.559A8.237,8.237,0,0,0,8.213,114.986ZM8.419,9.24H65.911V95.479H8.419V9.24Zm7.392,94.042a2.718,2.718,0,0,1-2.669,2.669,2.546,2.546,0,0,1-2.464-2.669,2.718,2.718,0,0,1,2.669-2.669A2.546,2.546,0,0,1,15.811,103.282Zm10.267,0a2.669,2.669,0,1,1-2.669-2.669A2.869,2.869,0,0,1,26.077,103.282Zm34.906.821a3.285,3.285,0,1,1-3.285-3.285A3.243,3.243,0,0,1,60.984,104.1Z"/>
    <path id="Path_242" data-name="Path 242" class="cls-1" d="M20.249,33.6l.821.821a31.88,31.88,0,0,1,4.312,4.723,17.627,17.627,0,0,1,2.669,4.723,11.974,11.974,0,0,1,.411,4.723,6.168,6.168,0,0,1-4.517,4.928h-.411l.205-.205A7.006,7.006,0,0,0,26,49.616a8.465,8.465,0,0,0-1.027-5.955,19.171,19.171,0,0,0-2.669-3.08,10.722,10.722,0,0,1-1.643,6.981,4.6,4.6,0,0,0-1.643-3.08v.205a12.56,12.56,0,0,1-1.027,2.464,8.581,8.581,0,0,0-.821,2.053A3.986,3.986,0,0,0,18.2,52.491l.821.821L17.785,52.7a4.451,4.451,0,0,1-2.259-2.053A6.922,6.922,0,0,1,14.5,47.152a6.025,6.025,0,0,1,.821-3.285c.616-1.437,1.437-2.669,2.053-3.9a16.649,16.649,0,0,0,2.053-4.312,4.766,4.766,0,0,0,.821-2.053" transform="translate(15.273 35.391)"/>
  </g>
</svg>
