<svg xmlns="http://www.w3.org/2000/svg" viewBox="443 25 236 55">
  <defs>
    <style>
      .cls-1 {
        fill: #fff;
        font-size: 45px;
        font-family: Montserrat-Medium, Montserrat;
        font-weight: 500;
      }
    </style>
  </defs>
  <text id="eversmart." class="cls-1" transform="translate(443 69)"><tspan x="0" y="0">eversmart.</tspan></text>
</svg>
