<svg xmlns="http://www.w3.org/2000/svg" xmlns:xlink="http://www.w3.org/1999/xlink" viewBox="6591 1888 1650 241.771">
  <defs>
    <style>
      .cls-1 {
        fill: none;
      }

      .cls-2 {
        clip-path: url(#clip-path);
      }

      .cls-3 {
        fill: #62c6f2;
      }

      .cls-4 {
        filter: url(#Ellipse_73);
      }
    </style>
    <clipPath id="clip-path">
      <rect id="Rectangle_998" data-name="Rectangle 998" class="cls-1" width="1650" height="241.771" transform="translate(0 1768)"/>
    </clipPath>
    <filter id="Ellipse_73" x="3854.222" y="1637.805" width="7779.062" height="1907.522" filterUnits="userSpaceOnUse">
      <feOffset dy="10" input="SourceAlpha"/>
      <feGaussianBlur stdDeviation="5" result="blur"/>
      <feFlood flood-opacity="0.161"/>
      <feComposite operator="in" in2="blur"/>
      <feComposite in="SourceGraphic"/>
    </filter>
  </defs>
  <g id="Mask_Group_1200" data-name="Mask Group 1200" class="cls-2" transform="translate(6591 120)">
    <g class="cls-4" transform="matrix(1, 0, 0, 1, -6591, -120)">
      <ellipse id="Ellipse_73-2" data-name="Ellipse 73" class="cls-3" cx="3836.25" cy="606.719" rx="3836.25" ry="606.719" transform="translate(3869.22 2311.51) rotate(-5)"/>
    </g>
  </g>
</svg>
