<svg xmlns="http://www.w3.org/2000/svg" xmlns:xlink="http://www.w3.org/1999/xlink" viewBox="19800.242 -11827.911 191.455 175.991">
  <defs>
    <style>
      .cls-1 {
        fill: url(#linear-gradient);
      }
    </style>
    <linearGradient id="linear-gradient" x1="0.5" x2="0.5" y2="1" gradientUnits="objectBoundingBox">
      <stop offset="0" stop-color="#7579ff"/>
      <stop offset="1" stop-color="#b224ef"/>
    </linearGradient>
  </defs>
  <g id="fast_tap" data-name="fast tap" transform="translate(19800.242 -11827.911)">
    <path id="Path_348" data-name="Path 348" class="cls-1" d="M181.745,92.132V59.885a4.62,4.62,0,0,0-4.606-4.606H132.528a33.043,33.043,0,0,0-18.836-14.723,6.887,6.887,0,0,0-3.349-12.917h-2.3V18.426h20.73a6.91,6.91,0,1,0,0-13.82H108.04a4.606,4.606,0,0,0-9.213,0H78.1a6.91,6.91,0,1,0,0,13.82h20.73V27.64h-2.3A6.9,6.9,0,0,0,93.75,40.87a33.006,33.006,0,0,0-14.575,9.8H43.547V36.853a9.213,9.213,0,0,0-18.426,0v69.1a9.213,9.213,0,0,0,18.426,0V87.525h31.44a33,33,0,0,0,61.636-9.213H149.5a4.62,4.62,0,0,1,4.606,4.606v9.213a4.62,4.62,0,0,0-4.606,4.606v9.213a4.62,4.62,0,0,0,4.606,4.606h27.64a4.62,4.62,0,0,0,4.606-4.606V96.738A4.62,4.62,0,0,0,181.745,92.132Z" transform="translate(-25.121)"/>
    <path id="Path_351" data-name="Path 351" class="cls-1" d="M279.722,295.68a15.277,15.277,0,1,0,30.554,0c0-8.438-15.279-30.349-15.279-30.349S279.722,287.242,279.722,295.68Z" transform="translate(-118.82 -134.967)"/>
    <path id="Path_352" data-name="Path 352" class="cls-1" d="M279.722,295.68a15.277,15.277,0,1,0,30.554,0c0-8.438-15.279-30.349-15.279-30.349S279.722,287.242,279.722,295.68Z" transform="translate(-151.858 -134.967)"/>
    <path id="Path_353" data-name="Path 353" class="cls-1" d="M279.722,295.68a15.277,15.277,0,1,0,30.554,0c0-8.438-15.279-30.349-15.279-30.349S279.722,287.242,279.722,295.68Z" transform="translate(-184.449 -134.967)"/>
  </g>
</svg>
