<svg xmlns="http://www.w3.org/2000/svg" viewBox="-6391.878 12810.665 51.691 51.69">
  <defs>
    <style>
      .cls-1 {
        opacity: 0.31;
      }

      .cls-2 {
        fill: #6e6e6e;
      }

      .cls-3 {
        fill: none;
      }
    </style>
  </defs>
  <g id="ic_date_range_white_24px_1_" data-name="ic_date_range_white_24px (1)" class="cls-1" transform="translate(-6391.878 12810.665)">
    <path id="Path_307" data-name="Path 307" class="cls-2" d="M15.923,21.384H11.615v4.308h4.308Zm8.615,0H20.23v4.308h4.308Zm8.615,0H28.845v4.308h4.308ZM37.46,6.308H35.307V2H31V6.308H13.769V2H9.461V6.308H7.308a4.288,4.288,0,0,0-4.286,4.308L3,40.768a4.306,4.306,0,0,0,4.308,4.308H37.46a4.32,4.32,0,0,0,4.308-4.308V10.615A4.32,4.32,0,0,0,37.46,6.308Zm0,34.46H7.308V17.076H37.46Z" transform="translate(3.461 2.308)"/>
    <path id="Path_308" data-name="Path 308" class="cls-3" d="M0,0H51.691V51.691H0Z"/>
  </g>
</svg>
