<svg xmlns="http://www.w3.org/2000/svg" xmlns:xlink="http://www.w3.org/1999/xlink" viewBox="-1741 -5499 4923 920">
  <defs>
    <style>
      .cls-1 {
        fill: #ea495c;
      }

      .cls-2 {
        filter: url(#Ellipse_3);
      }
    </style>
    <filter id="Ellipse_3" x="-1741" y="-5499" width="4923" height="920" filterUnits="userSpaceOnUse">
      <feOffset dy="20" input="SourceAlpha"/>
      <feGaussianBlur stdDeviation="10" result="blur"/>
      <feFlood flood-opacity="0.161"/>
      <feComposite operator="in" in2="blur"/>
      <feComposite in="SourceGraphic"/>
    </filter>
  </defs>
  <g class="cls-2" transform="matrix(1, 0, 0, 1, 0, 0)">
    <ellipse id="Ellipse_3-2" data-name="Ellipse 3" class="cls-1" cx="2431.5" cy="430" rx="2431.5" ry="430" transform="translate(-1711 -5489)"/>
  </g>
</svg>
