<svg xmlns="http://www.w3.org/2000/svg" viewBox="-7996 6428 46 46">
  <defs>
    <style>
      .cls-1, .cls-2 {
        fill: none;
      }

      .cls-1 {
        stroke: #ea495c;
        stroke-linecap: round;
        stroke-linejoin: round;
        stroke-miterlimit: 10;
        stroke-width: 3px;
      }
    </style>
  </defs>
  <g id="Group_2274" data-name="Group 2274" transform="translate(-9327 4896)">
    <g id="View" transform="translate(1332 1536)">
      <path id="Path_639" data-name="Path 639" class="cls-1" d="M2,19.056S10.032,5,22.08,5,42.16,19.056,42.16,19.056,34.128,33.112,22.08,33.112,2,19.056,2,19.056Z" transform="translate(0 0)"/>
      <circle id="Ellipse_145" data-name="Ellipse 145" class="cls-1" cx="6.024" cy="6.024" r="6.024" transform="translate(16.056 13.032)"/>
    </g>
    <rect id="Rectangle_1385" data-name="Rectangle 1385" class="cls-2" width="46" height="46" transform="translate(1331 1532)"/>
  </g>
</svg>
