<svg id="Group_1238" data-name="Group 1238" xmlns="http://www.w3.org/2000/svg" xmlns:xlink="http://www.w3.org/1999/xlink" viewBox="-5 2026 1925 1998.571">
  <defs>
    <style>
      .cls-1 {
        fill: none;
      }

      .cls-2 {
        opacity: 0.16;
      }

      .cls-3 {
        clip-path: url(#clip-path);
      }

      .cls-4 {
        clip-path: url(#clip-path-2);
      }

      .cls-5 {
        fill: #fff;
      }

      .cls-6 {
        opacity: 0.32;
      }

      .cls-7 {
        clip-path: url(#clip-path-3);
      }

      .cls-8 {
        clip-path: url(#clip-path-4);
      }

      .cls-9 {
        clip-path: url(#clip-path-5);
      }

      .cls-10 {
        clip-path: url(#clip-path-6);
      }

      .cls-11 {
        fill: #f5f9fc;
      }
    </style>
    <clipPath id="clip-path">
      <rect id="Rectangle_5" data-name="Rectangle 5" class="cls-1" width="1920" height="1972.24"/>
    </clipPath>
    <clipPath id="clip-path-2">
      <rect id="Rectangle_4" data-name="Rectangle 4" class="cls-1" width="3346" height="452.079" transform="translate(3346 452.079) rotate(180)"/>
    </clipPath>
    <clipPath id="clip-path-3">
      <rect id="Rectangle_5-2" data-name="Rectangle 5" class="cls-1" width="1920" height="1508.83"/>
    </clipPath>
    <clipPath id="clip-path-4">
      <rect id="Rectangle_4-2" data-name="Rectangle 4" class="cls-1" width="3346" height="345.856" transform="translate(3346 345.856) rotate(180)"/>
    </clipPath>
    <clipPath id="clip-path-5">
      <rect id="Rectangle_5-3" data-name="Rectangle 5" class="cls-1" width="1920" height="1220" transform="translate(204.34 1232.03)"/>
    </clipPath>
    <clipPath id="clip-path-6">
      <rect id="Rectangle_4-3" data-name="Rectangle 4" class="cls-1" width="3346" height="279.65" transform="translate(3446.34 1507.8) rotate(180)"/>
    </clipPath>
  </defs>
  <g id="Inverse_3" data-name="Inverse 3" class="cls-2" transform="translate(-204.34 820.301)">
    <g id="Layer_1" data-name="Layer 1" transform="translate(204.34 1232.03)">
      <g id="Group_5" data-name="Group 5" class="cls-3">
        <g id="Group_4" data-name="Group 4" class="cls-4" transform="translate(-104 -6.273)">
          <path id="Path_3" data-name="Path 3" class="cls-5" d="M3483,1813.374c-100.33,27.126-145.33-65.391-320.62-67.573-313.2-3.912-387.79,288.69-729.5,381.353-326.61,88.573-403.45-139.431-810.56-86.892-414.12,53.445-487.26,309.076-823.76,293.928-313.79-14.129-531.24-249.068-566.79-287.478-343.54-371.185-270.25-1007.717-7.2-1377.334C869-236.3,3111-184.085,3625.26,592.1,3904,1012.806,3739.95,1743.909,3483,1813.374Z" transform="translate(-100.34 -1985.411)"/>
        </g>
      </g>
    </g>
  </g>
  <g id="Inverse_3-2" data-name="Inverse 3" class="cls-6" transform="translate(-209.34 811.301)">
    <g id="Layer_1-2" data-name="Layer 1" transform="translate(204.34 1232.03)">
      <g id="Group_5-2" data-name="Group 5" class="cls-7">
        <g id="Group_4-2" data-name="Group 4" class="cls-8" transform="translate(-104 -4.799)">
          <path id="Path_3-2" data-name="Path 3" class="cls-5" d="M3483,1387.294c-100.33,20.753-145.33-50.026-320.62-51.7-313.2-2.993-387.79,220.858-729.5,291.748-326.61,67.761-403.45-106.669-810.56-66.475-414.12,40.887-487.26,236.453-823.76,224.865-313.79-10.809-531.24-190.545-566.79-219.93C-111.77,1281.836-38.48,794.867,224.57,512.1,869-180.777,3111-140.83,3625.26,452.981,3904,774.832,3739.95,1334.151,3483,1387.294Z" transform="translate(-100.34 -1518.908)"/>
        </g>
      </g>
    </g>
  </g>
  <g id="Inverse_3-3" data-name="Inverse 3" transform="translate(-204.34 793.97)">
    <g id="Layer_1-3" data-name="Layer 1">
      <g id="Group_5-3" data-name="Group 5" class="cls-9">
        <g id="Group_4-3" data-name="Group 4" class="cls-10">
          <path id="Path_3-3" data-name="Path 3" class="cls-11" d="M3483,1121.73c-100.33,16.78-145.33-40.45-320.62-41.8-313.2-2.42-387.79,178.58-729.5,235.9-326.61,54.79-403.45-86.25-810.56-53.75-414.12,33.06-487.26,191.19-823.76,181.82-313.79-8.74-531.24-154.07-566.79-177.83-343.54-229.61-270.25-623.36-7.2-852C869-146.17,3111-113.87,3625.26,366.27,3904,626.51,3739.95,1078.76,3483,1121.73Z"/>
        </g>
      </g>
    </g>
  </g>
</svg>
