<svg xmlns="http://www.w3.org/2000/svg" xmlns:xlink="http://www.w3.org/1999/xlink" viewBox="-8417.355 9343.066 139.54 109.485">
  <defs>
    <style>
      .cls-1 {
        fill: #ea495c;
      }

      .cls-2 {
        clip-path: url(#clip-path);
      }
    </style>
    <clipPath id="clip-path">
      <rect id="Rectangle_9" data-name="Rectangle 9" class="cls-1" width="139.54" height="109.485"/>
    </clipPath>
  </defs>
  <g id="Group_353" data-name="Group 353" transform="translate(-8417.355 9343.067)">
    <g id="Group_16" data-name="Group 16" class="cls-2">
      <path id="Path_13" data-name="Path 13" class="cls-1" d="M103.005,802.365a10.376,10.376,0,0,0,15.027,0l52.059-52.059a11.135,11.135,0,0,0,3.22-5.367,49.889,49.889,0,0,0,14.491,2.147c11.271,0,14.491-4.831,16.1-8.05,1.073-2.683,2.147-9.124-5.9-16.637h0c-4.83-4.831-11.807-9.124-19.858-12.344-1.61-.536-2.684-1.074-4.294-1.61h0c0-6.44-5.367-11.271-11.807-11.808l-31.128-.536a14.986,14.986,0,0,0-10.734,4.293L68.12,752.453a10.376,10.376,0,0,0,0,15.028Zm40.252-87.481a9.094,9.094,0,0,1,12.344,0,10.046,10.046,0,0,1,2.683,7.514,61.309,61.309,0,0,0,11.807,6.44,37.068,37.068,0,0,1,4.294,1.61V718.1a.526.526,0,0,1,.537.537c6.977,2.683,12.881,6.44,16.638,10.734h0c3.757,3.757,4.294,6.441,3.757,6.977-1.073,2.147-11.271,4.294-27.371-2.147-4.83-2.146-9.124-4.293-12.344-6.977a.525.525,0,0,1-.537.536,9.094,9.094,0,0,1-12.344,0c-3.22-3.756-3.22-9.66.537-12.88Zm0,0" transform="translate(-65.437 -696.099)"/>
    </g>
  </g>
</svg>
