<svg xmlns="http://www.w3.org/2000/svg" viewBox="19881 -22097 222 222">
  <defs>
    <style>
      .cls-1, .cls-2 {
        fill: none;
      }

      .cls-1 {
        stroke: #ea495c;
        stroke-linecap: round;
        stroke-linejoin: round;
        stroke-miterlimit: 10;
        stroke-width: 4px;
      }
    </style>
  </defs>
  <g id="Bunglow" transform="translate(18543 -22589)">
    <g id="Bunglow-2" data-name="Bunglow" transform="translate(1369 515)">
      <path id="Path_546" data-name="Path 546" class="cls-1" d="M4,40.392v59.879H46.9V64.521H75.5v35.75h42.9l-.016-59.879" transform="translate(18.45 44.729)"/>
      <path id="Path_547" data-name="Path 547" class="cls-1" d="M5,41.353V3H19.3V28.347" transform="translate(24.6 36.15)"/>
      <path id="Path_548" data-name="Path 548" class="cls-1" d="M1,73.5,79.65,2,158.3,73.5" transform="translate(0 30)"/>
    </g>
    <rect id="Rectangle_1354" data-name="Rectangle 1354" class="cls-2" width="222" height="222" transform="translate(1338 492)"/>
  </g>
</svg>
