<svg xmlns="http://www.w3.org/2000/svg" xmlns:xlink="http://www.w3.org/1999/xlink" viewBox="19034 -22066.645 148 148">
  <defs>
    <style>
      .cls-1 {
        fill: url(#linear-gradient);
      }

      .cls-2 {
        fill: none;
      }
    </style>
    <linearGradient id="linear-gradient" x1="0.5" x2="0.5" y2="1" gradientUnits="objectBoundingBox">
      <stop offset="0" stop-color="#ff5858"/>
      <stop offset="1" stop-color="#ee4392"/>
    </linearGradient>
  </defs>
  <g id="Detached" transform="translate(19034 -22066.645)">
    <path id="Union_22" data-name="Union 22" class="cls-1" d="M-18952.6,22171.48v-37h-27.131v37h-33.92v-49.334H-19034l24.049-19.678v-19.789h18.5v4.65l25.285-20.687,67.828,55.5h-20.35v49.334Z" transform="translate(19040.166 -22046.912)"/>
    <path id="Path_232" data-name="Path 232" class="cls-2" d="M0,0H148V148H0Z"/>
  </g>
</svg>
