<svg xmlns="http://www.w3.org/2000/svg" viewBox="1074 -22171 222 222">
  <defs>
    <style>
      .cls-1, .cls-2 {
        fill: none;
      }

      .cls-3, .cls-4 {
        stroke: none;
      }

      .cls-4 {
        fill: #ea495c;
      }
    </style>
  </defs>
  <g id="elec" transform="translate(672 -22658)">
    <g id="elec-2" data-name="elec" transform="translate(466 526)">
      <g id="Union_1" data-name="Union 1" class="cls-1" transform="translate(0 0)">
        <path class="cls-3" d="M41.656,142.691a.6.6,0,0,1-.387-.16l-12.016-10.47a.637.637,0,0,1-.194-.451v-13.08a.517.517,0,0,1,.581-.548H63.081a.578.578,0,0,1,.581.58v13.563a.61.61,0,0,1-.162.419l-9.988,9.988a.612.612,0,0,1-.419.16ZM30.09,111.666a.6.6,0,0,1-.257-.063l-4.575-2.932a.41.41,0,0,1-.225-.419c.16-1.708.579-11.245-8.829-25.58l-.516-.773A46.89,46.89,0,1,1,80.8,79.352l-.869,1.224c-4.027,5.187-11.566,16.334-11.34,26.837a.516.516,0,0,1-.162.354l-4.64,3.8a.447.447,0,0,1-.29.1ZM50.773,19.4,26.869,53.8a.467.467,0,0,0,.386.742H40.947a.457.457,0,0,1,.451.515l-2.062,20.91a.437.437,0,0,0,.8.29l27.9-35.407a.459.459,0,0,0-.354-.741l-15.014-.322a3.943,3.943,0,0,1-3.769-4.607L51.611,19.75a.462.462,0,0,0-.838-.354Z"/>
        <path class="cls-4" d="M 51.69496154785156 138.6913757324219 L 59.66161727905273 130.7245330810547 L 59.66161727905273 121.9810256958008 L 33.05907440185547 121.9810256958008 L 33.05907440185547 130.0717315673828 L 42.9513053894043 138.6913757324219 L 51.69496154785156 138.6913757324219 M 62.24310684204102 107.6657638549805 L 64.61532592773438 105.7218322753906 C 65.12718963623047 94.76508331298828 72.29625701904297 83.90099334716797 76.71855926513672 78.19211578369141 L 77.53865814208984 77.03694152832031 L 77.70859527587891 76.79756927490234 L 77.91165924072266 76.5855712890625 C 81.65122222900391 72.68150329589844 84.58392333984375 68.17372131347656 86.62826538085938 63.18748474121094 C 88.74409484863281 58.02698516845703 89.81690216064453 52.56089782714844 89.81690216064453 46.94104766845703 C 89.81690216064453 41.13222122192383 88.68257141113281 35.50263595581055 86.44541931152344 30.2087230682373 C 84.28461456298828 25.09546089172363 81.18998718261719 20.50380897521973 77.24750518798828 16.56130981445313 C 73.30657196044922 12.62037467956543 68.71755218505859 9.52704906463623 63.6078987121582 7.367266178131104 C 58.32172393798828 5.132874965667725 52.7031364440918 3.999939918518066 46.908203125 3.999939918518066 C 41.11487579345703 3.999939918518066 35.49652862548828 5.13407039642334 30.20920372009277 7.370831489562988 C 25.10024642944336 9.532156944274902 20.51087760925293 12.62698364257813 16.56855010986328 16.56937408447266 C 12.62626838684082 20.51172256469727 9.53150749206543 25.10113525390625 7.37026834487915 30.21009254455566 C 5.133594512939453 35.49735260009766 3.999507427215576 41.11557006835938 3.999507427215576 46.90869903564453 C 3.999507427215576 53.13609313964844 5.30131196975708 59.13661575317383 7.868790149688721 64.74359130859375 C 9.100898742675781 67.43435668945313 10.62124633789063 70.00743865966797 12.38757228851318 72.39139556884766 C 14.14111614227295 74.75804901123047 16.14637756347656 76.95102691650391 18.34770393371582 78.90943908691406 L 18.73163795471191 79.25102996826172 L 19.01676750183105 79.67855072021484 L 19.53239822387695 80.45169830322266 L 19.5406379699707 80.46407318115234 L 19.54878997802734 80.47648620605469 C 23.7789421081543 86.9224853515625 26.65492057800293 93.24394226074219 28.09685516357422 99.26522064208984 C 28.81752014160156 102.2745742797852 29.04104232788086 104.6851272583008 29.08022689819336 106.3688430786133 L 31.1037654876709 107.6657638549805 L 62.24310684204102 107.6657638549805 M 35.36054992675781 75.53298187255859 L 37.03542327880859 58.54511260986328 L 27.2553768157959 58.54511260986328 C 25.58016014099121 58.54511260986328 24.05935478210449 57.62550354003906 23.28644180297852 56.14515686035156 C 22.51387786865234 54.66548156738281 22.6290283203125 52.89200592041016 23.58411598205566 51.52091979980469 L 47.48948669433594 17.11178779602051 C 48.32794189453125 15.90613555908203 49.69942092895508 15.18635272979736 51.158203125 15.18635272979736 C 52.49307250976563 15.18635272979736 53.74665832519531 15.77487468719482 54.59750747680664 16.80100440979004 C 55.43880462646484 17.81559181213379 55.78456878662109 19.14480972290039 55.54896926879883 20.45355987548828 L 52.85974884033203 35.7923583984375 L 67.75243377685547 36.11164855957031 C 69.43700408935547 36.13506317138672 70.93842315673828 37.08480834960938 71.68183135986328 38.60215759277344 C 72.4383544921875 40.14628601074219 72.25518035888672 41.94770050048828 71.20376586914063 43.30337524414063 L 71.19429016113281 43.31559371948242 L 71.18472290039063 43.32774353027344 L 43.36032104492188 78.63700866699219 C 42.52685928344727 79.79148101806641 41.21233367919922 80.47091674804688 39.77987670898438 80.47091674804688 C 38.4871826171875 80.47080993652344 37.25976943969727 79.90972137451172 36.41237640380859 78.93152618408203 C 35.60087203979492 77.99475860595703 35.22129440307617 76.76294708251953 35.36054992675781 75.53298187255859 M 53.09326934814453 142.6913757324219 L 41.65576934814453 142.6913757324219 C 41.52783203125 142.6913757324219 41.36620330810547 142.6279602050781 41.26905059814453 142.531005859375 L 29.25292015075684 132.0606994628906 C 29.1235294342041 131.9314422607422 29.05907249450684 131.7698822021484 29.05907249450684 131.6095123291016 L 29.05907249450684 118.5291137695313 C 29.05907249450684 118.2377700805664 29.27060699462891 117.9719467163086 29.54964256286621 117.9719467163086 C 29.57896423339844 117.9719467163086 29.60901260375977 117.9748764038086 29.6396598815918 117.9810256958008 L 63.08105087280273 117.9810256958008 C 63.40283203125 117.9810256958008 63.66161727905273 118.2382888793945 63.66161727905273 118.5614395141602 L 63.66161727905273 132.1241607666016 C 63.66161727905273 132.2856750488281 63.5966796875 132.4472503662109 63.50000762939453 132.54296875 L 53.51220321655273 142.531005859375 C 53.4150276184082 142.6279602050781 53.25439834594727 142.6913757324219 53.09326934814453 142.6913757324219 Z M 63.50000762939453 111.6657638549805 L 30.09033393859863 111.6657638549805 C 29.99365997314453 111.6657638549805 29.89648628234863 111.634635925293 29.8330078125 111.6023559570313 L 25.2583122253418 108.6703567504883 C 25.09668159484863 108.573371887207 24.99950790405273 108.4118118286133 25.033203125 108.25146484375 C 25.19335556030273 106.543701171875 25.61231231689453 97.00682830810547 16.20459365844727 82.67108917236328 L 15.68896389007568 81.89794158935547 C 6.056159496307373 73.32807159423828 -0.000492527149617672 60.82685470581055 -0.000492527149617672 46.90869903564453 C -0.000492527149617672 21.00641822814941 21.0048770904541 -6.00426719756797e-05 46.908203125 -6.00426719756797e-05 C 72.81055450439453 -6.00426719756797e-05 93.81690216064453 20.97406959533691 93.81690216064453 46.94104766845703 C 93.81690216064453 59.505615234375 88.85546112060547 70.94293975830078 80.80029296875 79.35248565673828 L 79.93115997314453 80.57672119140625 C 75.90428924560547 85.76342010498047 68.36474609375 96.91107177734375 68.59130859375 107.4137649536133 C 68.59130859375 107.5429611206055 68.52637481689453 107.671028137207 68.42920684814453 107.7680053710938 L 63.78955078125 111.5700073242188 C 63.72509384155273 111.634635925293 63.5966796875 111.6657638549805 63.50000762939453 111.6657638549805 Z M 51.158203125 19.18635368347168 C 51.01807403564453 19.18635368347168 50.87450790405273 19.250244140625 50.77344131469727 19.39557075500488 L 26.86913871765137 53.80315780639648 C 26.64405059814453 54.12628936767578 26.86913871765137 54.54511260986328 27.2553768157959 54.54511260986328 L 40.94726943969727 54.54511260986328 C 41.20605087280273 54.54511260986328 41.43115997314453 54.77013397216797 41.39844131469727 55.05974578857422 L 39.33692169189453 75.96930694580078 C 39.29499816894531 76.26047515869141 39.53543090820313 76.47089385986328 39.78022766113281 76.47092437744141 C 39.91473388671875 76.47093963623047 40.05052185058594 76.40744018554688 40.14159393310547 76.25891876220703 L 68.04296112060547 40.85198211669922 C 68.26757049560547 40.56237411499023 68.07520294189453 40.11120223999023 67.68848419189453 40.11120223999023 L 52.67431259155273 39.78931045532227 C 50.29052734375 39.72467803955078 48.48681259155273 37.53343963623047 48.90576934814453 35.18183135986328 L 51.61133193969727 19.74980926513672 C 51.67481231689453 19.41289710998535 51.42235565185547 19.18635368347168 51.158203125 19.18635368347168 Z"/>
      </g>
    </g>
    <rect id="Rectangle_1364" data-name="Rectangle 1364" class="cls-2" width="222" height="222" transform="translate(402 487)"/>
  </g>
</svg>
