<svg xmlns="http://www.w3.org/2000/svg" xmlns:xlink="http://www.w3.org/1999/xlink" viewBox="-6228 -19504 1925 825">
  <defs>
    <style>
      .cls-1 {
        fill: none;
      }

      .cls-2 {
        clip-path: url(#clip-path);
      }

      .cls-3 {
        fill: url(#linear-gradient);
      }

      .cls-4, .cls-5 {
        fill: #fff;
      }

      .cls-4 {
        opacity: 0.17;
      }

      .cls-5 {
        opacity: 0.13;
      }
    </style>
    <clipPath id="clip-path">
      <rect id="Rectangle_1329" data-name="Rectangle 1329" class="cls-1" width="1925" height="825" transform="translate(-6228 -19504)"/>
    </clipPath>
    <linearGradient id="linear-gradient" x1="0.5" x2="0.5" y2="1" gradientUnits="objectBoundingBox">
      <stop offset="0" stop-color="#ff5858"/>
      <stop offset="1" stop-color="#ee4392"/>
    </linearGradient>
  </defs>
  <g id="Mask_Group_20" data-name="Mask Group 20" class="cls-2">
    <g id="Group_2211" data-name="Group 2211" transform="translate(105 294)">
      <path id="Union_24" data-name="Union 24" class="cls-3" d="M0,1032V478H1925v554ZM0,477.975V293.037c75.657,50.622,177.461,98.4,297.373,103.891C558.12,408.846,614.8,207.717,935.69,165.668c148.21-19.421,239.932,9.88,321.774,39.181,92.355,33.066,172.131,66.131,306.307,29.184C1735.678,186.692,1820.338,73.059,1925,0V477.975Z" transform="translate(-6333 -19798)"/>
      <path id="Union_25" data-name="Union 25" class="cls-4" d="M0,931V238.2c75.653,41.146,177.46,79.982,297.371,84.447C558.12,332.34,614.8,168.846,935.692,134.668c148.209-15.789,239.931,8.029,321.771,31.848,92.352,26.877,172.131,53.754,306.306,23.723C1735.677,151.758,1820.338,59.385,1925,0V931Z" transform="translate(-6333 -19660)"/>
      <path id="Union_26" data-name="Union 26" class="cls-5" d="M-36,811.82V180.334c75.653,33.74,177.461,65.588,297.373,69.252C522.119,257.527,578.8,123.463,899.69,95.43c148.211-12.949,239.934,6.584,321.777,26.115,92.352,22.045,172.126,44.084,306.306,19.457C1699.679,109.447,1784.341,33.7,1889-15V811.82Z" transform="translate(-6297 -19521.818)"/>
    </g>
  </g>
</svg>
