<svg xmlns="http://www.w3.org/2000/svg" viewBox="11010 -22159 222 222">
  <defs>
    <style>
      .cls-1, .cls-2 {
        fill: none;
      }

      .cls-1 {
        stroke: #ea495c;
        stroke-width: 3px;
      }
    </style>
  </defs>
  <g id="Group_2230" data-name="Group 2230" transform="translate(10541 -22561)">
    <g id="google-glass-logo" transform="translate(516.625 455)">
      <g id="glass" transform="translate(6.375)">
        <path id="Path_178" data-name="Path 178" class="cls-1" d="M70.334,52.33V66.866h34.305c-3.489,20.35-19.769,34.887-40.119,34.887A43.926,43.926,0,0,1,20.911,58.144,43.926,43.926,0,0,1,64.519,14.536,40.8,40.8,0,0,1,94.754,27.909L105.22,17.443C94.754,6.977,80.8,0,64.519,0a58.144,58.144,0,0,0,0,116.288c31.979,0,55.237-26.165,55.237-58.144V52.33Z" transform="translate(-6.375)"/>
      </g>
    </g>
    <rect id="Rectangle_1341" data-name="Rectangle 1341" class="cls-2" width="222" height="222" transform="translate(469 402)"/>
  </g>
</svg>
