<svg xmlns="http://www.w3.org/2000/svg" viewBox="11576 -22145 222 222">
  <defs>
    <style>
      .cls-1, .cls-2 {
        fill: none;
      }

      .cls-1 {
        stroke: #ea495c;
        stroke-linecap: round;
        stroke-linejoin: round;
        stroke-miterlimit: 10;
        stroke-width: 4px;
      }
    </style>
  </defs>
  <g id="Group_2232" data-name="Group 2232" transform="translate(10583 -22589)">
    <g id="ic_radio_black_24px" transform="translate(1016.025 499.301)">
      <path id="Path_526" data-name="Path 526" class="cls-1" d="M17.5,64.306A38.983,38.983,0,0,0,17.5,8.4" transform="translate(113.593 18.56)"/>
      <path id="Path_527" data-name="Path 527" class="cls-1" d="M20.4,105.7a70.811,70.811,0,0,0,0-100" transform="translate(133.528 0)"/>
      <path id="Path_528" data-name="Path 528" class="cls-1" d="M16.811,64.306a38.983,38.983,0,0,1,0-55.906" transform="translate(27.668 18.56)"/>
      <path id="Path_529" data-name="Path 529" class="cls-1" d="M21.644,105.7a70.811,70.811,0,0,1,0-100" transform="translate(0 0)"/>
      <circle id="Ellipse_114" data-name="Ellipse 114" class="cls-1" cx="15.748" cy="15.748" r="15.748" transform="translate(72.038 39.558)"/>
    </g>
    <rect id="Rectangle_1343" data-name="Rectangle 1343" class="cls-2" width="222" height="222" transform="translate(993 444)"/>
  </g>
</svg>
