<svg xmlns="http://www.w3.org/2000/svg" viewBox="7844 -22099 222 222">
  <defs>
    <style>
      .cls-1, .cls-2 {
        fill: none;
      }

      .cls-1 {
        stroke: #ea495c;
        stroke-linecap: round;
        stroke-linejoin: round;
        stroke-miterlimit: 10;
        stroke-width: 4px;
      }
    </style>
  </defs>
  <g id="paper" transform="translate(6603 -22589)">
    <g id="paper-2" data-name="paper" transform="translate(1290 531.001)">
      <path id="Path_524" data-name="Path 524" class="cls-1" d="M3,1H120.467V138.045l-19.578-13.052L81.311,138.045,61.734,124.993,42.156,138.045,22.578,124.993,3,138.045Z"/>
      <line id="Line_186" data-name="Line 186" class="cls-1" x2="32.63" transform="translate(29.104 40.156)"/>
      <line id="Line_187" data-name="Line 187" class="cls-1" x2="6.526" transform="translate(87.837 40.156)"/>
      <line id="Line_188" data-name="Line 188" class="cls-1" x2="32.63" transform="translate(29.104 66.259)"/>
      <line id="Line_189" data-name="Line 189" class="cls-1" x2="6.526" transform="translate(87.837 66.259)"/>
      <line id="Line_190" data-name="Line 190" class="cls-1" x2="32.63" transform="translate(29.104 92.363)"/>
      <line id="Line_191" data-name="Line 191" class="cls-1" x2="6.526" transform="translate(87.837 92.363)"/>
    </g>
    <rect id="Rectangle_1338" data-name="Rectangle 1338" class="cls-2" width="222" height="222" transform="translate(1241 490)"/>
  </g>
</svg>
