<svg xmlns="http://www.w3.org/2000/svg" xmlns:xlink="http://www.w3.org/1999/xlink" viewBox="7881 -22073 179.045 179.045">
  <defs>
    <style>
      .cls-1 {
        fill: none;
      }

      .cls-2 {
        fill: url(#linear-gradient);
      }
    </style>
    <linearGradient id="linear-gradient" x1="0.5" x2="0.5" y2="1" gradientUnits="objectBoundingBox">
      <stop offset="0" stop-color="#ff5858"/>
      <stop offset="1" stop-color="#ee4392"/>
    </linearGradient>
  </defs>
  <g id="ic_description_black_24px" transform="translate(7881 -22073)">
    <path id="Path_217" data-name="Path 217" class="cls-1" d="M0,0H179.045V179.045H0Z"/>
    <path id="Path_218" data-name="Path 218" class="cls-2" d="M78.6,2H18.92A14.9,14.9,0,0,0,4.075,16.92L4,136.284A14.9,14.9,0,0,0,18.846,151.2h89.6a14.964,14.964,0,0,0,14.92-14.92V46.761Zm14.92,119.363H33.841v-14.92H93.522Zm0-29.841H33.841V76.6H93.522Zm-22.381-37.3V13.19l41.031,41.031Z" transform="translate(25.841 12.92)"/>
  </g>
</svg>
