<svg xmlns="http://www.w3.org/2000/svg" viewBox="897 -22098 62 62">
  <defs>
    <style>
      .cls-1, .cls-2 {
        fill: none;
      }

      .cls-1 {
        stroke: #ea495c;
        stroke-linecap: round;
        stroke-linejoin: round;
        stroke-miterlimit: 10;
        stroke-width: 4px;
      }
    </style>
  </defs>
  <g id="Back_Button" data-name="Back Button" transform="translate(797 -23144)">
    <g id="Back_Button-2" data-name="Back Button" transform="translate(106 1056.001)">
      <line id="Line_219" data-name="Line 219" class="cls-1" x1="46.224" transform="translate(2 21.179)"/>
      <path id="Path_563" data-name="Path 563" class="cls-1" d="M18.179,37.357,2,21.179,18.179,5"/>
    </g>
    <rect id="Rectangle_1364" data-name="Rectangle 1364" class="cls-2" width="62" height="62" transform="translate(100 1046)"/>
  </g>
</svg>
