<svg xmlns="http://www.w3.org/2000/svg" viewBox="13426 -22099 222 222">
  <defs>
    <style>
      .cls-1, .cls-2 {
        fill: none;
      }

      .cls-1 {
        stroke: #ea495c;
        stroke-linecap: round;
        stroke-linejoin: round;
        stroke-miterlimit: 10;
        stroke-width: 4px;
      }
    </style>
  </defs>
  <g id="wallet" transform="translate(12573 -22589)">
    <g id="wallet-2" data-name="wallet" transform="translate(898 535)">
      <circle id="Ellipse_127" data-name="Ellipse 127" class="cls-1" cx="65" cy="65" r="65" transform="translate(1 1)"/>
      <path id="Path_569" data-name="Path 569" class="cls-1" d="M39.25,17.818A14.783,14.783,0,0,0,24.773,6h0A14.771,14.771,0,0,0,10,20.773V71" transform="translate(44.182 24.545)"/>
      <line id="Line_224" data-name="Line 224" class="cls-1" x2="41.364" transform="translate(42.364 95.545)"/>
      <line id="Line_225" data-name="Line 225" class="cls-1" x2="29.545" transform="translate(42.364 66)"/>
    </g>
    <rect id="Rectangle_1349" data-name="Rectangle 1349" class="cls-2" width="222" height="222" transform="translate(853 490)"/>
  </g>
</svg>
