<svg xmlns="http://www.w3.org/2000/svg" viewBox="-6419.384 2748.55 44.27 39.087">
  <defs>
    <style>
      .cls-1 {
        fill: #ededed;
      }
    </style>
  </defs>
  <path id="Path_31" data-name="Path 31" class="cls-1" d="M801.666,494.8c-10.366,0-19,8.854-19,19.652H776.4l8.206,8.422.216.216,8.422-8.854h-6.263c0-8.422,6.694-15.333,14.685-15.333,8.206,0,14.685,6.91,14.685,15.333s-6.694,15.333-14.685,15.333a14.02,14.02,0,0,1-10.366-4.535l-3.023,3.023a18.288,18.288,0,0,0,13.389,5.831c10.366,0,19-8.854,19-19.652A19.266,19.266,0,0,0,801.666,494.8Zm-2.16,10.8v11.013l9.07,5.615,1.512-2.591-7.342-4.535v-9.286h-3.239Z" transform="translate(-7195.784 2253.75)"/>
</svg>
