<svg xmlns="http://www.w3.org/2000/svg" viewBox="7924 -18991.561 34 34">
  <defs>
    <style>
      .cls-1 {
        fill: none;
      }

      .cls-2 {
        fill: #ea495c;
      }
    </style>
  </defs>
  <g id="ic_remove_red_eye_black_24px_1_" data-name="ic_remove_red_eye_black_24px (1)" transform="translate(7924 -18991.561)">
    <path id="Path_414" data-name="Path 414" class="cls-1" d="M0,0H34V34H0Z"/>
    <path id="Path_415" data-name="Path 415" class="cls-2" d="M16.584,4.5A16.755,16.755,0,0,0,1,15.125a16.741,16.741,0,0,0,31.167,0A16.755,16.755,0,0,0,16.584,4.5Zm0,17.709a7.083,7.083,0,1,1,7.083-7.083A7.086,7.086,0,0,1,16.584,22.209Zm0-11.333a4.25,4.25,0,1,0,4.25,4.25A4.244,4.244,0,0,0,16.584,10.875Z" transform="translate(0.417 1.875)"/>
  </g>
</svg>
