<?xml version="1.0" encoding="utf-8"?>
<!-- Generator: Adobe Illustrator 22.1.0, SVG Export Plug-In . SVG Version: 6.00 Build 0)  -->
<svg version="1.1" id="Layer_1" xmlns="http://www.w3.org/2000/svg" xmlns:xlink="http://www.w3.org/1999/xlink" x="0px" y="0px"
	 viewBox="0 0 61 91.2" style="enable-background:new 0 0 61 91.2;" xml:space="preserve">
<style type="text/css">
	.st0{fill:#D8D8D8;}
</style>
<path class="st0" d="M30.5,0.2C14.9,0.2,2.1,13,2.1,28.8c0,8.2,3.4,15.4,8.8,20.7l0.3,0.3c4.5,6,6.8,13.1,6.8,21h-0.8
	c-1.8,0-3.4,1.5-3.4,3.4s1.5,3.4,3.4,3.4c-1.8,0-3.4,1.5-3.4,3.4c0,1.9,1.5,3.4,3.4,3.4c-1.8,0-3.4,1.5-3.4,3.4
	c0,1.9,1.5,3.4,3.4,3.4h26.7c1.8,0,3.4-1.5,3.4-3.4c0-1.9-1.5-3.4-3.4-3.4c1.9-0.1,3.4-1.7,3.4-3.5c0-1.9-1.5-3.4-3.4-3.4
	c1.8,0,3.4-1.5,3.4-3.4s-1.5-3.3-3.4-3.3h-0.8c0-8.1,2.3-15.1,6.8-21l0.3-0.3c5.4-5.2,8.8-12.6,8.8-20.7C58.9,13,46.1,0.2,30.5,0.2z
	 M34.4,70.8C34.4,70.8,34.4,70.8,34.4,70.8l5-30.3c0-1.2-1-2.2-2.2-2.2c-1.2,0-2.2,1-2.2,2.2c0,0.6-0.5,1.1-1.1,1.1
	c-0.6,0-1.1-0.5-1.1-1.1c0-1.2-1-2.2-2.2-2.2s-2.2,1-2.2,2.2c0,0.6-0.5,1.1-1.1,1.1c-0.6,0-1.1-0.5-1.1-1.1c0-1.2-1-2.2-2.2-2.2
	s-2.2,1-2.2,2.2l5,30.2c0,0,0,0.1,0,0.1h-2.2l-4.9-30c0-0.1,0-0.1,0-0.2c0-2.5,2-4.5,4.5-4.5c1.3,0,2.5,0.6,3.4,1.5
	c0.8-0.9,2-1.5,3.4-1.5s2.5,0.6,3.4,1.5c0.8-0.9,2-1.5,3.4-1.5c2.5,0,4.5,2,4.5,4.5c0,0.1,0,0.1,0,0.2l-4.9,30H34.4z M49.8,28.8
	c0-10.8-8.7-19.5-19.3-19.5h0.1V4.6c13.2,0,23.8,10.9,23.8,24.1H49.8z"/>
</svg>
