<?xml version="1.0" encoding="utf-8"?>
<!-- Generator: Adobe Illustrator 22.1.0, SVG Export Plug-In . SVG Version: 6.00 Build 0)  -->
<svg version="1.1" id="Layer_1" xmlns="http://www.w3.org/2000/svg" xmlns:xlink="http://www.w3.org/1999/xlink" x="0px" y="0px"
	 viewBox="0 0 65.3 91.7" style="enable-background:new 0 0 65.3 91.7;" xml:space="preserve">
<style type="text/css">
	.st0{fill:#D8D8D8;}
</style>
<g>
	<path class="st0" d="M40.5,90.9c-2.4,0.5-5,0.8-7.6,0.8C35.5,91.7,38.1,91.4,40.5,90.9z"/>
	<path class="st0" d="M55.1,29.1C48.3,17.8,38.6,8.1,26.9,0c0,0-3.6,16.5-13,28.7c0,0-13.9,17.4-13.9,34.9
		c0,15.5,14.5,28.1,32.6,28.1c0,0,0,0,0.1,0c-2.7,0-5.2-0.3-7.7-0.8c-7.4-2.7-8-14-8-14c0-7,2-7.7,3.5-11.2c1.5-3.3,3.3-9.3,3.3-9.3
		C31.2,63,30.2,67,30.2,67c7.4-9.5,5.7-25.1,5.7-25.1C40.1,44.3,51,57.5,51,69.8c0,11.4-8.6,19.7-10.1,21
		C55,87.6,65.3,76.6,65.3,63.6C65.1,52.1,61.9,40.4,55.1,29.1z"/>
</g>
</svg>
