<svg xmlns="http://www.w3.org/2000/svg" viewBox="5946 -3144 200 200">
  <defs>
    <style>
      .cls-1, .cls-2 {
        fill: none;
      }

      .cls-1 {
        stroke: #ea495c;
        stroke-linecap: square;
        stroke-miterlimit: 10;
        stroke-width: 4px;
      }
    </style>
  </defs>
  <g id="Group_2288" data-name="Group 2288" transform="translate(4953 -4699)">
    <g id="Complaints" transform="translate(1054 1618)">
      <path id="Path_602" data-name="Path 602" class="cls-1" d="M68.018,53.127C73.545,47.6,77,40.691,77,33.091,77,15.818,60.073,2,39,2S1,15.818,1,33.091,17.927,64.182,39,64.182A36.446,36.446,0,0,0,49.709,62.8l20.382,8.291Z" transform="translate(0 0)"/>
      <line id="Line_252" data-name="Line 252" class="cls-1" x2="27.636" transform="translate(25.182 26.182)"/>
      <line id="Line_253" data-name="Line 253" class="cls-1" x2="17.273" transform="translate(25.182 40)"/>
    </g>
    <rect id="Rectangle_1401" data-name="Rectangle 1401" class="cls-2" width="200" height="200" transform="translate(993 1555)"/>
  </g>
</svg>
