<svg xmlns="http://www.w3.org/2000/svg" viewBox="5377 -3428 200 200">
  <defs>
    <style>
      .cls-1, .cls-2 {
        fill: none;
      }

      .cls-1 {
        stroke: #ea495c;
        stroke-linecap: square;
        stroke-miterlimit: 10;
        stroke-width: 4px;
      }
    </style>
  </defs>
  <g id="Group_2282" data-name="Group 2282" transform="translate(4953 -4699)">
    <g id="usage" transform="translate(481 1334)">
      <line id="Line_240" data-name="Line 240" class="cls-1" x2="84.333" transform="translate(1 72)"/>
      <rect id="Rectangle_1281" data-name="Rectangle 1281" class="cls-1" width="15.333" height="34.5" transform="translate(4.833 22.167)"/>
      <rect id="Rectangle_1282" data-name="Rectangle 1282" class="cls-1" width="15.333" height="53.667" transform="translate(35.5 3)"/>
      <rect id="Rectangle_1283" data-name="Rectangle 1283" class="cls-1" width="15.333" height="19.167" transform="translate(66.167 37.5)"/>
    </g>
    <rect id="Rectangle_1395" data-name="Rectangle 1395" class="cls-2" width="200" height="200" transform="translate(424 1271)"/>
  </g>
</svg>
