<svg xmlns="http://www.w3.org/2000/svg" viewBox="5660 -3425 200 200">
  <defs>
    <style>
      .cls-1, .cls-2, .cls-3 {
        fill: none;
      }

      .cls-1, .cls-2 {
        stroke: #ea495c;
        stroke-miterlimit: 10;
        stroke-width: 4px;
      }

      .cls-2 {
        stroke-linecap: square;
      }
    </style>
  </defs>
  <g id="Group_2283" data-name="Group 2283" transform="translate(4953 -4699)">
    <g id="Smart-Meter" transform="translate(770 1336)">
      <line id="Line_241" data-name="Line 241" class="cls-1" y1="15.637" x2="15.637" transform="translate(12.641 46.327)"/>
      <circle id="Ellipse_133" data-name="Ellipse 133" class="cls-2" cx="6.82" cy="6.82" r="6.82" transform="translate(1 59.966)"/>
      <path id="Path_596" data-name="Path 596" class="cls-2" d="M67.786,66.786A64.788,64.788,0,0,0,3,2" transform="translate(4.82 0)"/>
      <line id="Line_242" data-name="Line 242" class="cls-2" y2="6.82" transform="translate(7.82 15.639)"/>
      <line id="Line_243" data-name="Line 243" class="cls-2" x1="4.825" y2="4.825" transform="translate(39.162 30.618)"/>
      <line id="Line_244" data-name="Line 244" class="cls-2" x1="6.82" transform="translate(52.147 66.786)"/>
    </g>
    <rect id="Rectangle_1396" data-name="Rectangle 1396" class="cls-3" width="200" height="200" transform="translate(707 1274)"/>
  </g>
</svg>
