<svg xmlns="http://www.w3.org/2000/svg" viewBox="5680 -3128 200 200">
  <defs>
    <style>
      .cls-1, .cls-3 {
        fill: none;
      }

      .cls-1 {
        stroke: #ea495c;
        stroke-linecap: square;
        stroke-miterlimit: 10;
        stroke-width: 4px;
      }

      .cls-2 {
        fill: #ea495c;
      }
    </style>
  </defs>
  <g id="Group_2287" data-name="Group 2287" transform="translate(4953 -4699)">
    <g id="Schemes" transform="translate(785 1637)">
      <path id="Path_601" data-name="Path 601" class="cls-1" d="M71.391,33.638A10.916,10.916,0,0,1,82.505,22.524V4H1V22.524A10.916,10.916,0,0,1,12.114,33.638,10.916,10.916,0,0,1,1,44.753V63.276H82.505V44.753A10.916,10.916,0,0,1,71.391,33.638Z" transform="translate(0 0)"/>
      <line id="Line_251" data-name="Line 251" class="cls-1" x1="22.229" y2="22.229" transform="translate(30.638 22.524)"/>
      <circle id="Ellipse_135" data-name="Ellipse 135" class="cls-2" cx="5.557" cy="5.557" r="5.557" transform="translate(26.933 15.114)"/>
      <circle id="Ellipse_136" data-name="Ellipse 136" class="cls-2" cx="5.557" cy="5.557" r="5.557" transform="translate(45.457 41.048)"/>
    </g>
    <rect id="Rectangle_1400" data-name="Rectangle 1400" class="cls-3" width="200" height="200" transform="translate(727 1571)"/>
  </g>
</svg>
