<svg xmlns="http://www.w3.org/2000/svg" viewBox="5680 -3711 200 200">
  <defs>
    <style>
      .cls-1, .cls-2, .cls-3 {
        fill: none;
      }

      .cls-1, .cls-2 {
        stroke: #ea495c;
        stroke-miterlimit: 10;
        stroke-width: 4px;
      }

      .cls-2 {
        stroke-linecap: square;
      }
    </style>
  </defs>
  <g id="Group_2279" data-name="Group 2279" transform="translate(4953 -4699)">
    <g id="Switching" transform="translate(790 1050)">
      <path id="Path_590" data-name="Path 590" class="cls-1" d="M2,38.605A36.713,36.713,0,0,1,38.605,2,36,36,0,0,1,71.184,22.133" transform="translate(-2 -0.902)"/>
      <path id="Path_591" data-name="Path 591" class="cls-1" d="M72.284,12A36.713,36.713,0,0,1,35.679,48.605,36,36,0,0,1,3.1,28.472" transform="translate(0.927 25.704)"/>
      <path id="Path_592" data-name="Path 592" class="cls-2" d="M39.892,1.7,36.963,23.3,15,20.369" transform="translate(32.587 -1.7)"/>
      <path id="Path_593" data-name="Path 593" class="cls-2" d="M2.2,38,5.128,16.4l21.963,2.928" transform="translate(-1.468 37.41)"/>
    </g>
    <rect id="Rectangle_1392" data-name="Rectangle 1392" class="cls-3" width="200" height="200" transform="translate(727 988)"/>
  </g>
</svg>
