<svg xmlns="http://www.w3.org/2000/svg" viewBox="13814 -6759 68 68">
  <defs>
    <style>
      .cls-1 {
        fill: #62c6f2;
      }

      .cls-2 {
        fill: none;
      }
    </style>
  </defs>
  <g id="ic_arrow_drop_down_black_24px_2_" data-name="ic_arrow_drop_down_black_24px (2)" transform="translate(13814 -6759)">
    <path id="Path_188" data-name="Path 188" class="cls-1" d="M7,10,21.167,24.167,35.333,10Z" transform="translate(12.833 18.333)"/>
    <path id="Path_189" data-name="Path 189" class="cls-2" d="M0,0H68V68H0Z"/>
  </g>
</svg>
