<svg xmlns="http://www.w3.org/2000/svg" viewBox="13085.178 -7093 80.213 122">
  <defs>
    <style>
      .cls-1 {
        fill: #64c7f2;
      }
    </style>
  </defs>
  <g id="elec" transform="translate(13085.178 -7093)">
    <path id="Path_109" data-name="Path 109" class="cls-1" d="M1431.906,199.7a40.093,40.093,0,0,0-26.692,70.021l.441.661c8.043,12.258,7.685,20.411,7.548,21.871a.353.353,0,0,0,.193.358l3.912,2.507a.52.52,0,0,0,.22.055h28.565a.385.385,0,0,0,.248-.083l3.967-3.25a.443.443,0,0,0,.138-.3c-.193-8.98,6.253-18.511,9.7-22.946l.744-1.047a40.115,40.115,0,0,0-28.978-67.845m-6.473,64.953,1.763-17.877a.392.392,0,0,0-.385-.441H1415.1a.4.4,0,0,1-.33-.634l20.439-29.419a.4.4,0,0,1,.716.3l-2.314,13.194a3.371,3.371,0,0,0,3.223,3.939l12.836.275a.392.392,0,0,1,.3.634L1426.122,264.9A.374.374,0,0,1,1425.433,264.653Z" transform="translate(-1391.8 -199.7)"/>
    <path id="Path_110" data-name="Path 110" class="cls-1" d="M1482,566.348v11.184a.545.545,0,0,0,.165.386l10.275,8.952a.509.509,0,0,0,.33.138h9.779a.523.523,0,0,0,.358-.138l8.539-8.539a.524.524,0,0,0,.138-.358v-11.6a.494.494,0,0,0-.5-.5H1482.5A.441.441,0,0,0,1482,566.348Z" transform="translate(-1457.154 -465.007)"/>
  </g>
</svg>
