<?xml version="1.0" encoding="utf-8"?>
<!-- Generator: Adobe Illustrator 22.1.0, SVG Export Plug-In . SVG Version: 6.00 Build 0)  -->
<svg version="1.1" id="Layer_1" xmlns="http://www.w3.org/2000/svg" xmlns:xlink="http://www.w3.org/1999/xlink" x="0px" y="0px"
	 viewBox="0 0 1500 1500" style="enable-background:new 0 0 1500 1500;" xml:space="preserve">
<style type="text/css">
	.st0{fill:url(#SVGID_1_);}
</style>
<linearGradient id="SVGID_1_" gradientUnits="userSpaceOnUse" x1="0" y1="750" x2="1500" y2="750">
	<stop  offset="0.25" style="stop-color:#F05B5B"/>
	<stop  offset="0.75" style="stop-color:#EE3D96"/>
</linearGradient>
<path class="st0" d="M1500,1438.4V0H0v1438.4c206.5,38.6,467,61.6,750,61.6S1293.5,1477,1500,1438.4z"/>
</svg>
